Direct 100x 4h,,Direct 30x 4h,,Direct 10x 4h,,Direct 3x 4h,,Direct 1x 4h,,Direct 0x 4h,,
Wavelength (nm),Abs,Wavelength (nm),Abs,Wavelength (nm),Abs,Wavelength (nm),Abs,Wavelength (nm),Abs,Wavelength (nm),Abs,
700.0089722,0.05840694159,700.0089722,0.05763953924,700.0089722,0.02810057439,700.0089722,0.02035037428,700.0089722,0.01931551471,700.0089722,0.01794597693,
699.0020142,0.05873348191,699.0020142,0.05809440836,699.0020142,0.02797701024,699.0020142,0.02039793134,699.0020142,0.01944505982,699.0020142,0.01814976335,
697.9946899,0.05932720006,697.9946899,0.05845909193,697.9946899,0.02862742729,697.9946899,0.02097916417,697.9946899,0.01976675913,697.9946899,0.01819824055,
696.9869995,0.05934114754,696.9869995,0.05836862698,696.9869995,0.02849873528,696.9869995,0.02096748166,696.9869995,0.01947979443,696.9869995,0.01812072098,
695.9790649,0.06014911458,695.9790649,0.05913829803,695.9790649,0.02908712626,695.9790649,0.02125336602,695.9790649,0.0200968571,695.9790649,0.01870799251,
694.9707031,0.06020819396,694.9707031,0.060009785,694.9707031,0.02918030322,694.9707031,0.02171849459,694.9707031,0.01999934576,694.9707031,0.01870218106,
693.9620972,0.06101998314,693.9620972,0.0601753369,693.9620972,0.0295322407,693.9620972,0.02136755548,693.9620972,0.02036700398,693.9620972,0.0189012941,
692.953125,0.06140723079,692.953125,0.06059617549,692.953125,0.02992841601,692.953125,0.02196832933,692.953125,0.02102024294,692.953125,0.01914918981,
691.9438477,0.06161901727,691.9438477,0.06082254276,691.9438477,0.03039787896,691.9438477,0.0219594799,691.9438477,0.02073888294,691.9438477,0.019453777,
690.9342041,0.06267668307,690.9342041,0.06171595305,690.9342041,0.0307854265,690.9342041,0.02264686301,690.9342041,0.02135202847,690.9342041,0.01977930218,
690.0685425,0.06251720339,690.0685425,0.06178171933,690.0685425,0.03079998679,690.0685425,0.02261304855,690.0685425,0.02145873755,690.0685425,0.01988719776,
689.0583496,0.06324016303,689.0583496,0.06212959439,689.0583496,0.03082274646,689.0583496,0.02276723087,689.0583496,0.02140962332,689.0583496,0.02021185495,
688.0477905,0.06378196925,688.0477905,0.06259379536,688.0477905,0.03147974983,688.0477905,0.02296592295,688.0477905,0.02207772247,688.0477905,0.02026926912,
687.0369263,0.06483359635,687.0369263,0.06318937987,687.0369263,0.03171661124,687.0369263,0.02337204851,687.0369263,0.02244278416,687.0369263,0.02047626488,
686.0256958,0.06515108049,686.0256958,0.06414464861,686.0256958,0.03221853822,686.0256958,0.02357801422,686.0256958,0.02309792489,686.0256958,0.02107151411,
685.0141602,0.06551174819,685.0141602,0.06456319988,685.0141602,0.03271680698,685.0141602,0.02380926348,685.0141602,0.02307993546,685.0141602,0.02103472315,
684.0023193,0.0658320114,684.0023193,0.06458746642,684.0023193,0.03299897164,684.0023193,0.02377661504,684.0023193,0.02323758788,684.0023193,0.02106080763,
682.9901733,0.0665737316,682.9901733,0.06536529958,682.9901733,0.03309768438,682.9901733,0.02442139573,682.9901733,0.02343324386,682.9901733,0.0214113351,
681.9776611,0.06703329086,681.9776611,0.0657908991,681.9776611,0.03375761211,681.9776611,0.02445055917,681.9776611,0.02370946668,681.9776611,0.02171827666,
680.9648438,0.06793773174,680.9648438,0.06645875424,680.9648438,0.03407197818,680.9648438,0.0248092059,680.9648438,0.02415629663,680.9648438,0.02200623415,
679.9517212,0.06864894181,679.9517212,0.06740821898,679.9517212,0.03484021127,679.9517212,0.02557337657,679.9517212,0.02478834987,679.9517212,0.02290020883,
678.9382935,0.06948278844,678.9382935,0.06777530164,678.9382935,0.0356865488,678.9382935,0.02623636834,678.9382935,0.02500214614,678.9382935,0.02320252359,
678.0693359,0.06952224672,678.0693359,0.06807719916,678.0693359,0.03522144258,678.0693359,0.02566838451,678.0693359,0.02510528453,678.0693359,0.02285139449,
677.0552979,0.07025650889,677.0552979,0.06850852817,677.0552979,0.03589838371,677.0552979,0.02607877925,677.0552979,0.02499838918,677.0552979,0.0233483389,
676.0408936,0.07117779553,676.0408936,0.06923027337,676.0408936,0.03666551784,676.0408936,0.02688442916,676.0408936,0.0256514959,676.0408936,0.02360438928,
675.0262451,0.07150077075,675.0262451,0.06967733055,675.0262451,0.03707257286,675.0262451,0.02707655728,675.0262451,0.02572130784,675.0262451,0.02393837646,
674.0112305,0.07217756659,674.0112305,0.07026667893,674.0112305,0.03706101328,674.0112305,0.02754785679,674.0112305,0.02599426173,674.0112305,0.0241462253,
672.9958496,0.07283174247,672.9958496,0.07090295851,672.9958496,0.03772925213,672.9958496,0.0274098888,672.9958496,0.02627046779,672.9958496,0.02452691644,
671.9802246,0.0735000968,671.9802246,0.07132980973,671.9802246,0.03794143721,671.9802246,0.02789140493,671.9802246,0.02641231008,671.9802246,0.02479564026,
670.9642334,0.07430498302,670.9642334,0.0720936656,670.9642334,0.03875764459,670.9642334,0.0282850638,670.9642334,0.02682090178,670.9642334,0.02526573092,
669.947998,0.07509473711,669.947998,0.07283284515,669.947998,0.03879576921,669.947998,0.0285581965,669.947998,0.02715257742,669.947998,0.02588008717,
668.9313965,0.07499350607,668.9313965,0.07322795689,668.9313965,0.03909553587,668.9313965,0.02861943655,668.9313965,0.02709733136,668.9313965,0.02566437609,
668.0597534,0.07586648315,668.0597534,0.07351239026,668.0597534,0.0395270735,668.0597534,0.02927076072,668.0597534,0.02754515223,668.0597534,0.0260365326,
667.0426025,0.07710894942,667.0426025,0.07482012361,667.0426025,0.04028216004,667.0426025,0.02961392887,667.0426025,0.02845910005,667.0426025,0.02662178688,
666.0250854,0.0775410831,666.0250854,0.07523991168,666.0250854,0.04073836282,666.0250854,0.02990395576,666.0250854,0.02832971327,666.0250854,0.02689855732,
665.0072632,0.07840329409,665.0072632,0.07574519515,665.0072632,0.04104058444,665.0072632,0.03025239892,665.0072632,0.02909963764,665.0072632,0.02725151554,
663.9891357,0.07926376909,663.9891357,0.07637237012,663.9891357,0.04206867144,663.9891357,0.03096827865,663.9891357,0.02948062308,663.9891357,0.02780286409,
662.9707031,0.08070231229,662.9707031,0.07778506726,662.9707031,0.04310574383,662.9707031,0.03195797279,662.9707031,0.03023744002,662.9707031,0.02857735567,
661.9519653,0.08096751571,661.9519653,0.07793932408,661.9519653,0.04338295758,661.9519653,0.03210926801,661.9519653,0.03009348363,661.9519653,0.02859162167,
660.9328613,0.08215443045,660.9328613,0.07901081443,660.9328613,0.04383051768,660.9328613,0.03250584751,660.9328613,0.03084508888,660.9328613,0.02952215448,
660.0591431,0.08237780631,660.0591431,0.07958128303,660.0591431,0.04447811842,660.0591431,0.03274519369,660.0591431,0.03121451102,660.0591431,0.02912388556,
659.0394897,0.08322741836,659.0394897,0.07987377048,659.0394897,0.04482987896,659.0394897,0.03313562274,659.0394897,0.03163304925,659.0394897,0.02983815409,
658.0195313,0.08400729299,658.0195313,0.08078670502,658.0195313,0.04583890736,658.0195313,0.0337328501,658.0195313,0.03228450567,658.0195313,0.03024149314,
656.9992676,0.08517871797,656.9992676,0.08173353225,656.9992676,0.04666722566,656.9992676,0.03441980481,656.9992676,0.03287414461,656.9992676,0.03114853799,
655.9786987,0.08607946336,655.9786987,0.08243698627,655.9786987,0.04675978422,655.9786987,0.03468687087,655.9786987,0.03293155506,655.9786987,0.03134498373,
654.9578247,0.08681225032,654.9578247,0.08283623308,654.9578247,0.04762258753,654.9578247,0.03519749641,654.9578247,0.03374963999,654.9578247,0.03160175681,
653.9365845,0.08751312643,653.9365845,0.08348471671,653.9365845,0.04833234474,653.9365845,0.03600012138,653.9365845,0.03422610834,653.9365845,0.0322383903,
653.0610352,0.08862579614,653.0610352,0.08450847864,653.0610352,0.04895836115,653.0610352,0.03681147099,653.0610352,0.03460326791,653.0610352,0.03295855969,
652.0393066,0.08921054006,652.0393066,0.0852669701,652.0393066,0.04988788813,652.0393066,0.03705080599,652.0393066,0.03527851775,652.0393066,0.03348309174,
651.0172119,0.09073670208,651.0172119,0.08648011833,651.0172119,0.0509644933,651.0172119,0.03800887242,651.0172119,0.03619578853,651.0172119,0.03415799886,
649.994812,0.09181075543,649.994812,0.08722757548,649.994812,0.05150599778,649.994812,0.03874734417,649.994812,0.03670100868,649.994812,0.03484411165,
648.9721069,0.09224359691,648.9721069,0.08746541291,648.9721069,0.05172825977,648.9721069,0.03849694505,648.9721069,0.03684776276,648.9721069,0.03478552029,
647.9490967,0.09328047186,647.9490967,0.08851794153,647.9490967,0.05253523216,647.9490967,0.03924641758,647.9490967,0.0374741666,647.9490967,0.03532344103,
647.0720215,0.09404496849,647.0720215,0.08896634728,647.0720215,0.05313571543,647.0720215,0.03977690265,647.0720215,0.03764619306,647.0720215,0.03596811742,
646.0484619,0.09525620192,646.0484619,0.09007357806,646.0484619,0.05404729024,646.0484619,0.04087010771,646.0484619,0.03840881586,646.0484619,0.03665656224,
645.0245972,0.09652101994,645.0245972,0.09072368592,645.0245972,0.05502298474,645.0245972,0.04161993042,645.0245972,0.03949401528,645.0245972,0.03723623231,
644.0004272,0.09733202308,644.0004272,0.09138515592,644.0004272,0.05585962906,644.0004272,0.04183644801,644.0004272,0.04002278671,644.0004272,0.03790604323,
642.9759521,0.0984370783,642.9759521,0.09258013219,642.9759521,0.05651246011,642.9759521,0.04258762673,642.9759521,0.040802598,642.9759521,0.03841744363,
641.9511108,0.09955579787,641.9511108,0.09319281578,641.9511108,0.05759301409,641.9511108,0.0433681123,641.9511108,0.04145056382,641.9511108,0.03924534097,
641.0725098,0.100946404,641.0725098,0.0945026949,641.0725098,0.05846688151,641.0725098,0.04410558566,641.0725098,0.04228521138,641.0725098,0.04043135419,
640.0471802,0.1013283581,640.0471802,0.09517336637,640.0471802,0.05905083567,640.0471802,0.04464224353,640.0471802,0.04259316623,640.0471802,0.04055652395,
639.0214844,0.1033578441,639.0214844,0.09649767727,639.0214844,0.0604888387,639.0214844,0.04584569484,639.0214844,0.04376374558,639.0214844,0.04157286882,
637.9955444,0.1041837037,637.9955444,0.09755255282,637.9955444,0.06160419062,637.9955444,0.0468775928,637.9955444,0.044391606,637.9955444,0.04241403192,
636.9692993,0.1053498685,636.9692993,0.09827663749,636.9692993,0.0628624633,636.9692993,0.04751035199,636.9692993,0.04551875591,636.9692993,0.04275112227,
635.942749,0.1069485247,635.942749,0.09949368984,635.942749,0.0636023581,635.942749,0.0487344712,635.942749,0.04619663581,635.942749,0.0439546667,
635.0626221,0.1078336388,635.0626221,0.1003254652,635.0626221,0.06451517344,635.0626221,0.0492515415,635.0626221,0.04712574556,635.0626221,0.04471006989,
634.0355225,0.1088746935,634.0355225,0.1011062711,634.0355225,0.06543406099,634.0355225,0.05009720847,634.0355225,0.04777761549,634.0355225,0.04533090815,
633.0081177,0.1100154892,633.0081177,0.1018036455,633.0081177,0.06616967171,633.0081177,0.05048995093,633.0081177,0.04819438607,633.0081177,0.0458387062,
631.9804077,0.1115461588,631.9804077,0.1033827364,631.9804077,0.06770305336,631.9804077,0.05201838538,631.9804077,0.04932496324,631.9804077,0.04731968045,
630.9523926,0.1132692546,630.9523926,0.1045890376,630.9523926,0.0690594092,630.9523926,0.05305658653,630.9523926,0.05058126524,630.9523926,0.04836779088,
630.0709839,0.1143135354,630.0709839,0.1054546982,630.0709839,0.07010343671,630.0709839,0.0536836274,630.0709839,0.05109591037,630.0709839,0.0490084067,
629.0424194,0.115786761,629.0424194,0.1062873378,629.0424194,0.07101830095,629.0424194,0.05492491648,629.0424194,0.05237493291,629.0424194,0.04985043034,
628.0135498,0.1167828217,628.0135498,0.1074715778,628.0135498,0.0724273324,628.0135498,0.05556222051,628.0135498,0.05328414962,628.0135498,0.050667651,
626.984436,0.118198216,626.984436,0.1082715243,626.984436,0.0733314082,626.984436,0.05666258559,626.984436,0.05417955667,626.984436,0.05171239376,
625.9549561,0.1195382327,625.9549561,0.1093642786,625.9549561,0.07477924973,625.9549561,0.05776169524,625.9549561,0.05489063635,625.9549561,0.05267832056,
625.0723267,0.1213124543,625.0723267,0.1107721701,625.0723267,0.07631170005,625.0723267,0.05906165764,625.0723267,0.05622689053,625.0723267,0.0537247248,
624.0423584,0.1225620136,624.0423584,0.1117273197,624.0423584,0.07739634067,624.0423584,0.0600249432,624.0423584,0.05731550604,624.0423584,0.0545611605,
623.0120239,0.1239039078,623.0120239,0.1130736098,623.0120239,0.07890733331,623.0120239,0.06137425452,623.0120239,0.05835305154,623.0120239,0.05588318408,
621.9814453,0.1252296865,621.9814453,0.1142701954,621.9814453,0.07994008064,621.9814453,0.06255618483,621.9814453,0.05978903919,621.9814453,0.05712744594,
620.9505615,0.1268970817,620.9505615,0.1149743125,620.9505615,0.08159456402,620.9505615,0.06347959489,620.9505615,0.06070690602,620.9505615,0.05798727274,
620.0667114,0.1281639189,620.0667114,0.1158953533,620.0667114,0.08279789239,620.0667114,0.06446240842,620.0667114,0.06158411503,620.0667114,0.05886703357,
619.0352783,0.1296032518,619.0352783,0.1171180159,619.0352783,0.08400336653,619.0352783,0.06565697491,619.0352783,0.06285271049,619.0352783,0.06025366113,
618.0036011,0.1316214949,618.0036011,0.1186842099,618.0036011,0.08577725291,618.0036011,0.0672724098,618.0036011,0.06428255141,618.0036011,0.06176360697,
616.9715576,0.1328938454,616.9715576,0.119736433,616.9715576,0.08735840768,616.9715576,0.06868781149,616.9715576,0.0654257834,616.9715576,0.06257744133,
615.93927,0.1348754466,615.93927,0.121176593,615.93927,0.0893144384,615.93927,0.07024510205,615.93927,0.06717077643,615.93927,0.06437882036,
615.0541992,0.1364037395,615.0541992,0.1221022531,615.0541992,0.09062340856,615.0541992,0.07118184865,615.0541992,0.06832277775,615.0541992,0.06546103209,
614.0213623,0.1383792162,614.0213623,0.1234598532,614.0213623,0.09249838442,614.0213623,0.0730112046,614.0213623,0.06941975653,614.0213623,0.06671693176,
612.9882202,0.139764145,612.9882202,0.1246344224,612.9882202,0.09434983879,612.9882202,0.07440472394,612.9882202,0.07118913531,612.9882202,0.06817822158,
611.954834,0.1416606903,611.954834,0.1260093898,611.954834,0.0961336717,611.954834,0.07592061907,611.954834,0.07262255996,611.954834,0.06980520487,
611.0687866,0.1433494389,611.0687866,0.1272409111,611.0687866,0.0978083685,611.0687866,0.0774282068,611.0687866,0.07435437292,611.0687866,0.07111333311,
610.0348511,0.1449313462,610.0348511,0.1281492561,610.0348511,0.09947015345,610.0348511,0.07902655751,610.0348511,0.07548873872,610.0348511,0.07265845686,
609.0006104,0.1466621011,609.0006104,0.1296881735,609.0006104,0.1014341563,609.0006104,0.08077345788,609.0006104,0.0772075206,609.0006104,0.07397180796,
607.9660645,0.148902446,607.9660645,0.13087596,607.9660645,0.1032621562,607.9660645,0.08260419965,607.9660645,0.07896104455,607.9660645,0.07579876482,
606.9312744,0.1505983323,606.9312744,0.1323355883,606.9312744,0.1054947004,606.9312744,0.08413794637,606.9312744,0.08070693165,606.9312744,0.07744933665,
606.0440063,0.1521197557,606.0440063,0.1333364248,606.0440063,0.1068135053,606.0440063,0.08575687557,606.0440063,0.08203100413,606.0440063,0.07882287353,
605.008667,0.1542401314,605.008667,0.1348633766,605.008667,0.109089449,605.008667,0.08782276511,605.008667,0.08406157047,605.008667,0.08094917238,
603.9730225,0.1559044272,603.9730225,0.1358841509,603.9730225,0.1110615358,603.9730225,0.0892232582,603.9730225,0.08563188463,603.9730225,0.08221924305,
602.9371338,0.1582333297,602.9371338,0.137668699,602.9371338,0.1136170104,602.9371338,0.09164442867,602.9371338,0.08806720376,602.9371338,0.08462934941,
602.0489502,0.159904018,602.0489502,0.1386813819,602.0489502,0.1151434779,602.0489502,0.09321340919,602.0489502,0.08932913095,602.0489502,0.08578135073,
601.0125122,0.1615751237,601.0125122,0.1398961246,601.0125122,0.1172979176,601.0125122,0.09509093314,601.0125122,0.09130589664,601.0125122,0.08786763251,
599.975769,0.1638669819,599.975769,0.1413787305,599.975769,0.120078586,599.975769,0.09749441594,599.975769,0.09359999746,599.975769,0.09024845064,
598.9387207,0.1657383442,598.9387207,0.1424438804,598.9387207,0.1221416891,598.9387207,0.09953036904,598.9387207,0.09543423355,598.9387207,0.09195984155,
598.0496216,0.1678865254,598.0496216,0.1440050453,598.0496216,0.1244386286,598.0496216,0.1017722338,598.0496216,0.09764261544,598.0496216,0.09399556369,
597.012085,0.1695599109,597.012085,0.1451910287,597.012085,0.1269081831,597.012085,0.1036823392,597.012085,0.09967438132,597.012085,0.09605608881,
595.9743042,0.1718284339,595.9743042,0.1464002728,595.9743042,0.1291711479,595.9743042,0.1058056355,595.9743042,0.1018572524,595.9743042,0.0980848074,
594.9361572,0.1738180965,594.9361572,0.1477536112,594.9361572,0.1317573339,594.9361572,0.1083860621,594.9361572,0.1038096473,594.9361572,0.1002645493,
594.0461426,0.1754726022,594.0461426,0.1490210295,594.0461426,0.1338936388,594.0461426,0.110442698,594.0461426,0.1059264988,594.0461426,0.1022502035,
593.0075073,0.1780781895,593.0075073,0.1506626308,593.0075073,0.1366397887,593.0075073,0.1131067574,593.0075073,0.108699441,593.0075073,0.1050442681,
591.9686279,0.1801775843,591.9686279,0.1522042006,591.9686279,0.1400857866,591.9686279,0.1157263666,591.9686279,0.1112724915,591.9686279,0.1075768173,
590.9294434,0.1825928092,590.9294434,0.1533308774,590.9294434,0.1423452199,590.9294434,0.1186085865,590.9294434,0.1140110567,590.9294434,0.1099876761,
590.0384521,0.1843872368,590.0384521,0.15463081,590.0384521,0.1449268311,590.0384521,0.121044293,590.0384521,0.1162874475,590.0384521,0.1126972288,
588.9987793,0.1863332391,588.9987793,0.1558741927,588.9987793,0.1476172209,588.9987793,0.1234399751,588.9987793,0.1187005043,588.9987793,0.1148048416,
587.9588013,0.1888840795,587.9588013,0.1573109329,587.9588013,0.1506325006,587.9588013,0.1261301637,587.9588013,0.1216870323,587.9588013,0.1175652668,
587.0671387,0.1906800866,587.0671387,0.1583649367,587.0671387,0.1533973515,587.0671387,0.1284524947,587.0671387,0.1237576306,587.0671387,0.1199456751,
586.0266724,0.1931028217,586.0266724,0.1601181626,586.0266724,0.1566760391,586.0266724,0.1319203973,586.0266724,0.1269384176,586.0266724,0.1231056079,
584.9858398,0.1955119818,584.9858398,0.1611634791,584.9858398,0.1596872211,584.9858398,0.1349342167,584.9858398,0.1300934851,584.9858398,0.1259382963,
583.9448242,0.1978585273,583.9448242,0.1624037921,583.9448242,0.1627102345,583.9448242,0.1380438209,583.9448242,0.132825017,583.9448242,0.1288062185,
583.0522461,0.1993362308,583.0522461,0.1636568308,583.0522461,0.1654191464,583.0522461,0.1405446082,583.0522461,0.1354232579,583.0522461,0.1313367784,
582.0106812,0.2014243454,582.0106812,0.1649690866,582.0106812,0.1686114818,582.0106812,0.1438305676,582.0106812,0.1386080682,582.0106812,0.1343155205,
580.9688721,0.2036206871,580.9688721,0.1659331024,580.9688721,0.1714318544,580.9688721,0.1464066952,580.9688721,0.1411676109,580.9688721,0.1372234523,
579.9267578,0.2056920081,579.9267578,0.1671323329,579.9267578,0.1749388129,579.9267578,0.1500026137,579.9267578,0.1446394771,579.9267578,0.1404883713,
579.0332642,0.2083315104,579.0332642,0.1684353501,579.0332642,0.1786148697,579.0332642,0.1532781422,579.0332642,0.1483137757,579.0332642,0.1438740492,
577.9906616,0.2104867399,577.9906616,0.1698961407,577.9906616,0.1819438934,577.9906616,0.15691185,577.9906616,0.1514889598,577.9906616,0.1470961422,
576.9477539,0.2127533555,576.9477539,0.1712130159,576.9477539,0.1853353232,576.9477539,0.160493046,576.9477539,0.1548842937,576.9477539,0.1506154686,
576.0536499,0.2141070515,576.0536499,0.1717351973,576.0536499,0.1879226714,576.0536499,0.162687093,576.0536499,0.1573415399,576.0536499,0.1528160572,
575.0102539,0.2165093571,575.0102539,0.17321302,575.0102539,0.1914302707,575.0102539,0.1662702262,575.0102539,0.1611396223,575.0102539,0.1564657092,
573.9665527,0.2187094837,573.9665527,0.1743422598,573.9665527,0.19519566,573.9665527,0.1704058945,573.9665527,0.1650127023,573.9665527,0.1603248417,
573.0717773,0.2209292054,573.0717773,0.1752869487,573.0717773,0.1986896098,573.0717773,0.1738551408,573.0717773,0.1683499813,573.0717773,0.1638326645,
572.0275879,0.2227791697,572.0275879,0.1762635261,572.0275879,0.2018450499,572.0275879,0.1771457642,572.0275879,0.171760723,572.0275879,0.1672159433,
570.9831543,0.2249109447,570.9831543,0.1771999449,570.9831543,0.2056743801,570.9831543,0.1810969263,570.9831543,0.1754732132,570.9831543,0.1710407287,
569.9384766,0.2267994881,569.9384766,0.1782626659,569.9384766,0.2089636326,569.9384766,0.1844284385,569.9384766,0.1788092107,569.9384766,0.174573943,
569.0427856,0.2285807282,569.0427856,0.1790399253,569.0427856,0.2119103372,569.0427856,0.1877420247,569.0427856,0.1822160482,569.0427856,0.1775105149,
567.9975586,0.2306824625,567.9975586,0.1804763675,567.9975586,0.2161697596,567.9975586,0.1919687688,567.9975586,0.186337173,567.9975586,0.1817904413,
566.9520874,0.2327732742,566.9520874,0.1811538041,566.9520874,0.2200505883,566.9520874,0.196399942,566.9520874,0.1902979761,566.9520874,0.1857300401,
566.0557251,0.2345727831,566.0557251,0.1821670681,566.0557251,0.2231093943,566.0557251,0.1996295899,566.0557251,0.1941086054,566.0557251,0.189162448,
565.0097656,0.2359083742,565.0097656,0.1825940758,565.0097656,0.226457119,565.0097656,0.2033682466,565.0097656,0.197560966,565.0097656,0.1932097524,
563.963501,0.238400057,563.963501,0.1837961078,563.963501,0.2308457941,563.963501,0.207942903,563.963501,0.2021507472,563.963501,0.1975216419,
563.0665283,0.2397578359,563.0665283,0.184448868,563.0665283,0.2337438762,563.0665283,0.2110141069,563.0665283,0.2054382712,563.0665283,0.2006689012,
562.0197754,0.2412844151,562.0197754,0.1848209053,562.0197754,0.2375550121,562.0197754,0.2152087837,562.0197754,0.2094855011,562.0197754,0.2047061473,
560.9727783,0.2435351759,560.9727783,0.1858292222,560.9727783,0.2416122258,560.9727783,0.2197850049,560.9727783,0.2140860707,560.9727783,0.2094052136,
559.9254761,0.2452850789,559.9254761,0.1866984963,559.9254761,0.2451478541,559.9254761,0.2240217626,559.9254761,0.2183244526,559.9254761,0.2135356218,
559.0276489,0.246894449,559.0276489,0.187273711,559.0276489,0.2491152287,559.0276489,0.2277451903,559.0276489,0.222403869,559.0276489,0.2177656591,
557.9798584,0.2483892292,557.9798584,0.1879513562,557.9798584,0.2523488402,557.9798584,0.2316052467,557.9798584,0.2263360471,557.9798584,0.221671626,
556.9318237,0.2498104274,556.9318237,0.1882166415,556.9318237,0.255538106,556.9318237,0.235378176,556.9318237,0.2301454991,556.9318237,0.2254726142,
556.0333252,0.2508119047,556.0333252,0.1885882467,556.0333252,0.2587798238,556.0333252,0.2390636653,556.0333252,0.2336735576,556.0333252,0.2288841456,
554.9848022,0.2526976168,554.9848022,0.189427197,554.9848022,0.2628267109,554.9848022,0.2438902855,554.9848022,0.2385874987,554.9848022,0.233963117,
553.9360352,0.254155755,553.9360352,0.1897733212,553.9360352,0.2664141953,553.9360352,0.2481457144,553.9360352,0.2428211421,553.9360352,0.2382490486,
553.0368652,0.2549286187,553.0368652,0.190248549,553.0368652,0.2692813873,553.0368652,0.2514102459,553.0368652,0.2463230193,553.0368652,0.2417258918,
551.9876099,0.2564333975,551.9876099,0.1905931532,551.9876099,0.27219823,551.9876099,0.2550715208,551.9876099,0.2498873621,551.9876099,0.2451718897,
550.9381104,0.2572118342,550.9381104,0.1907041371,550.9381104,0.2755058408,550.9381104,0.2592402995,550.9381104,0.2540121973,550.9381104,0.2495297939,
550.0383301,0.2582041621,550.0383301,0.1910408735,550.0383301,0.2786233127,550.0383301,0.2628674209,550.0383301,0.2578179538,550.0383301,0.2531312406,
548.9882813,0.2593306005,548.9882813,0.1910736561,548.9882813,0.2820421457,548.9882813,0.2669751942,548.9882813,0.2618516684,548.9882813,0.2575468421,
547.9380493,0.2599304616,547.9380493,0.1910811365,547.9380493,0.2847851217,547.9380493,0.2705210447,547.9380493,0.2655913234,547.9380493,0.2614684701,
547.0375977,0.2607779205,547.0375977,0.1911626905,547.0375977,0.2872180045,547.0375977,0.2735613883,547.0375977,0.268704325,547.0375977,0.2645070255,
545.9868774,0.2614049911,545.9868774,0.1911747158,545.9868774,0.2897381186,545.9868774,0.2769517004,545.9868774,0.2721985579,545.9868774,0.2681456506,
544.9358521,0.2619858086,544.9358521,0.1911127716,544.9358521,0.2921848595,544.9358521,0.2803840637,544.9358521,0.2757653296,544.9358521,0.2716901898,
544.03479,0.2624301314,544.03479,0.1911345124,544.03479,0.294794172,544.03479,0.2834518254,544.03479,0.2790704966,544.03479,0.2750627995,
542.9833374,0.2630821764,542.9833374,0.1910589188,542.9833374,0.297367245,542.9833374,0.2868888378,542.9833374,0.2827951014,542.9833374,0.2785504162,
541.9315796,0.2631088495,541.9315796,0.1907653809,541.9315796,0.29937464,541.9315796,0.2897478044,541.9315796,0.2856242061,541.9315796,0.2816897929,
541.0299072,0.2634941936,541.0299072,0.1908333749,541.0299072,0.30107373,541.0299072,0.2922581136,541.0299072,0.2881917655,541.0299072,0.2843619585,
539.9777222,0.2638475895,539.9777222,0.1906468719,539.9777222,0.3029937446,539.9777222,0.2949657142,539.9777222,0.2909889519,539.9777222,0.2871690989,
538.9252319,0.2636870742,538.9252319,0.1902274042,538.9252319,0.3050065637,538.9252319,0.2977187335,538.9252319,0.2941666543,538.9252319,0.2903924584,
538.0228882,0.2637766898,538.0228882,0.1899308711,538.0228882,0.3064034581,538.0228882,0.2998742759,538.0228882,0.2963806987,538.0228882,0.292683959,
536.9699707,0.2635629773,536.9699707,0.1890238225,536.9699707,0.3077793419,536.9699707,0.3021766543,536.9699707,0.298781842,536.9699707,0.2953621745,
536.0672607,0.2633608282,536.0672607,0.1887562424,536.0672607,0.3089189231,536.0672607,0.3039005101,536.0672607,0.3007895947,536.0672607,0.2973808348,
535.013855,0.2630639076,535.013855,0.1884818375,535.013855,0.3102094829,535.013855,0.3063898385,535.013855,0.3033487499,535.013855,0.3000695407,
533.9602051,0.2627135515,533.9602051,0.1876398176,533.9602051,0.3109561801,533.9602051,0.3078838587,533.9602051,0.3051671088,533.9602051,0.3018169403,
533.0568848,0.2622664571,533.0568848,0.1871854812,533.0568848,0.3113755584,533.0568848,0.3088726997,533.0568848,0.3061021268,533.0568848,0.3031185269,
532.0027466,0.2616990507,532.0027466,0.1866988689,532.0027466,0.3119187057,532.0027466,0.3103068769,532.0027466,0.3078792691,532.0027466,0.3048508465,
530.9483643,0.2604072094,530.9483643,0.1854958385,530.9483643,0.3121826649,530.9483643,0.3113187551,530.9483643,0.3091032505,530.9483643,0.3062754571,
530.0443726,0.2594794631,530.0443726,0.1845365465,530.0443726,0.3121921122,530.0443726,0.3119226098,530.0443726,0.3097300231,530.0443726,0.3070472181,
528.989563,0.2585785985,528.989563,0.1836843491,528.989563,0.3119483888,528.989563,0.3125578463,528.989563,0.3104605675,528.989563,0.3077767193,
527.9344482,0.2573057413,527.9344482,0.1828224957,527.9344482,0.311412394,527.9344482,0.3125645816,527.9344482,0.3106722534,527.9344482,0.3083593845,
527.0299072,0.2565362453,527.0299072,0.1822731495,527.0299072,0.3112132549,527.0299072,0.3128829896,527.0299072,0.3113108277,527.0299072,0.3088434637,
525.9743652,0.2552048266,525.9743652,0.1812616885,525.9743652,0.3103108704,525.9743652,0.3127640784,525.9743652,0.3111884892,525.9743652,0.30907166,
525.069397,0.2540383041,525.069397,0.1799093783,525.069397,0.309160471,525.069397,0.3124548793,525.069397,0.3110584319,525.069397,0.3089096844,
524.0133667,0.2520222664,524.0133667,0.1786807328,524.0133667,0.3077919781,524.0133667,0.3114748895,524.0133667,0.3103818297,524.0133667,0.3083049953,
522.9570923,0.2506352365,522.9570923,0.1777044386,522.9570923,0.3066952825,522.9570923,0.3110369444,522.9570923,0.3101270199,522.9570923,0.3078985512,
522.0515137,0.2493668646,522.0515137,0.1764829755,522.0515137,0.3053655624,522.0515137,0.3096641898,522.0515137,0.3087922037,522.0515137,0.3070195615,
520.994812,0.2475875616,520.994812,0.175491944,520.994812,0.3037678599,520.994812,0.3085905015,520.994812,0.3079705536,520.994812,0.3063369095,
519.9378052,0.2453072071,519.9378052,0.1735649854,519.9378052,0.3011650741,519.9378052,0.3068619072,519.9378052,0.3061782122,519.9378052,0.3046215475,
519.0316772,0.2438182533,519.0316772,0.1727401912,519.0316772,0.2994305491,519.0316772,0.3055120111,519.0316772,0.3049260676,519.0316772,0.303265363,
517.9742432,0.2414760292,517.9742432,0.1711080521,517.9742432,0.2970679402,517.9742432,0.3030824959,517.9742432,0.3026188612,517.9742432,0.3010196388,
517.067688,0.2400666326,517.067688,0.1699810922,517.067688,0.2950679958,517.067688,0.3014350832,517.067688,0.3010879755,517.067688,0.2997251451,
516.0098267,0.2378396392,516.0098267,0.1683003157,516.0098267,0.2920002937,516.0098267,0.2987675667,516.0098267,0.2985790372,516.0098267,0.297232002,
514.9516602,0.2357658446,514.9516602,0.1671677828,514.9516602,0.2896044254,514.9516602,0.2965532243,514.9516602,0.2964609563,514.9516602,0.2949823737,
514.0444946,0.2331964821,514.0444946,0.1656672508,514.0444946,0.2868690789,514.0444946,0.294138521,514.0444946,0.2940495908,514.0444946,0.2924566865,
512.9859619,0.2309418768,512.9859619,0.1638562232,512.9859619,0.2839085758,512.9859619,0.2909054458,512.9859619,0.2906937301,512.9859619,0.2898165286,
511.927124,0.2283370793,511.927124,0.1623239219,511.927124,0.2804002166,511.927124,0.2876561582,511.927124,0.2878338397,511.927124,0.2864781916,
511.0193787,0.2267247438,511.0193787,0.1609959602,511.0193787,0.2781048119,511.0193787,0.2853884697,511.0193787,0.2854749858,511.0193787,0.2843615115,
509.9601135,0.2243945152,509.9601135,0.15958561,509.9601135,0.27462852,509.9601135,0.2819772959,509.9601135,0.2822368145,509.9601135,0.2812401354,
509.052002,0.2221066356,509.052002,0.1579948217,509.052002,0.2720258534,509.052002,0.2792308629,509.052002,0.2793497443,509.052002,0.2784104645,
507.9922791,0.219357416,507.9922791,0.1561587751,507.9922791,0.2676964998,507.9922791,0.2751199305,507.9922791,0.2755095959,507.9922791,0.2746098638,
506.932312,0.217010051,506.932312,0.1547154039,506.932312,0.2646155953,506.932312,0.2719479203,506.932312,0.2721725702,506.932312,0.2709718049,
506.0235901,0.2145694643,506.0235901,0.1531979442,506.0235901,0.261380285,506.0235901,0.2682437301,506.0235901,0.268725276,506.0235901,0.2679688632,
504.9631958,0.2120996565,504.9631958,0.1516193002,504.9631958,0.2579597831,504.9631958,0.2644624114,504.9631958,0.2650627792,504.9631958,0.2639780045,
504.0541077,0.2103468031,504.0541077,0.1505217105,504.0541077,0.2555488348,504.0541077,0.2624747455,504.0541077,0.2628239989,504.0541077,0.2618907392,
502.9932556,0.2078086734,502.9932556,0.1486560702,502.9932556,0.2516419291,502.9932556,0.2583741248,502.9932556,0.2586740553,502.9932556,0.2577008307,
501.9321899,0.2046953291,501.9321899,0.1466233581,501.9321899,0.2476623654,501.9321899,0.2542511225,501.9321899,0.2547696829,501.9321899,0.2533273101,
501.022522,0.2024528533,501.022522,0.1453304887,501.022522,0.244511798,501.022522,0.2507147789,501.022522,0.2511878312,501.022522,0.2503524125,
499.9609985,0.2002425194,499.9609985,0.1439920217,499.9609985,0.2412108332,499.9609985,0.2474588603,499.9609985,0.2479391843,499.9609985,0.2471169531,
499.0509338,0.1985552162,499.0509338,0.1429441273,499.0509338,0.239104256,499.0509338,0.2452015728,499.0509338,0.2454882562,499.0509338,0.2444243431,
497.9889832,0.1962946504,497.9889832,0.1412324011,497.9889832,0.2353467047,497.9889832,0.2411539108,497.9889832,0.2414335608,497.9889832,0.2407937646,
496.9267883,0.1937842369,496.9267883,0.1398742646,496.9267883,0.2320643812,496.9267883,0.2376528084,496.9267883,0.2379967868,496.9267883,0.2374292016,
496.0161743,0.1917029619,496.0161743,0.1385000646,496.0161743,0.22920084,496.0161743,0.2347121239,496.0161743,0.2349639982,496.0161743,0.2340304106,
494.9535522,0.1898185164,494.9535522,0.1372825056,494.9535522,0.2262732387,494.9535522,0.2314671278,494.9535522,0.2318483442,494.9535522,0.2309245169,
494.0425415,0.1880682558,494.0425415,0.1364262551,494.0425415,0.2240970433,494.0425415,0.2289917916,494.0425415,0.2295622975,494.0425415,0.2284036577,
492.9794617,0.1863999069,492.9794617,0.1353559047,492.9794617,0.2212763876,492.9794617,0.2260028273,492.9794617,0.2263200879,492.9794617,0.2251602262,
492.0680847,0.1847494394,492.0680847,0.1340578943,492.0680847,0.2189909816,492.0680847,0.2235524356,492.0680847,0.2239252627,492.0680847,0.2226452827,
491.0046082,0.1828904152,491.0046082,0.1329158098,491.0046082,0.2161961645,491.0046082,0.2206358612,491.0046082,0.2210254371,491.0046082,0.2198225409,
489.9408875,0.1810943633,489.9408875,0.1316489428,489.9408875,0.2135920525,489.9408875,0.2176791728,489.9408875,0.2178206295,489.9408875,0.2168057263,
489.0289307,0.1797249913,489.0289307,0.1308284104,489.0289307,0.2113298178,489.0289307,0.215288341,489.0289307,0.215417251,489.0289307,0.2143957615,
487.9647827,0.1782324165,487.9647827,0.129687652,487.9647827,0.209044382,487.9647827,0.2129727751,487.9647827,0.2131387591,487.9647827,0.2120236903,
487.0524902,0.1773962229,487.0524902,0.1290061176,487.0524902,0.2075023502,487.0524902,0.2111264765,487.0524902,0.2113696188,487.0524902,0.2104527056,
485.9878845,0.1758637726,485.9878845,0.1282342374,485.9878845,0.2053435594,485.9878845,0.2088328451,485.9878845,0.2090762258,485.9878845,0.2080060095,
485.0752258,0.1744143516,485.0752258,0.1273328066,485.0752258,0.2031955719,485.0752258,0.2065149546,485.0752258,0.2063864917,485.0752258,0.2055011392,
484.0102234,0.1730624586,484.0102234,0.1263048947,484.0102234,0.2012609243,484.0102234,0.2044891715,484.0102234,0.2042877972,484.0102234,0.2033354193,
482.9449768,0.1721189022,482.9449768,0.1260803193,482.9449768,0.1998614967,482.9449768,0.203002274,482.9449768,0.2029322982,482.9449768,0.2018516809,
482.0317383,0.1710533947,482.0317383,0.1254281849,482.0317383,0.1986816376,482.0317383,0.2014150321,482.0317383,0.2013461441,482.0317383,0.200490281,
480.966095,0.1701444536,480.966095,0.1245805547,480.966095,0.1967139244,480.966095,0.1995201558,480.966095,0.1992123723,480.966095,0.1982550323,
480.0524902,0.169617787,480.0524902,0.1242724583,480.0524902,0.1955531538,480.0524902,0.1982213557,480.0524902,0.198232919,480.0524902,0.1972512752,
478.9864197,0.1683683991,478.9864197,0.1234070957,478.9864197,0.1941672862,478.9864197,0.1961277872,478.9864197,0.1966098249,478.9864197,0.1949713081,
478.0724487,0.1678463966,478.0724487,0.123134166,478.0724487,0.1931162626,478.0724487,0.1951399148,478.0724487,0.1952609122,478.0724487,0.1939641386,
477.0059509,0.1670258343,477.0059509,0.122620374,477.0059509,0.1919612437,477.0059509,0.1937770396,477.0059509,0.1938999593,477.0059509,0.1927460879,
475.9392395,0.1662605852,475.9392395,0.1221601367,475.9392395,0.1907673478,475.9392395,0.1926219165,475.9392395,0.1924626231,475.9392395,0.191244632,
475.0247192,0.1656084657,475.0247192,0.1217369139,475.0247192,0.1894772053,475.0247192,0.1912757605,475.0247192,0.1910835057,475.0247192,0.1899174303,
473.9575806,0.1649031341,473.9575806,0.1213905662,473.9575806,0.1885320246,473.9575806,0.1901166588,473.9575806,0.189705953,473.9575806,0.1885399818,
473.0427246,0.1645614505,473.0427246,0.1212970167,473.0427246,0.1878389567,473.0427246,0.1893140525,473.0427246,0.1892214417,473.0427246,0.1878111959,
471.9751587,0.1640462577,471.9751587,0.121002458,471.9751587,0.1868420392,471.9751587,0.1883266121,471.9751587,0.188063696,471.9751587,0.1866414845,
471.0599365,0.1635928005,471.0599365,0.1206871197,471.0599365,0.186102435,471.0599365,0.18735376,471.0599365,0.1871623397,471.0599365,0.1858818829,
469.9919739,0.163242653,469.9919739,0.1204860583,469.9919739,0.1855663061,469.9919739,0.1865271628,469.9919739,0.1862383932,469.9919739,0.1850264966,
468.9237671,0.1627365947,468.9237671,0.1201056913,468.9237671,0.1846240163,468.9237671,0.1856753379,468.9237671,0.1852709204,468.9237671,0.1839706749,
468.0079956,0.1626066417,468.0079956,0.1201054528,468.0079956,0.1841636449,468.0079956,0.1851582676,468.0079956,0.1849883944,468.0079956,0.1837118864,
466.9393921,0.1623663306,466.9393921,0.1198827624,466.9393921,0.1836170554,466.9393921,0.1845986247,466.9393921,0.1840617508,466.9393921,0.1829009056,
466.0232849,0.1619573087,466.0232849,0.1198361591,466.0232849,0.183252275,466.0232849,0.1839857101,466.0232849,0.1836817414,466.0232849,0.1823607534,
464.9542847,0.1615408063,464.9542847,0.1194422171,464.9542847,0.1824695021,464.9542847,0.183166042,464.9542847,0.1829521358,464.9542847,0.1816698313,
464.0378113,0.1615678072,464.0378113,0.1194459647,464.0378113,0.1821841598,464.0378113,0.1828555018,464.0378113,0.1822698414,464.0378113,0.1812667251,
462.9683838,0.1610838771,462.9683838,0.119362779,462.9683838,0.1817875654,462.9683838,0.1819800287,462.9683838,0.1818340272,462.9683838,0.1802909523,
462.0515747,0.1610764116,462.0515747,0.119345881,462.0515747,0.1815102249,462.0515747,0.1818324924,462.0515747,0.1815645993,462.0515747,0.18003878,
460.9817505,0.1606943905,460.9817505,0.1190140694,460.9817505,0.1809816211,460.9817505,0.1812222004,460.9817505,0.1807523072,460.9817505,0.1792681664,
460.0645752,0.1607609242,460.0645752,0.1190522388,460.0645752,0.1807960719,460.0645752,0.1809954345,460.0645752,0.1806226522,460.0645752,0.1791907698,
458.9943542,0.160553351,458.9943542,0.119000718,458.9943542,0.1805335134,458.9943542,0.1805777997,458.9943542,0.1801507026,458.9943542,0.1788125336,
457.9239197,0.1603648067,457.9239197,0.119069092,457.9239197,0.1802056581,457.9239197,0.1803272218,457.9239197,0.1797486097,457.9239197,0.1783911139,
457.0062256,0.1603124589,457.0062256,0.118918851,457.0062256,0.1797854155,457.0062256,0.1799295098,457.0062256,0.1792708784,457.0062256,0.1777221262,
455.9353638,0.1601982266,455.9353638,0.1188582927,455.9353638,0.1796620786,455.9353638,0.1796821952,455.9353638,0.1791244596,455.9353638,0.1776628941,
455.017334,0.1602488011,455.017334,0.1189264357,455.017334,0.179448843,455.017334,0.1795420945,455.017334,0.1790890694,455.017334,0.1775138229,
453.9460754,0.1603358984,453.9460754,0.1188021079,453.9460754,0.1794119775,453.9460754,0.1792801023,453.9460754,0.178646788,453.9460754,0.1771318316,
453.02771,0.1601283103,453.02771,0.1187263951,453.02771,0.1792266369,453.02771,0.1791305989,453.02771,0.1785306334,453.02771,0.1770698726,
451.9560547,0.1601385176,451.9560547,0.118903771,451.9560547,0.1790072471,451.9560547,0.1787759364,451.9560547,0.1781997979,451.9560547,0.1767215878,
451.0373535,0.1599566936,451.0373535,0.1189153418,451.0373535,0.1790023148,451.0373535,0.1786411554,451.0373535,0.1779841632,451.0373535,0.1764854938,
449.9653015,0.1599792987,449.9653015,0.1189034283,449.9653015,0.1787627637,449.9653015,0.1784491539,449.9653015,0.1777823567,449.9653015,0.176314339,
449.0462341,0.1599444598,449.0462341,0.1187302768,449.0462341,0.1788634509,449.0462341,0.1783298701,449.0462341,0.1776020974,449.0462341,0.1761163622,
447.9738159,0.1600006968,447.9738159,0.1187428683,447.9738159,0.1786369383,447.9738159,0.1781440824,447.9738159,0.1775359064,447.9738159,0.1760709733,
447.0544128,0.1599084735,447.0544128,0.1188381165,447.0544128,0.1786126941,447.0544128,0.1780046672,447.0544128,0.1770832092,447.0544128,0.175854072,
445.9815979,0.1602596641,445.9815979,0.1189120039,445.9815979,0.1786106229,445.9815979,0.1779730022,445.9815979,0.1772764027,445.9815979,0.1759884357,
445.0618591,0.1602587253,445.0618591,0.1190551668,445.0618591,0.178715691,445.0618591,0.1781019121,445.0618591,0.1772666276,445.0618591,0.1759805977,
443.9886475,0.1600763649,443.9886475,0.1190865263,443.9886475,0.1785489172,443.9886475,0.1779808104,443.9886475,0.1773540527,443.9886475,0.1759676337,
443.068573,0.1604186147,443.068573,0.1191700622,443.068573,0.1785239279,443.068573,0.1778037101,443.068573,0.1771884561,443.068573,0.1756985188,
441.9949646,0.1605583727,441.9949646,0.1192774326,441.9949646,0.1785549223,441.9949646,0.1780392677,441.9949646,0.1773996949,441.9949646,0.1758432835,
441.074585,0.1605191082,441.074585,0.1193456426,441.074585,0.1789054275,441.074585,0.178045392,441.074585,0.177205354,441.074585,0.1757534146,
440.0005798,0.1607762128,440.0005798,0.1195167527,440.0005798,0.1789082438,440.0005798,0.1780377924,440.0005798,0.1773638278,440.0005798,0.1758344322,
438.9263916,0.1609198302,438.9263916,0.1195759699,438.9263916,0.1790597141,438.9263916,0.1781760007,438.9263916,0.1773407757,438.9263916,0.1757771224,
438.0054932,0.1608690023,438.0054932,0.1195541471,438.0054932,0.1787914038,438.0054932,0.1781419367,438.0054932,0.1773565412,438.0054932,0.1757718772,
436.9309082,0.1610106677,436.9309082,0.1193055734,436.9309082,0.1788847148,436.9309082,0.1779081225,436.9309082,0.1772849411,436.9309082,0.1756814122,
436.0096741,0.1612764597,436.0096741,0.1197777614,436.0096741,0.1792149395,436.0096741,0.1783007085,436.0096741,0.1775244921,436.0096741,0.176065743,
434.9346924,0.1613139808,434.9346924,0.119904317,434.9346924,0.1794365495,434.9346924,0.1784240156,434.9346924,0.1777494103,434.9346924,0.1760938019,
434.0131226,0.1614991575,434.0131226,0.1197974458,434.0131226,0.1794956774,434.0131226,0.1783478558,434.0131226,0.1777844131,434.0131226,0.1761263162,
432.9377747,0.161673829,432.9377747,0.1202113777,432.9377747,0.1799201071,432.9377747,0.1788233966,432.9377747,0.1781129986,432.9377747,0.176221922,
432.0158997,0.1618928611,432.0158997,0.1204633787,432.0158997,0.1801401228,432.0158997,0.1790421605,432.0158997,0.1783043444,432.0158997,0.1767494678,
430.940155,0.1618768126,430.940155,0.1204200983,430.940155,0.1801516414,430.940155,0.1789615154,430.940155,0.1780737936,430.940155,0.1764780432,
430.0179443,0.1621848345,430.0179443,0.1204407662,430.0179443,0.1802847683,430.0179443,0.1790984869,430.0179443,0.1783075035,430.0179443,0.1767339855,
428.9418335,0.1623361558,428.9418335,0.1205698997,428.9418335,0.180302605,428.9418335,0.1790815592,428.9418335,0.1784910113,428.9418335,0.1767640561,
428.0193176,0.1623281837,428.0193176,0.1206192151,428.0193176,0.1806367338,428.0193176,0.1793971956,428.0193176,0.1785714477,428.0193176,0.177037254,
426.9428406,0.1625484526,426.9428406,0.1206675321,426.9428406,0.1805641204,426.9428406,0.1793346405,426.9428406,0.1785037369,426.9428406,0.1769949943,
426.0199585,0.1627975553,426.0199585,0.120961763,426.0199585,0.1808961332,426.0199585,0.1798230112,426.0199585,0.178890571,426.0199585,0.1773292869,
424.9431152,0.1629641205,424.9431152,0.1209979132,424.9431152,0.1811306328,424.9431152,0.1799759269,424.9431152,0.1790360957,424.9431152,0.1775009185,
424.019928,0.1631398648,424.019928,0.1211522967,424.019928,0.181452468,424.019928,0.1802656353,424.019928,0.1793510318,424.019928,0.177788198,
422.9427185,0.1633199304,422.9427185,0.121387966,422.9427185,0.1815551519,422.9427185,0.1803775281,422.9427185,0.1794510335,422.9427185,0.1778908819,
422.0192261,0.1635563672,422.0192261,0.1214520559,422.0192261,0.1819639355,422.0192261,0.1807588935,422.0192261,0.1797902733,422.0192261,0.1781895757,
420.9416199,0.1637769938,420.9416199,0.1215312555,420.9416199,0.1821260005,420.9416199,0.1808574647,420.9416199,0.1798412651,420.9416199,0.1783249825,
420.0177917,0.1639719009,420.0177917,0.1217417419,420.0177917,0.1823531091,420.0177917,0.1810400486,420.0177917,0.1800879985,420.0177917,0.1785058826,
418.9398499,0.164110288,418.9398499,0.1218069494,418.9398499,0.1826722026,418.9398499,0.1814894974,418.9398499,0.1804229021,418.9398499,0.1788262129,
418.0157166,0.1645062864,418.0157166,0.1222044528,418.0157166,0.1830578744,418.0157166,0.1818926632,418.0157166,0.1808575094,418.0157166,0.1793138683,
416.9373779,0.1644406468,416.9373779,0.1219264194,416.9373779,0.183008194,416.9373779,0.1820593029,416.9373779,0.1808975041,416.9373779,0.1793633848,
416.0129395,0.1648584455,416.0129395,0.1220992729,416.0129395,0.1834165603,416.0129395,0.1821857691,416.0129395,0.1810951531,416.0129395,0.1795534045,
414.9342346,0.165345341,414.9342346,0.1226144731,414.9342346,0.1840237081,414.9342346,0.1826570183,414.9342346,0.1816708148,414.9342346,0.1803113818,
414.009491,0.165512234,414.009491,0.1228601038,414.009491,0.1844002903,414.009491,0.1830538958,414.009491,0.1820523739,414.009491,0.1806266904,
412.9304199,0.1656678915,412.9304199,0.1227700487,412.9304199,0.1845024973,412.9304199,0.1832858324,412.9304199,0.1822291315,412.9304199,0.1806430966,
412.0053406,0.1656857878,412.0053406,0.1230871156,412.0053406,0.1846770048,412.0053406,0.1834401488,412.0053406,0.182474032,412.0053406,0.1807909608,
410.9259338,0.1662403792,410.9259338,0.1234524623,410.9259338,0.1854599267,410.9259338,0.1841771305,410.9259338,0.1831440926,410.9259338,0.1815275103,
410.0005493,0.1661212146,410.0005493,0.1231499761,410.0005493,0.1851899773,410.0005493,0.1837912053,410.0005493,0.1829208583,410.0005493,0.1813035458,
409.0750427,0.1665413529,409.0750427,0.1233405843,409.0750427,0.1858379692,409.0750427,0.1844304204,409.0750427,0.1833649129,409.0750427,0.1817605048,
407.9950867,0.1667354852,407.9950867,0.1235822216,407.9950867,0.1861055344,407.9950867,0.1848610342,407.9950867,0.183701694,407.9950867,0.1821865588,
407.0692749,0.1668731868,407.0692749,0.123728171,407.0692749,0.1863375306,407.0692749,0.1849271804,407.0692749,0.1839614213,407.0692749,0.1823536605,
405.9889526,0.1671501696,405.9889526,0.1237655133,405.9889526,0.1865780801,405.9889526,0.1852233261,405.9889526,0.1842705756,405.9889526,0.1827250272,
405.0628357,0.167992577,405.0628357,0.1244400814,405.0628357,0.1875584424,405.0628357,0.1863127202,405.0628357,0.1852110326,405.0628357,0.1835654229,
403.9821777,0.1674975604,403.9821777,0.1240295693,403.9821777,0.1872500032,403.9821777,0.1859345883,403.9821777,0.1849853098,403.9821777,0.1834489107,
403.0557251,0.1681078672,403.0557251,0.1244376972,403.0557251,0.1879952103,403.0557251,0.1867449433,403.0557251,0.1855537742,403.0557251,0.1840904951,
401.9747314,0.1683810204,401.9747314,0.1245548651,401.9747314,0.1883663535,401.9747314,0.1869889349,401.9747314,0.1861244887,401.9747314,0.1844872236,
401.0479736,0.1688881963,401.0479736,0.124810636,401.0479736,0.1888269633,401.0479736,0.1874841303,401.0479736,0.1866190135,401.0479736,0.1849641502,
399.9666138,0.169208467,399.9666138,0.1249391511,399.9666138,0.1891453564,399.9666138,0.187845856,399.9666138,0.1869090796,399.9666138,0.1854270846,

Direct 100x 4h,
Direct 100x 4h
Collection Time: 10/10/2015 4:29:30 PM
Operator Name  :
Scan Version 5.0.0.999
Parameter List :
Instrument  Cary 50
Instrument Version  3.00
Start (nm)  700.0
Stop (nm)  400.0
X Mode  Nanometers
Y Mode  Abs
UV-Vis Scan Rate (nm/min)  600.000
UV-Vis Data Interval (nm)  1.00
UV-Vis Ave. Time (sec)  0.1000
Beam Mode  Dual Beam
Baseline Correction  On
Baseline Type  Baseline correction
Baseline File Name
Baseline Std Ref File Name
Cycle Mode  Off
Method Log     :
Method Name    : C:\Users\heatherweltner\Documents\Au Standard.MSW
Date/Time stamp: 7/3/2015 11:24:50 AM
Method Modifications:
UVVIS SAT Changed: 7/1/2015 11:30:22 AM, Old:0.0125, New:0.1000
Common SAT Changed: 7/1/2015 11:30:22 AM, Old:0.0125, New:0.1000
X Start nm Changed: 7/1/2015 11:30:31 AM, Old:  800.0, New:  700.0
X Stop nm Changed: 7/1/2015 11:30:31 AM, Old:  200.0, New:  300.0
Common Interval nm Changed: 7/1/2015 11:30:31 AM, Old:     5.00, New:     1.00
Baseline Correction Changed: 7/1/2015 11:30:31 AM, Old:0, New:1
Saved as C:\Users\heatherweltner\Documents\Au Standard.MSWOpened C:\Users\heatherweltner\Documents\Au Standard.MSW
X Stop nm Changed: 7/3/2015 11:24:45 AM, Old:  300.0, New:  400.0
Saved as C:\Users\heatherweltner\Documents\Au Standard.MSW
Opened C:\Users\heatherweltner\Documents\Au Standard.MSW
End Method Modifications
<Current Wavelength> , 401.0

Direct 30x 4h,
Direct 30x 4h
Collection Time: 10/10/2015 4:30:21 PM
Operator Name  :
Scan Version 5.0.0.999
Parameter List :
Instrument  Cary 50
Instrument Version  3.00
Start (nm)  700.0
Stop (nm)  400.0
X Mode  Nanometers
Y Mode  Abs
UV-Vis Scan Rate (nm/min)  600.000
UV-Vis Data Interval (nm)  1.00
UV-Vis Ave. Time (sec)  0.1000
Beam Mode  Dual Beam
Baseline Correction  On
Baseline Type  Baseline correction
Baseline File Name
Baseline Std Ref File Name
Cycle Mode  Off
Method Log     :
Method Name    : C:\Users\heatherweltner\Documents\Au Standard.MSW
Date/Time stamp: 7/3/2015 11:24:50 AM
Method Modifications:
UVVIS SAT Changed: 7/1/2015 11:30:22 AM, Old:0.0125, New:0.1000
Common SAT Changed: 7/1/2015 11:30:22 AM, Old:0.0125, New:0.1000
X Start nm Changed: 7/1/2015 11:30:31 AM, Old:  800.0, New:  700.0
X Stop nm Changed: 7/1/2015 11:30:31 AM, Old:  200.0, New:  300.0
Common Interval nm Changed: 7/1/2015 11:30:31 AM, Old:     5.00, New:     1.00
Baseline Correction Changed: 7/1/2015 11:30:31 AM, Old:0, New:1
Saved as C:\Users\heatherweltner\Documents\Au Standard.MSWOpened C:\Users\heatherweltner\Documents\Au Standard.MSW
X Stop nm Changed: 7/3/2015 11:24:45 AM, Old:  300.0, New:  400.0
Saved as C:\Users\heatherweltner\Documents\Au Standard.MSW
Opened C:\Users\heatherweltner\Documents\Au Standard.MSW
End Method Modifications
<Current Wavelength> , 401.0

Direct 10x 4h,
Direct 10x 4h
Collection Time: 10/10/2015 4:31:49 PM
Operator Name  :
Scan Version 5.0.0.999
Parameter List :
Instrument  Cary 50
Instrument Version  3.00
Start (nm)  700.0
Stop (nm)  400.0
X Mode  Nanometers
Y Mode  Abs
UV-Vis Scan Rate (nm/min)  600.000
UV-Vis Data Interval (nm)  1.00
UV-Vis Ave. Time (sec)  0.1000
Beam Mode  Dual Beam
Baseline Correction  On
Baseline Type  Baseline correction
Baseline File Name
Baseline Std Ref File Name
Cycle Mode  Off
Method Log     :
Method Name    : C:\Users\heatherweltner\Documents\Au Standard.MSW
Date/Time stamp: 7/3/2015 11:24:50 AM
Method Modifications:
UVVIS SAT Changed: 7/1/2015 11:30:22 AM, Old:0.0125, New:0.1000
Common SAT Changed: 7/1/2015 11:30:22 AM, Old:0.0125, New:0.1000
X Start nm Changed: 7/1/2015 11:30:31 AM, Old:  800.0, New:  700.0
X Stop nm Changed: 7/1/2015 11:30:31 AM, Old:  200.0, New:  300.0
Common Interval nm Changed: 7/1/2015 11:30:31 AM, Old:     5.00, New:     1.00
Baseline Correction Changed: 7/1/2015 11:30:31 AM, Old:0, New:1
Saved as C:\Users\heatherweltner\Documents\Au Standard.MSWOpened C:\Users\heatherweltner\Documents\Au Standard.MSW
X Stop nm Changed: 7/3/2015 11:24:45 AM, Old:  300.0, New:  400.0
Saved as C:\Users\heatherweltner\Documents\Au Standard.MSW
Opened C:\Users\heatherweltner\Documents\Au Standard.MSW
End Method Modifications
<Current Wavelength> , 401.0

Direct 3x 4h,
Direct 3x 4h
Collection Time: 10/10/2015 4:32:41 PM
Operator Name  :
Scan Version 5.0.0.999
Parameter List :
Instrument  Cary 50
Instrument Version  3.00
Start (nm)  700.0
Stop (nm)  400.0
X Mode  Nanometers
Y Mode  Abs
UV-Vis Scan Rate (nm/min)  600.000
UV-Vis Data Interval (nm)  1.00
UV-Vis Ave. Time (sec)  0.1000
Beam Mode  Dual Beam
Baseline Correction  On
Baseline Type  Baseline correction
Baseline File Name
Baseline Std Ref File Name
Cycle Mode  Off
Method Log     :
Method Name    : C:\Users\heatherweltner\Documents\Au Standard.MSW
Date/Time stamp: 7/3/2015 11:24:50 AM
Method Modifications:
UVVIS SAT Changed: 7/1/2015 11:30:22 AM, Old:0.0125, New:0.1000
Common SAT Changed: 7/1/2015 11:30:22 AM, Old:0.0125, New:0.1000
X Start nm Changed: 7/1/2015 11:30:31 AM, Old:  800.0, New:  700.0
X Stop nm Changed: 7/1/2015 11:30:31 AM, Old:  200.0, New:  300.0
Common Interval nm Changed: 7/1/2015 11:30:31 AM, Old:     5.00, New:     1.00
Baseline Correction Changed: 7/1/2015 11:30:31 AM, Old:0, New:1
Saved as C:\Users\heatherweltner\Documents\Au Standard.MSWOpened C:\Users\heatherweltner\Documents\Au Standard.MSW
X Stop nm Changed: 7/3/2015 11:24:45 AM, Old:  300.0, New:  400.0
Saved as C:\Users\heatherweltner\Documents\Au Standard.MSW
Opened C:\Users\heatherweltner\Documents\Au Standard.MSW
End Method Modifications
<Current Wavelength> , 401.0

Direct 1x 4h,
Direct 1x 4h
Collection Time: 10/10/2015 4:33:26 PM
Operator Name  :
Scan Version 5.0.0.999
Parameter List :
Instrument  Cary 50
Instrument Version  3.00
Start (nm)  700.0
Stop (nm)  400.0
X Mode  Nanometers
Y Mode  Abs
UV-Vis Scan Rate (nm/min)  600.000
UV-Vis Data Interval (nm)  1.00
UV-Vis Ave. Time (sec)  0.1000
Beam Mode  Dual Beam
Baseline Correction  On
Baseline Type  Baseline correction
Baseline File Name
Baseline Std Ref File Name
Cycle Mode  Off
Method Log     :
Method Name    : C:\Users\heatherweltner\Documents\Au Standard.MSW
Date/Time stamp: 7/3/2015 11:24:50 AM
Method Modifications:
UVVIS SAT Changed: 7/1/2015 11:30:22 AM, Old:0.0125, New:0.1000
Common SAT Changed: 7/1/2015 11:30:22 AM, Old:0.0125, New:0.1000
X Start nm Changed: 7/1/2015 11:30:31 AM, Old:  800.0, New:  700.0
X Stop nm Changed: 7/1/2015 11:30:31 AM, Old:  200.0, New:  300.0
Common Interval nm Changed: 7/1/2015 11:30:31 AM, Old:     5.00, New:     1.00
Baseline Correction Changed: 7/1/2015 11:30:31 AM, Old:0, New:1
Saved as C:\Users\heatherweltner\Documents\Au Standard.MSWOpened C:\Users\heatherweltner\Documents\Au Standard.MSW
X Stop nm Changed: 7/3/2015 11:24:45 AM, Old:  300.0, New:  400.0
Saved as C:\Users\heatherweltner\Documents\Au Standard.MSW
Opened C:\Users\heatherweltner\Documents\Au Standard.MSW
End Method Modifications
<Current Wavelength> , 401.0

Direct 0x 4h,
Direct 0x 4h
Collection Time: 10/10/2015 4:34:12 PM
Operator Name  :
Scan Version 5.0.0.999
Parameter List :
Instrument  Cary 50
Instrument Version  3.00
Start (nm)  700.0
Stop (nm)  400.0
X Mode  Nanometers
Y Mode  Abs
UV-Vis Scan Rate (nm/min)  600.000
UV-Vis Data Interval (nm)  1.00
UV-Vis Ave. Time (sec)  0.1000
Beam Mode  Dual Beam
Baseline Correction  On
Baseline Type  Baseline correction
Baseline File Name
Baseline Std Ref File Name
Cycle Mode  Off
Method Log     :
Method Name    : C:\Users\heatherweltner\Documents\Au Standard.MSW
Date/Time stamp: 7/3/2015 11:24:50 AM
Method Modifications:
UVVIS SAT Changed: 7/1/2015 11:30:22 AM, Old:0.0125, New:0.1000
Common SAT Changed: 7/1/2015 11:30:22 AM, Old:0.0125, New:0.1000
X Start nm Changed: 7/1/2015 11:30:31 AM, Old:  800.0, New:  700.0
X Stop nm Changed: 7/1/2015 11:30:31 AM, Old:  200.0, New:  300.0
Common Interval nm Changed: 7/1/2015 11:30:31 AM, Old:     5.00, New:     1.00
Baseline Correction Changed: 7/1/2015 11:30:31 AM, Old:0, New:1
Saved as C:\Users\heatherweltner\Documents\Au Standard.MSWOpened C:\Users\heatherweltner\Documents\Au Standard.MSW
X Stop nm Changed: 7/3/2015 11:24:45 AM, Old:  300.0, New:  400.0
Saved as C:\Users\heatherweltner\Documents\Au Standard.MSW
Opened C:\Users\heatherweltner\Documents\Au Standard.MSW
End Method Modifications
<Current Wavelength> , 401.0

