Direct 100x 0hr,,Direct 30x 0hr,,Direct 31x 0hr,,Direct 3x 0hr,,Direct 1x 0hr,,Direct 0x 0hr,,
Wavelength (nm),Abs,Wavelength (nm),Abs,Wavelength (nm),Abs,Wavelength (nm),Abs,Wavelength (nm),Abs,Wavelength (nm),Abs,
700.0548706,0.09304385632,700.0548706,0.06891422719,700.0548706,0.06284295768,700.0548706,0.05103630945,700.0548706,0.05160947517,700.0548706,0.04706982896,
699.0474854,0.09375817329,699.0474854,0.06956982613,699.0474854,0.06323695928,699.0474854,0.05145409331,699.0474854,0.05190777779,699.0474854,0.04756842926,
698.039856,0.09395159781,698.039856,0.06990553439,698.039856,0.06356348842,698.039856,0.05167463422,698.039856,0.05232082307,698.039856,0.04797250777,
697.0317993,0.09470903873,697.0317993,0.07045098394,697.0317993,0.06401855499,697.0317993,0.05245449021,697.0317993,0.05243798718,697.0317993,0.04829594865,
696.0234985,0.0958706364,696.0234985,0.07133445144,696.0234985,0.06509947032,696.0234985,0.05295048282,696.0234985,0.05329896137,696.0234985,0.04897789285,
695.0148315,0.09647408128,695.0148315,0.07177060843,695.0148315,0.06528183818,695.0148315,0.0531764403,695.0148315,0.05368350819,695.0148315,0.04931194335,
694.0058594,0.09704411775,694.0058594,0.07260083407,694.0058594,0.06598286331,694.0058594,0.05391667783,694.0058594,0.05441631004,694.0058594,0.05002301931,
692.996521,0.09791278839,692.996521,0.07352668047,692.996521,0.06647790968,692.996521,0.05463748053,692.996521,0.05515172705,692.996521,0.05053950474,
691.9868774,0.09870687127,691.9868774,0.07370970398,691.9868774,0.06712911278,691.9868774,0.05488987267,691.9868774,0.05540318042,691.9868774,0.05105753615,
690.9769287,0.09913701564,690.9769287,0.07431954145,690.9769287,0.06781025231,690.9769287,0.05530332401,690.9769287,0.05580155179,690.9769287,0.05158700049,
689.9666138,0.1000132114,689.9666138,0.07485665381,689.9666138,0.06797789782,689.9666138,0.05583260581,689.9666138,0.05645081773,689.9666138,0.05189765617,
688.9559937,0.1009261236,688.9559937,0.07552006841,688.9559937,0.0687847659,688.9559937,0.0565765053,688.9559937,0.05674801022,688.9559937,0.05253275111,
687.9450073,0.1017866656,687.9450073,0.07624455541,687.9450073,0.0694161728,687.9450073,0.05709296465,687.9450073,0.05759978294,687.9450073,0.05315005034,
686.9337158,0.1026028842,686.9337158,0.07725866884,686.9337158,0.07008825988,686.9337158,0.05760595948,686.9337158,0.05824582279,686.9337158,0.05368945748,
686.0666504,0.1034091115,686.0666504,0.07811517268,686.0666504,0.07100135088,686.0666504,0.05845725536,686.0666504,0.05855271965,686.0666504,0.05417049676,
685.0548096,0.1042007133,685.0548096,0.07831896096,685.0548096,0.0716753751,685.0548096,0.05912925303,685.0548096,0.05933856592,685.0548096,0.05464593694,
684.0426025,0.1051010489,684.0426025,0.07939875126,684.0426025,0.07223328948,684.0426025,0.05979031697,684.0426025,0.06025636941,684.0426025,0.05546241254,
683.0300903,0.1053741872,683.0300903,0.07959129661,683.0300903,0.07261509448,683.0300903,0.0600627549,683.0300903,0.06042314693,683.0300903,0.05557557568,
682.0172119,0.1067301556,682.0172119,0.08087473363,682.0172119,0.07310461998,682.0172119,0.06080982834,682.0172119,0.06143132225,682.0172119,0.05678556114,
681.0040283,0.1073604599,681.0040283,0.08152975887,681.0040283,0.07412467897,681.0040283,0.06115972623,681.0040283,0.06151202321,681.0040283,0.05706414953,
679.9905396,0.1081310436,679.9905396,0.08223600686,679.9905396,0.07496142387,679.9905396,0.0619998984,679.9905396,0.06243936718,679.9905396,0.05771592632,
678.9767456,0.1090989336,678.9767456,0.08306691051,678.9767456,0.07512483746,678.9767456,0.0627418831,678.9767456,0.06311285496,678.9767456,0.05877834931,
677.9626465,0.1099597663,677.9626465,0.08399837464,677.9626465,0.07635805011,677.9626465,0.06358156353,677.9626465,0.06368933618,677.9626465,0.05906109512,
676.9481812,0.1114890352,676.9481812,0.08447618783,676.9481812,0.0769161135,676.9481812,0.06393909454,676.9481812,0.06449174881,676.9481812,0.05956154689,
675.9334106,0.1123395413,675.9334106,0.08569034189,675.9334106,0.0775745362,675.9334106,0.06517080963,675.9334106,0.06500145048,675.9334106,0.06057668105,
675.0633545,0.1133475453,675.0633545,0.08633100986,675.0633545,0.0781846866,675.0633545,0.06532967836,675.0633545,0.06599244475,675.0633545,0.06109151617,
674.0479736,0.1138097346,674.0479736,0.0870673582,674.0479736,0.0791028887,674.0479736,0.06599745154,674.0479736,0.06647760421,674.0479736,0.06167564169,
673.0322876,0.1147074774,673.0322876,0.0880047828,673.0322876,0.07992964983,673.0322876,0.06643579155,673.0322876,0.06709956378,673.0322876,0.06260892749,
672.0162964,0.1160090193,672.0162964,0.08906697482,672.0162964,0.08091939241,672.0162964,0.06782344729,672.0162964,0.06825961173,672.0162964,0.06329651922,
670.999939,0.1170233488,670.999939,0.08995523304,670.999939,0.08178742975,670.999939,0.06828293949,670.999939,0.06889781356,670.999939,0.06431553513,
669.9833374,0.1179625392,669.9833374,0.09117188305,669.9833374,0.08251914382,669.9833374,0.06917750835,669.9833374,0.06939187646,669.9833374,0.06471769512,
668.9663696,0.1194003001,668.9663696,0.09177020937,668.9663696,0.08340021223,668.9663696,0.07001936436,668.9663696,0.07080855221,668.9663696,0.06587379426,
667.9490967,0.1201695204,667.9490967,0.09282089025,667.9490967,0.08419208974,667.9490967,0.07089421153,667.9490967,0.07134454697,667.9490967,0.06642876565,
666.9315186,0.1213978231,666.9315186,0.09372698516,666.9315186,0.0850616619,666.9315186,0.07162237912,666.9315186,0.07181239128,666.9315186,0.06703932583,
666.059082,0.1220587119,666.059082,0.09468222409,666.059082,0.08598526567,666.059082,0.07255026698,666.059082,0.07288039476,666.059082,0.06801262498,
665.0408936,0.1235142052,665.0408936,0.09579058737,665.0408936,0.0869306922,665.0408936,0.07337532938,665.0408936,0.07358487695,665.0408936,0.06897374988,
664.0223999,0.1248946637,664.0223999,0.09693627805,664.0223999,0.08808945864,664.0223999,0.0743952319,664.0223999,0.07447429001,664.0223999,0.07002663612,
663.0036011,0.1257179826,663.0036011,0.09810139239,663.0036011,0.08893568814,663.0036011,0.07535102218,663.0036011,0.07523369789,663.0036011,0.07074033469,
661.9844971,0.1273188889,661.9844971,0.09931137413,661.9844971,0.09003602713,661.9844971,0.07634666562,661.9844971,0.07669380307,661.9844971,0.07208874822,
660.9650879,0.1286708117,660.9650879,0.1006065831,660.9650879,0.09132448584,660.9650879,0.07747013122,660.9650879,0.0777233988,660.9650879,0.0730843991,
659.9453735,0.129373163,659.9453735,0.101676859,659.9453735,0.09177001566,659.9453735,0.07794177532,659.9453735,0.07809019834,659.9453735,0.07332184911,
659.0710449,0.1306354702,659.0710449,0.102648519,659.0710449,0.09308385104,659.0710449,0.07886806875,659.0710449,0.07931960374,659.0710449,0.07446805388,
658.0507202,0.1317337751,658.0507202,0.1035504714,658.0507202,0.09403841197,658.0507202,0.07997365296,658.0507202,0.08018089831,658.0507202,0.07556053996,
657.0300903,0.1332671493,657.0300903,0.1049708202,657.0300903,0.09508825839,657.0300903,0.08153169602,657.0300903,0.08136891574,657.0300903,0.07663092762,
656.0091553,0.1345260888,656.0091553,0.1059042662,656.0091553,0.09595308453,656.0091553,0.08198785037,656.0091553,0.08242499828,656.0091553,0.07735739648,
654.987915,0.1362147629,654.987915,0.1073475331,654.987915,0.09731774032,654.987915,0.08326497674,654.987915,0.08316603303,654.987915,0.07884199172,
653.9663696,0.1373449713,653.9663696,0.1085664704,653.9663696,0.0987373516,653.9663696,0.08436614275,653.9663696,0.08459468186,653.9663696,0.07965663075,
652.944519,0.1387764066,652.944519,0.1098205149,652.944519,0.0996516794,652.944519,0.08539403975,652.944519,0.08518177271,652.944519,0.08082380891,
652.0684204,0.1402083486,652.0684204,0.1114367694,652.0684204,0.1012309641,652.0684204,0.08712274581,652.0684204,0.08682379127,652.0684204,0.08233112097,
651.0459595,0.1416226625,651.0459595,0.1124572679,651.0459595,0.1020100191,651.0459595,0.08792103827,651.0459595,0.08767911792,651.0459595,0.08298953623,
650.0232544,0.1430035979,650.0232544,0.1137283593,650.0232544,0.1032664254,650.0232544,0.08866570145,650.0232544,0.08903732896,650.0232544,0.08404668421,
649.0001831,0.1444461495,649.0001831,0.1149078682,649.0001831,0.1045590341,649.0001831,0.09004917741,649.0001831,0.08979629725,649.0001831,0.0851790309,
647.9768066,0.1463998109,647.9768066,0.1166476905,647.9768066,0.1058803797,647.9768066,0.09123342484,647.9768066,0.09131643921,647.9768066,0.08654614538,
646.953186,0.1479212642,646.953186,0.1183423996,646.953186,0.1074917689,646.953186,0.09280633926,646.953186,0.09264722466,646.953186,0.08794179559,
645.9291992,0.1487601548,645.9291992,0.1193806678,645.9291992,0.1082682312,645.9291992,0.09381047636,645.9291992,0.09357806295,645.9291992,0.0891854912,
645.0512695,0.150665313,645.0512695,0.1208269969,645.0512695,0.1100373045,645.0512695,0.09489783645,645.0512695,0.09493197501,645.0512695,0.09009727836,
644.0267334,0.1523305327,644.0267334,0.1229481176,644.0267334,0.1114952639,644.0267334,0.09640303254,644.0267334,0.09680905938,644.0267334,0.09176141024,
643.0018921,0.1537849903,643.0018921,0.1240407303,643.0018921,0.1127592102,643.0018921,0.0978872031,643.0018921,0.09791619331,643.0018921,0.09267567843,
641.9767456,0.1558910459,641.9767456,0.1259407848,641.9767456,0.1143582687,641.9767456,0.0988805443,641.9767456,0.09940665215,641.9767456,0.09391698986,
640.9512939,0.1575574279,640.9512939,0.1274897754,640.9512939,0.1159529611,640.9512939,0.1007859781,640.9512939,0.1005640924,640.9512939,0.09594963491,
640.0721436,0.1588658392,640.0721436,0.1287264824,640.0721436,0.1171176434,640.0721436,0.1015139744,640.0721436,0.1018978059,640.0721436,0.09692116827,
639.0461426,0.1604377627,639.0461426,0.1304764599,639.0461426,0.1185253561,639.0461426,0.1033402383,639.0461426,0.1034950092,639.0461426,0.09861505777,
638.0198364,0.1626903564,638.0198364,0.1322593391,638.0198364,0.1204679236,638.0198364,0.1049581617,638.0198364,0.1053557098,638.0198364,0.1003716141,
636.9932251,0.1648111045,636.9932251,0.1342897415,636.9932251,0.1220484227,636.9932251,0.106663771,636.9932251,0.1068241,636.9932251,0.1017012671,
635.9663086,0.1666117013,635.9663086,0.136339888,635.9663086,0.124169603,635.9663086,0.1087671444,635.9663086,0.1085654125,635.9663086,0.1037458405,
634.9390869,0.1691388786,634.9390869,0.1378293335,634.9390869,0.1258894056,634.9390869,0.1103539169,634.9390869,0.1102403551,634.9390869,0.105248563,
634.0584106,0.1702984124,634.0584106,0.1396681964,634.0584106,0.1269648075,634.0584106,0.1116000786,634.0584106,0.1115351468,634.0584106,0.1064992324,
633.0306396,0.172315985,633.0306396,0.1411838382,633.0306396,0.1290144771,633.0306396,0.1131119356,633.0306396,0.1131320894,633.0306396,0.1080246717,
632.0025635,0.1742549837,632.0025635,0.1433894783,632.0025635,0.1303852201,632.0025635,0.1148227155,632.0025635,0.1149971485,632.0025635,0.1094795093,
630.9741821,0.1765734255,630.9741821,0.1459465772,630.9741821,0.1329648197,630.9741821,0.1173421443,630.9741821,0.1173464209,630.9741821,0.1121581569,
629.9455566,0.1788956523,629.9455566,0.1474321038,629.9455566,0.1346004456,629.9455566,0.1188716367,629.9455566,0.1187483445,629.9455566,0.1136250496,
629.0635986,0.1807784885,629.0635986,0.1492642164,629.0635986,0.1363949925,629.0635986,0.1206097454,629.0635986,0.1204946041,629.0635986,0.1153478473,
628.0343628,0.182648629,628.0343628,0.1513523459,628.0343628,0.1383220553,628.0343628,0.1223466396,628.0343628,0.1221908033,628.0343628,0.1170883924,
627.0048828,0.1848562509,627.0048828,0.1536401659,627.0048828,0.1403340399,627.0048828,0.1243799254,627.0048828,0.12401025,627.0048828,0.1188425347,
625.9750366,0.1869681627,625.9750366,0.1554252505,625.9750366,0.1421827972,625.9750366,0.1260005683,625.9750366,0.125752598,625.9750366,0.1207068413,
624.9449463,0.1895923913,624.9449463,0.1579493135,624.9449463,0.1444570124,624.9449463,0.1281021386,624.9449463,0.1282250583,624.9449463,0.1228546798,
624.0617676,0.1920304298,624.0617676,0.1601737887,624.0617676,0.1466130465,624.0617676,0.130671382,624.0617676,0.1300606281,624.0617676,0.1251710057,
623.0311279,0.1941624284,623.0311279,0.1623615474,623.0311279,0.1488914341,623.0311279,0.1322232336,623.0311279,0.132354334,623.0311279,0.1270406544,
622.0001831,0.196377486,622.0001831,0.1646151394,622.0001831,0.1508747935,622.0001831,0.1341436356,622.0001831,0.1344396174,622.0001831,0.1289117783,
620.9689331,0.198699668,620.9689331,0.167180568,620.9689331,0.1529035121,620.9689331,0.1366993338,620.9689331,0.1364615113,620.9689331,0.1313194335,
619.937439,0.2010624409,619.937439,0.1691929102,619.937439,0.1553845257,619.937439,0.1387847811,619.937439,0.1384159923,619.937439,0.1333159208,
619.0530396,0.2028499842,619.0530396,0.1709232628,619.0530396,0.1573414654,619.0530396,0.1404742748,619.0530396,0.1403956115,619.0530396,0.1350139678,
618.0209351,0.2058506161,618.0209351,0.173871994,618.0209351,0.1598804891,618.0209351,0.1430884451,618.0209351,0.1426107138,618.0209351,0.1373895109,
616.9885864,0.2083432972,616.9885864,0.1764572114,616.9885864,0.1622294039,616.9885864,0.14560166,616.9885864,0.1452601105,616.9885864,0.1401262879,
615.9559326,0.2115043253,615.9559326,0.179311946,615.9559326,0.1652840972,615.9559326,0.148146987,615.9559326,0.1476590484,615.9559326,0.1425480694,
615.0705566,0.2138379812,615.0705566,0.1816810369,615.0705566,0.1673534214,615.0705566,0.1503553092,615.0705566,0.1501868665,615.0705566,0.1447860897,
614.0373535,0.2163113654,614.0373535,0.1843533963,614.0373535,0.1697971225,614.0373535,0.1526675224,614.0373535,0.1523537785,614.0373535,0.147228986,
613.0038452,0.2188741118,613.0038452,0.1866694987,613.0038452,0.1720296144,613.0038452,0.1551232785,613.0038452,0.1547204405,613.0038452,0.1495298594,
611.9700928,0.2220519483,611.9700928,0.1894974262,611.9700928,0.1748889387,611.9700928,0.1579658538,611.9700928,0.157491833,611.9700928,0.1521482766,
610.9360352,0.2247301489,610.9360352,0.1923051178,610.9360352,0.1778300256,610.9360352,0.1602413952,610.9360352,0.1601617634,610.9360352,0.1548676938,
610.0494385,0.2268720269,610.0494385,0.1947720647,610.0494385,0.1800883114,610.0494385,0.1627658904,610.0494385,0.1624501497,610.0494385,0.1570067406,
609.0148315,0.2301580757,609.0148315,0.1979073137,609.0148315,0.1832559109,609.0148315,0.1658279449,609.0148315,0.1653925776,609.0148315,0.1602544636,
607.9799805,0.23306714,607.9799805,0.2010753453,607.9799805,0.1861228198,607.9799805,0.1686505377,607.9799805,0.1684072763,607.9799805,0.1631442308,
606.9447632,0.2366348207,606.9447632,0.2041944563,606.9447632,0.1891494393,606.9447632,0.1719047576,606.9447632,0.1714314222,606.9447632,0.1662051678,
606.057251,0.2388318926,606.057251,0.2066634595,606.057251,0.1913509518,606.057251,0.173901692,606.057251,0.1734966636,606.057251,0.1682057083,
605.0215454,0.2418218702,605.0215454,0.2094464153,605.0215454,0.1943517178,605.0215454,0.1767510623,605.0215454,0.176443994,605.0215454,0.171092853,
603.9855957,0.2449989319,603.9855957,0.2127230167,603.9855957,0.1975427419,603.9855957,0.1798735708,603.9855957,0.1793337315,603.9855957,0.1741531193,
602.9492798,0.2482015491,602.9492798,0.2162157446,602.9492798,0.2009485662,602.9492798,0.18304272,602.9492798,0.1828281432,602.9492798,0.1772957593,
602.0608521,0.2511797547,602.0608521,0.2190321237,602.0608521,0.20390971,602.0608521,0.1861817092,602.0608521,0.1858871728,602.0608521,0.180299893,
601.0239868,0.2540311515,601.0239868,0.2218787968,601.0239868,0.2065303624,601.0239868,0.188870281,601.0239868,0.1883822531,601.0239868,0.1829677224,
599.9869385,0.2570364177,599.9869385,0.2252686322,599.9869385,0.2097689658,599.9869385,0.1918027848,599.9869385,0.1915126592,599.9869385,0.1862782985,
598.9495239,0.2607857883,598.9495239,0.2285000235,598.9495239,0.213382557,598.9495239,0.1953110397,598.9495239,0.194764927,598.9495239,0.1893827468,
598.0601196,0.2639662623,598.0601196,0.2319748551,598.0601196,0.2165951133,598.0601196,0.1984349042,598.0601196,0.1983599812,598.0601196,0.1927345097,
597.0222778,0.2672116756,597.0222778,0.2353764474,597.0222778,0.2202070057,597.0222778,0.2022951096,597.0222778,0.2018441409,597.0222778,0.1963966489,
595.9840698,0.2709100246,595.9840698,0.2390141636,595.9840698,0.2237298787,595.9840698,0.2058137357,595.9840698,0.2055003047,595.9840698,0.1997170001,
594.9456177,0.273905158,594.9456177,0.2423089445,594.9456177,0.2269274145,594.9456177,0.2087434679,594.9456177,0.2085732073,594.9456177,0.2031767666,
594.0552979,0.2765846252,594.0552979,0.2448180765,594.0552979,0.2296388447,594.0552979,0.2114647627,594.0552979,0.211375311,594.0552979,0.2055108994,
593.0162964,0.280307889,593.0162964,0.2485156357,593.0162964,0.2335906178,593.0162964,0.215321362,593.0162964,0.2148121744,593.0162964,0.2091862857,
591.9770508,0.2840611041,591.9770508,0.2530908585,591.9770508,0.2377410084,591.9770508,0.2193733007,591.9770508,0.2191291898,591.9770508,0.2134536058,
590.9375,0.2879348099,590.9375,0.2570343614,590.9375,0.2417411208,590.9375,0.2232997715,590.9375,0.2230336368,590.9375,0.2172133923,
590.0462036,0.2908661067,590.0462036,0.260086298,590.0462036,0.2445824295,590.0462036,0.2264084965,590.0462036,0.2261919528,590.0462036,0.2205243558,
589.0061646,0.2944869399,589.0061646,0.2638891935,589.0061646,0.2486381829,589.0061646,0.2303119302,589.0061646,0.2301430851,589.0061646,0.2243715078,
587.9658203,0.2981579304,587.9658203,0.2676720023,587.9658203,0.2524089515,587.9658203,0.2341935933,587.9658203,0.2340233177,587.9658203,0.2284398824,
587.0738525,0.3009491861,587.0738525,0.2710571289,587.0738525,0.2557599545,587.0738525,0.2375194132,587.0738525,0.2370207459,587.0738525,0.2315576375,
586.03302,0.3043239713,586.03302,0.2748299539,586.03302,0.2593957782,586.03302,0.2410722375,586.03302,0.2408463657,586.03302,0.2353720814,
584.9918823,0.3092599213,584.9918823,0.2789673507,584.9918823,0.2640987337,584.9918823,0.245956555,584.9918823,0.2455087602,584.9918823,0.2397756875,
583.9505005,0.3126252294,583.9505005,0.2833418548,583.9505005,0.2682170868,583.9505005,0.2499494553,583.9505005,0.2494521886,583.9505005,0.2439860702,
583.0576172,0.3164197206,583.0576172,0.2868387699,583.0576172,0.2721790969,583.0576172,0.2542448044,583.0576172,0.2535468936,583.0576172,0.2479151338,
582.015686,0.3197845221,582.015686,0.2907622755,582.015686,0.2758611739,582.015686,0.2574654818,582.015686,0.2570287883,582.015686,0.2512672842,
580.9735107,0.323607862,580.9735107,0.2946381867,580.9735107,0.2799810171,580.9735107,0.2615202665,580.9735107,0.2616066039,580.9735107,0.2555523813,
579.9310303,0.3273378015,579.9310303,0.298373431,579.9310303,0.2841296196,579.9310303,0.2656688988,579.9310303,0.2655917406,579.9310303,0.2598036528,
579.0372925,0.331065625,579.0372925,0.3026603758,579.0372925,0.2884156108,579.0372925,0.2699416876,579.0372925,0.2698056102,579.0372925,0.2641685605,
577.9943237,0.3351658583,577.9943237,0.3071704209,577.9943237,0.2928195,577.9943237,0.2743969262,577.9943237,0.2743851244,577.9943237,0.2686084807,
576.9510498,0.339484632,576.9510498,0.3112590313,576.9510498,0.2973495722,576.9510498,0.2791472375,576.9510498,0.2788957357,576.9510498,0.2734496295,
576.0566406,0.3420537412,576.0566406,0.314496845,576.0566406,0.3004771173,576.0566406,0.2823666334,576.0566406,0.2821658254,576.0566406,0.276578784,
575.0128784,0.3459518254,575.0128784,0.3189100027,575.0128784,0.3050493896,575.0128784,0.2867271602,575.0128784,0.2868620157,575.0128784,0.2810400426,
573.968811,0.3499880135,573.968811,0.3232262731,573.968811,0.3094704449,573.968811,0.2913988531,573.968811,0.2914829254,573.968811,0.2855197787,
573.0737305,0.3538096845,573.0737305,0.3273769915,573.0737305,0.3138412833,573.0737305,0.2957920432,573.0737305,0.2958524227,573.0737305,0.290053755,
572.0292358,0.3574685454,572.0292358,0.3312680423,572.0292358,0.3178505599,572.0292358,0.2999319136,572.0292358,0.2999933064,572.0292358,0.2945283651,
570.984436,0.3613387346,570.984436,0.3357127607,570.984436,0.3229587972,570.984436,0.3047195673,570.984436,0.3050529361,570.984436,0.2990502119,
569.9393311,0.3654319346,569.9393311,0.3401446342,569.9393311,0.3276712,569.9393311,0.3096470237,569.9393311,0.3100176156,569.9393311,0.3041234612,
569.043335,0.3685703874,569.043335,0.3434912562,569.043335,0.3311362565,569.043335,0.3130859137,569.043335,0.3132209182,569.043335,0.307638377,
567.9978027,0.372603476,567.9978027,0.3479795456,567.9978027,0.3358191848,567.9978027,0.3181314468,567.9978027,0.3180055022,567.9978027,0.3126861155,
566.9519653,0.3761529624,566.9519653,0.3516695797,566.9519653,0.3400783837,566.9519653,0.3223385811,566.9519653,0.322506398,566.9519653,0.3170052469,
566.0552979,0.3796536326,566.0552979,0.3560557365,566.0552979,0.3442824185,566.0552979,0.3266649544,566.0552979,0.3270395398,566.0552979,0.321398437,
565.0089722,0.3834039867,565.0089722,0.3601687551,565.0089722,0.3489023745,565.0089722,0.3315420151,565.0089722,0.331926316,565.0089722,0.3260172606,
563.9623413,0.3884054422,563.9623413,0.3654858768,563.9623413,0.3541073203,563.9623413,0.3370211124,563.9623413,0.3373140991,563.9623413,0.331679076,
563.0650635,0.39085868,563.0650635,0.3683974445,563.0650635,0.3577488363,563.0650635,0.3408243656,563.0650635,0.3409329951,563.0650635,0.3351136744,
562.0179443,0.3946279883,562.0179443,0.3724558651,562.0179443,0.3618595004,562.0179443,0.3450861275,562.0179443,0.3453992903,562.0179443,0.3399138451,
560.9705811,0.3985517621,560.9705811,0.3769628406,560.9705811,0.3671337366,560.9705811,0.3503749073,560.9705811,0.3505041897,560.9705811,0.3451002836,
560.0726318,0.4017231762,560.0726318,0.3808650076,560.0726318,0.3713856041,560.0726318,0.3545121551,560.0726318,0.3549888134,560.0726318,0.3492779732,
559.0247803,0.4054040909,559.0247803,0.3850702345,559.0247803,0.3762401938,559.0247803,0.3595740795,559.0247803,0.3600385487,559.0247803,0.3542811275,
557.9766846,0.4090048671,557.9766846,0.3895638883,557.9766846,0.380715549,557.9766846,0.364156872,557.9766846,0.3647028804,557.9766846,0.3593211174,
556.9282837,0.412622422,556.9282837,0.393257916,556.9282837,0.3848235905,556.9282837,0.3685130775,556.9282837,0.3690323532,556.9282837,0.3634088337,
556.02948,0.4149460196,556.02948,0.3960504532,556.02948,0.388232857,556.02948,0.3719851077,556.02948,0.3728848398,556.02948,0.3673779666,
554.9805908,0.4190700948,554.9805908,0.4004654586,554.9805908,0.3936172426,554.9805908,0.3773698807,554.9805908,0.37806198,554.9805908,0.3726056516,
553.9314575,0.4224238098,553.9314575,0.4046529531,553.9314575,0.3980290592,553.9314575,0.3821038306,553.9314575,0.383000046,553.9314575,0.376999259,
553.0320435,0.4252024889,553.0320435,0.407792002,553.0320435,0.4012653232,553.0320435,0.3858799338,553.0320435,0.3867151737,553.0320435,0.3812861145,
551.9824219,0.4281493425,551.9824219,0.4116160274,551.9824219,0.4054268003,551.9824219,0.3899322748,551.9824219,0.3911384642,551.9824219,0.3857756555,
550.9325562,0.4310195148,550.9325562,0.4150324166,550.9325562,0.4094551504,550.9325562,0.3943228424,550.9325562,0.3954232931,550.9325562,0.389647603,
550.0324097,0.4337574542,550.0324097,0.4180284739,550.0324097,0.4125801623,550.0324097,0.3979723155,550.0324097,0.399030596,550.0324097,0.3934745193,
548.9820557,0.4367314577,548.9820557,0.4215817451,548.9820557,0.4171357453,548.9820557,0.4023055434,548.9820557,0.4035476446,548.9820557,0.3979141414,
547.9314575,0.4394308627,547.9314575,0.4247958958,547.9314575,0.420920819,547.9314575,0.4065391719,547.9314575,0.4077243209,547.9314575,0.4023820162,
547.0307007,0.4410474598,547.0307007,0.4269563258,547.0307007,0.4236701131,547.0307007,0.4093533158,547.0307007,0.4107857645,547.0307007,0.4053257406,
545.9796143,0.4436685145,545.9796143,0.4301664531,545.9796143,0.4271892309,545.9796143,0.4132879674,545.9796143,0.4147455394,545.9796143,0.4091624618,
544.9282837,0.4458676875,544.9282837,0.432859391,544.9282837,0.4308179617,544.9282837,0.4170505106,544.9282837,0.4183719456,544.9282837,0.4130521119,
544.0269165,0.4474501908,544.0269165,0.4350132942,544.0269165,0.4333448112,544.0269165,0.4199649394,544.0269165,0.421318233,544.0269165,0.4160419405,
542.9750366,0.4495544136,542.9750366,0.4376942813,542.9750366,0.4364447296,542.9750366,0.4232595861,542.9750366,0.4247896373,542.9750366,0.4195793867,
542.0733032,0.4506737292,542.0733032,0.4393397272,542.0733032,0.4385809302,542.0733032,0.4258111417,542.0733032,0.4273916781,542.0733032,0.4221251905,
541.0209961,0.4525046945,541.0209961,0.4416235685,541.0209961,0.441303879,541.0209961,0.4287503958,541.0209961,0.430529654,541.0209961,0.4253738225,
539.9683838,0.4538530111,539.9683838,0.4433062077,539.9683838,0.4439570606,539.9683838,0.4315455854,539.9683838,0.4333238006,539.9683838,0.4283329248,
539.065979,0.4546747208,539.065979,0.4451583326,539.065979,0.4458728731,539.065979,0.4337727427,539.065979,0.4356240928,539.065979,0.4306069911,
538.0129395,0.4556889236,538.0129395,0.4464534223,538.0129395,0.4477889836,538.0129395,0.4359626174,538.0129395,0.4379870892,538.0129395,0.4328361452,
536.9596558,0.4564870596,536.9596558,0.4479627609,536.9596558,0.449709177,536.9596558,0.4383682609,536.9596558,0.4403953254,536.9596558,0.435493052,
536.0566406,0.4570860863,536.0566406,0.448865205,536.0566406,0.4514572918,536.0566406,0.4400567114,536.0566406,0.4421652853,536.0566406,0.4371371269,
535.0028687,0.4573045969,535.0028687,0.4495240748,535.0028687,0.4527120292,535.0028687,0.4418873489,535.0028687,0.4440279901,535.0028687,0.4391414523,
533.9488525,0.4574216008,533.9488525,0.4504497051,533.9488525,0.4537738562,533.9488525,0.4431777,533.9488525,0.4454446137,533.9488525,0.4405421615,
533.0452271,0.4575146735,533.0452271,0.4507265091,533.0452271,0.4545131028,533.0452271,0.4441182911,533.0452271,0.4464471936,533.0452271,0.4414749146,
531.9907227,0.4569499195,531.9907227,0.4505783617,531.9907227,0.4550670981,531.9907227,0.4448951781,531.9907227,0.4474257529,531.9907227,0.4425414503,
530.9359741,0.4564655125,530.9359741,0.4504747987,530.9359741,0.4555236101,530.9359741,0.4457021058,530.9359741,0.4482809901,530.9359741,0.4433840215,
530.0317383,0.4555136561,530.0317383,0.4499154687,530.0317383,0.455325067,530.0317383,0.4458444715,530.0317383,0.4483911097,530.0317383,0.4435857832,
528.9765625,0.4548228979,528.9765625,0.4497597516,528.9765625,0.4553682506,528.9765625,0.4462867081,528.9765625,0.4486554563,528.9765625,0.4440516233,
528.0718994,0.4535374641,528.0718994,0.4486973584,528.0718994,0.4546229541,528.0718994,0.4456614852,528.0718994,0.4484554827,528.0718994,0.4436946511,
527.0162354,0.4519889653,527.0162354,0.4473454952,527.0162354,0.453744173,527.0162354,0.4451285899,527.0162354,0.4478202462,527.0162354,0.4432064593,
525.9603271,0.4501662552,525.9603271,0.4459075332,525.9603271,0.4529594779,525.9603271,0.4443034828,525.9603271,0.4470392764,525.9603271,0.4423870444,
525.0550537,0.448574841,525.0550537,0.4445507228,525.0550537,0.4517064393,525.0550537,0.4434920251,525.0550537,0.4462928474,525.0550537,0.442004025,
523.9986572,0.4458801746,523.9986572,0.4422338605,523.9986572,0.4496810734,523.9986572,0.4416568279,523.9986572,0.4444824159,523.9986572,0.4399549365,
522.9420166,0.443908602,522.9420166,0.4402739704,522.9420166,0.4478764534,522.9420166,0.4403081536,522.9420166,0.4430397153,522.9420166,0.438893348,
522.0361938,0.4413421154,522.0361938,0.4379019737,522.0361938,0.4458955824,522.0361938,0.4382851422,522.0361938,0.4412898719,522.0361938,0.4369046688,
520.9790649,0.438745141,520.9790649,0.4355475903,520.9790649,0.4437887967,520.9790649,0.4363919199,520.9790649,0.4392759502,520.9790649,0.4349343479,
520.0728149,0.4357291162,520.0728149,0.4328945279,520.0728149,0.4412629604,520.0728149,0.4341254234,520.0728149,0.4370241761,520.0728149,0.4326868653,
519.0153198,0.4327257276,519.0153198,0.4295758605,519.0153198,0.437944591,519.0153198,0.4316339493,519.0153198,0.434245348,519.0153198,0.4300396442,
517.9575195,0.4285900891,517.9575195,0.4258194566,517.9575195,0.4347005486,517.9575195,0.4278261364,517.9575195,0.4310396314,517.9575195,0.4265972376,
517.0506592,0.4255860746,517.0506592,0.4228335023,517.0506592,0.4316209853,517.0506592,0.4248398244,517.0506592,0.4279823303,517.0506592,0.4237555861,
515.9924316,0.4222801328,515.9924316,0.4196514785,515.9924316,0.428281188,515.9924316,0.4218285978,515.9924316,0.4249879122,515.9924316,0.4208557308,
514.93396,0.4183474481,514.93396,0.4157145023,514.93396,0.4247523546,514.93396,0.4183064401,514.93396,0.4212484062,514.93396,0.4168040156,
514.0264893,0.4149765074,514.0264893,0.4121749997,514.0264893,0.4209603965,514.0264893,0.4144720733,514.0264893,0.4179010391,514.0264893,0.4138439,
512.9675293,0.4101835191,512.9675293,0.4075577855,512.9675293,0.4164803922,512.9675293,0.4103384018,512.9675293,0.4133582115,512.9675293,0.4093953073,
512.0596924,0.4062765837,512.0596924,0.4037322998,512.0596924,0.4127933681,512.0596924,0.4067783058,512.0596924,0.4096441865,512.0596924,0.4058795273,
511.0003052,0.4020791054,511.0003052,0.3991242349,511.0003052,0.4078246355,511.0003052,0.401679039,511.0003052,0.4048578441,511.0003052,0.4007200301,
509.9407043,0.3973644674,509.9407043,0.3945773542,509.9407043,0.4034738243,509.9407043,0.3976895809,509.9407043,0.4002143443,509.9407043,0.3967081606,
509.0322571,0.3942846954,509.0322571,0.3910629749,509.0322571,0.3998623788,509.0322571,0.393881619,509.0322571,0.3970473707,509.0322571,0.3931777477,
507.9721985,0.3891050518,507.9721985,0.3857731521,507.9721985,0.3944538832,507.9721985,0.3884385824,507.9721985,0.3911974132,507.9721985,0.3881368935,
507.0633545,0.3846437335,507.0633545,0.3814601898,507.0633545,0.3898270726,507.0633545,0.3841641247,507.0633545,0.386923492,507.0633545,0.3832747042,
506.0028687,0.3795914948,506.0028687,0.3762825727,506.0028687,0.3847780824,506.0028687,0.3790863454,506.0028687,0.3821055889,506.0028687,0.3781526387,
504.9421082,0.3748087287,504.9421082,0.3717780709,504.9421082,0.3798974454,504.9421082,0.3742117882,504.9421082,0.376919359,504.9421082,0.3732876182,
504.0326843,0.3715417981,504.0326843,0.3682437241,504.0326843,0.3763478696,504.0326843,0.3705460131,504.0326843,0.3735823333,504.0326843,0.3697057664,
502.9714966,0.3667564094,502.9714966,0.3633493781,502.9714966,0.3712041378,502.9714966,0.3654105961,502.9714966,0.3685887754,502.9714966,0.364885509,
502.0617065,0.3619658649,502.0617065,0.3582414687,502.0617065,0.3661112189,502.0617065,0.3604761958,502.0617065,0.3633683324,502.0617065,0.359647572,
501.0000916,0.3576559424,501.0000916,0.3540460765,501.0000916,0.3612629175,501.0000916,0.3554277718,501.0000916,0.3583810627,501.0000916,0.354703784,
499.9382019,0.3531274498,499.9382019,0.3489229679,499.9382019,0.3566100001,499.9382019,0.3505852818,499.9382019,0.3533126116,499.9382019,0.349796176,
499.027832,0.3495403528,499.027832,0.345405072,499.027832,0.3525828719,499.027832,0.3468967676,499.027832,0.3499783278,499.027832,0.3459611535,
497.9655457,0.3453046083,497.9655457,0.3410605192,497.9655457,0.3477705717,497.9655457,0.3421352208,497.9655457,0.3448414505,497.9655457,0.3412775397,
497.0548096,0.3416411579,497.0548096,0.3366875648,497.0548096,0.343932569,497.0548096,0.3379052281,497.0548096,0.3407076001,497.0548096,0.3371630907,
495.9920654,0.3373657763,495.9920654,0.3324442506,495.9920654,0.3392865062,495.9920654,0.3333617151,495.9920654,0.3360274136,495.9920654,0.3321096003,
494.9290771,0.3332951665,494.9290771,0.3285649121,494.9290771,0.3351651728,494.9290771,0.3292652667,494.9290771,0.3314926922,494.9290771,0.3279278576,
494.0177612,0.3301025033,494.0177612,0.3251204193,494.0177612,0.3314397633,494.0177612,0.3254733384,494.0177612,0.3278934062,494.0177612,0.3244958222,
492.9543457,0.3263061047,492.9543457,0.3216065764,492.9543457,0.3275848031,492.9543457,0.3214964271,492.9543457,0.3238135576,492.9543457,0.320631057,
492.0426636,0.3239218295,492.0426636,0.318756789,492.0426636,0.3245448768,492.0426636,0.3185628653,492.0426636,0.3210074008,492.0426636,0.3173830807,
490.9788208,0.3206532001,490.9788208,0.3150063753,490.9788208,0.3206729591,490.9788208,0.3148607314,490.9788208,0.3171089292,490.9788208,0.3133702874,
490.0667725,0.3179114163,490.0667725,0.312022388,490.0667725,0.3178631663,490.0667725,0.3114096224,490.0667725,0.3139305413,490.0667725,0.3103839159,
489.0024719,0.3144292235,489.0024719,0.3086496592,489.0024719,0.3139916062,489.0024719,0.3079642653,489.0024719,0.3101841807,489.0024719,0.3065398932,
487.9379883,0.3116441965,487.9379883,0.3057997227,487.9379883,0.3109030724,487.9379883,0.30461514,487.9379883,0.3069975972,487.9379883,0.3034948409,
487.0253601,0.3097898066,487.0253601,0.3039700985,487.0253601,0.3092764318,487.0253601,0.3024325967,487.0253601,0.3047829568,487.0253601,0.3011625409,
485.9604187,0.3070776165,485.9604187,0.3008891046,485.9604187,0.3061362803,485.9604187,0.2996210456,485.9604187,0.3019534349,485.9604187,0.2982234061,
485.0474548,0.3047997355,485.0474548,0.2986021042,485.0474548,0.3034763038,485.0474548,0.2966853082,485.0474548,0.2989223003,485.0474548,0.2955888808,
483.9820862,0.3020954728,483.9820862,0.2954365909,483.9820862,0.3005182147,483.9820862,0.2938366532,483.9820862,0.295881331,483.9820862,0.2925064266,
483.0687256,0.3007841408,483.0687256,0.2943017483,483.0687256,0.2988086641,483.0687256,0.2920427322,483.0687256,0.2942538857,483.0687256,0.290844202,
482.0029602,0.2990433574,482.0029602,0.2924107909,482.0029602,0.2968603671,482.0029602,0.2899430394,482.0029602,0.2921428382,482.0029602,0.2885873914,
480.9369202,0.2966267169,480.9369202,0.2897273302,480.9369202,0.294156909,480.9369202,0.2872186899,480.9369202,0.2894628644,480.9369202,0.2857663929,
480.0230408,0.2954937518,480.0230408,0.2883131206,480.0230408,0.2926447392,480.0230408,0.2855829,480.0230408,0.2880377471,480.0230408,0.2845321596,
478.956604,0.2934598029,478.956604,0.2861964703,478.956604,0.2904931605,478.956604,0.2835925519,478.956604,0.2853240967,478.956604,0.2821547687,
478.0423279,0.2918774486,478.0423279,0.2848294973,478.0423279,0.2891793847,478.0423279,0.2817863822,478.0423279,0.2837778032,478.0423279,0.2803557813,
476.9754639,0.2904537618,476.9754639,0.283089906,476.9754639,0.2871739566,476.9754639,0.2799770236,476.9754639,0.2822115123,476.9754639,0.2788417339,
476.0608521,0.2897764742,476.0608521,0.2824390531,476.0608521,0.2864029109,476.0608521,0.2792930305,476.0608521,0.2809342742,476.0608521,0.2777093947,
474.9935913,0.2887091935,474.9935913,0.2810890675,474.9935913,0.2850664258,474.9935913,0.277589649,474.9935913,0.2797271311,474.9935913,0.2761404812,
473.9260864,0.2870054543,473.9260864,0.2796185911,473.9260864,0.2832518518,473.9260864,0.2760481834,473.9260864,0.2779098153,473.9260864,0.274356842,
473.0108948,0.2862630785,473.0108948,0.2785904109,473.0108948,0.2819566429,473.0108948,0.2745120525,473.0108948,0.2768194377,473.0108948,0.2731693089,
471.9429932,0.2851583064,471.9429932,0.2775605619,471.9429932,0.2808956802,471.9429932,0.2732999921,471.9429932,0.2753569782,471.9429932,0.2719541788,
471.0274658,0.2841685414,471.0274658,0.2766117752,471.0274658,0.2798974812,471.0274658,0.2724686861,471.0274658,0.2743042111,471.0274658,0.2706916034,
469.959137,0.2832045853,469.959137,0.275590539,469.959137,0.2788982689,469.959137,0.2711189389,469.959137,0.2732410431,469.959137,0.2695243955,
469.0432739,0.2826055884,469.0432739,0.274589479,469.0432739,0.2777527869,469.0432739,0.2705515027,469.0432739,0.2722038925,469.0432739,0.2687440515,
467.9745178,0.2818271816,467.9745178,0.2737743556,467.9745178,0.2770879865,467.9745178,0.2693723142,467.9745178,0.2712057829,467.9745178,0.2679672837,
467.0582886,0.281568408,467.0582886,0.2733873725,467.0582886,0.2765597105,467.0582886,0.2688151598,467.0582886,0.270634979,467.0582886,0.2671905756,
465.9891357,0.2809229195,465.9891357,0.2726456225,465.9891357,0.2760384083,465.9891357,0.2680076957,465.9891357,0.2699523568,465.9891357,0.266361177,
465.0725403,0.2804837525,465.0725403,0.2722271085,465.0725403,0.2753556073,465.0725403,0.2676051259,465.0725403,0.2692402899,465.0725403,0.2653309107,
464.0029907,0.27987656,464.0029907,0.271446228,464.0029907,0.2746053636,464.0029907,0.2665911913,464.0029907,0.2684692144,464.0029907,0.2649751306,
462.9332275,0.2793481648,462.9332275,0.2710931301,462.9332275,0.2742120624,462.9332275,0.2661031783,462.9332275,0.2678343058,462.9332275,0.2644542456,
462.0161133,0.278980881,462.0161133,0.270658195,462.0161133,0.2737562656,462.0161133,0.2654298842,462.0161133,0.2673951089,462.0161133,0.2637459934,
460.9459229,0.2787696719,460.9459229,0.2704770565,460.9459229,0.2731338739,460.9459229,0.2651201487,460.9459229,0.2668878734,460.9459229,0.2634484768,
460.0284424,0.278376013,460.0284424,0.2697665095,460.0284424,0.2726913691,460.0284424,0.2646387219,460.0284424,0.2664359212,460.0284424,0.2628280222,
458.9578552,0.2782557011,458.9578552,0.269659549,458.9578552,0.2725900114,458.9578552,0.2643735707,458.9578552,0.266071409,458.9578552,0.2625133693,
458.0400391,0.2779860795,458.0400391,0.2694877088,458.0400391,0.2724244297,458.0400391,0.2638951242,458.0400391,0.2656770349,458.0400391,0.2622607648,
456.9690552,0.2777751088,456.9690552,0.2690766752,456.9690552,0.2718696892,456.9690552,0.2634213269,456.9690552,0.2651685178,456.9690552,0.2616384625,
456.0509033,0.2775012553,456.0509033,0.2688498199,456.0509033,0.2715793252,456.0509033,0.263107717,456.0509033,0.2648680508,456.0509033,0.261475265,
454.9795227,0.2773907781,454.9795227,0.2687483728,454.9795227,0.2715192437,454.9795227,0.2629593909,454.9795227,0.2647311389,454.9795227,0.2611278296,
454.0610352,0.277079165,454.0610352,0.2683843672,454.0610352,0.2712011337,454.0610352,0.2627149224,454.0610352,0.2643757164,454.0610352,0.2610780597,
452.9892273,0.2770199478,452.9892273,0.2684907019,452.9892273,0.2711186409,452.9892273,0.2624907792,452.9892273,0.2643568814,452.9892273,0.2607207298,
452.0704041,0.2771000862,452.0704041,0.2682580352,452.0704041,0.2709891498,452.0704041,0.2623831034,452.0704041,0.2642483115,452.0704041,0.2604604959,
450.9981995,0.2768753469,450.9981995,0.2681847811,450.9981995,0.2708868384,450.9981995,0.2621873319,450.9981995,0.2638064027,450.9981995,0.260204941,
449.9258118,0.2769474983,449.9258118,0.2681852579,449.9258118,0.270970434,449.9258118,0.2620553076,449.9258118,0.2638562918,449.9258118,0.2602041364,
449.0064392,0.2770289481,449.0064392,0.2683299482,449.0064392,0.2710339725,449.0064392,0.2622275352,449.0064392,0.2639371753,449.0064392,0.2603140771,
447.9336548,0.2770647705,447.9336548,0.2681708634,447.9336548,0.270873785,447.9336548,0.2619690001,447.9336548,0.2637549937,447.9336548,0.2601546645,
447.0139771,0.2772730887,447.0139771,0.2683590949,447.0139771,0.2708373368,447.0139771,0.2621707618,447.0139771,0.2637862563,447.0139771,0.2601377964,
445.9407959,0.277458936,445.9407959,0.2684099078,445.9407959,0.2711360753,445.9407959,0.262070328,445.9407959,0.2637803555,445.9407959,0.2602203488,
445.020752,0.2775067985,445.020752,0.2687264085,445.020752,0.2711386383,445.020752,0.2620927691,445.020752,0.2639262974,445.020752,0.2602613568,
443.9471741,0.2774079144,443.9471741,0.2685086131,443.9471741,0.2711478174,443.9471741,0.2620135248,443.9471741,0.2635915577,443.9471741,0.2601317167,
443.0267944,0.277457118,443.0267944,0.268640697,443.0267944,0.2713046968,443.0267944,0.2619771361,443.0267944,0.2637506425,443.0267944,0.2602242827,
441.9528503,0.2777989507,441.9528503,0.2687571943,441.9528503,0.2713912427,441.9528503,0.2622723877,441.9528503,0.263941735,441.9528503,0.2603731751,
441.032135,0.2778823972,441.032135,0.2689552605,441.032135,0.27133286,441.032135,0.262313664,441.032135,0.26391536,441.032135,0.2601820827,
439.9577942,0.2781925201,439.9577942,0.2689920366,439.9577942,0.2716170251,439.9577942,0.2624980211,439.9577942,0.2640411556,439.9577942,0.2605778277,
439.0367432,0.2782893479,439.0367432,0.2690725029,439.0367432,0.2718786895,439.0367432,0.2625433207,439.0367432,0.2642842829,439.0367432,0.2606308162,
437.9620361,0.2784824669,437.9620361,0.269415915,437.9620361,0.2720495164,437.9620361,0.262666285,437.9620361,0.26425758,437.9620361,0.2607803345,
437.0406494,0.2785560191,437.0406494,0.2695361376,437.0406494,0.2722756565,437.0406494,0.2630700767,437.0406494,0.2646484375,437.0406494,0.2610866427,
435.9655457,0.2790493667,435.9655457,0.2699862719,435.9655457,0.2726459205,435.9655457,0.2631409764,435.9655457,0.2647817433,435.9655457,0.261061281,
435.0438538,0.2791595757,435.0438538,0.2700105309,435.0438538,0.272709161,435.0438538,0.2631831467,435.0438538,0.2649159133,435.0438538,0.2611638606,
433.9683533,0.2792438865,433.9683533,0.270254612,433.9683533,0.2728268504,433.9683533,0.2634086609,433.9683533,0.2649568021,433.9683533,0.2613876462,
433.0463257,0.2793536782,433.0463257,0.270409435,433.0463257,0.2731353641,433.0463257,0.2635532916,433.0463257,0.26536268,433.0463257,0.2616024017,
431.970459,0.2798840106,431.970459,0.2706761956,431.970459,0.2734129429,431.970459,0.2636165023,431.970459,0.2654912174,431.970459,0.2618544698,
431.0480957,0.2801496685,431.0480957,0.2713650763,431.0480957,0.2737130225,431.0480957,0.2640638351,431.0480957,0.2659941614,431.0480957,0.2622045279,
429.9718323,0.2805762887,429.9718323,0.2712931633,429.9718323,0.2740849555,429.9718323,0.2643276155,429.9718323,0.2661189735,429.9718323,0.2625337541,
429.0491638,0.2809738815,429.0491638,0.2714811265,429.0491638,0.274458915,429.0491638,0.2646925449,429.0491638,0.266327709,429.0491638,0.2625735998,
427.9725342,0.2812322974,427.9725342,0.2719658613,427.9725342,0.2746785879,427.9725342,0.264870882,427.9725342,0.2667260766,427.9725342,0.2628467977,
427.0495605,0.2814557552,427.0495605,0.2722373903,427.0495605,0.2750197053,427.0495605,0.2651230991,427.0495605,0.2670220137,427.0495605,0.2632764578,
425.9725342,0.2818243206,425.9725342,0.2726994157,425.9725342,0.2753839493,425.9725342,0.2655354142,425.9725342,0.2673454881,425.9725342,0.2635110319,
425.0492249,0.2819123268,425.0492249,0.2727831304,425.0492249,0.275568217,425.0492249,0.2656274438,425.0492249,0.2674116492,425.0492249,0.2636297643,
423.9718628,0.2825933695,423.9718628,0.2733373344,423.9718628,0.2760771215,423.9718628,0.2660958171,423.9718628,0.2679740489,423.9718628,0.2642112672,
423.0482178,0.282679677,423.0482178,0.273596704,423.0482178,0.2762075067,423.0482178,0.2663871646,423.0482178,0.2681975961,423.0482178,0.2643839121,
421.970459,0.2831806839,421.970459,0.2738919854,421.970459,0.2768447995,421.970459,0.266782403,421.970459,0.2686116099,421.970459,0.2648190558,
421.0465088,0.2835069597,421.0465088,0.2743552923,421.0465088,0.277095288,421.0465088,0.2670526206,421.0465088,0.2689257264,421.0465088,0.2652558684,
419.9683838,0.2840504944,419.9683838,0.2748920619,419.9683838,0.2777784765,419.9683838,0.2675218284,419.9683838,0.2695951164,419.9683838,0.2656527758,
419.0441284,0.2843288779,419.0441284,0.2753193378,419.0441284,0.2782179117,419.0441284,0.2678938508,419.0441284,0.2698272467,419.0441284,0.2660995424,
417.9656372,0.2849346697,417.9656372,0.2757005692,417.9656372,0.2789185345,417.9656372,0.2684520781,417.9656372,0.27051121,417.9656372,0.2665148377,
417.0410461,0.2852147222,417.0410461,0.2760360241,417.0410461,0.279137671,417.0410461,0.2686331868,417.0410461,0.2706336677,417.0410461,0.2670342326,
415.9621887,0.2858814597,415.9621887,0.2767740488,415.9621887,0.2797532678,415.9621887,0.2694501877,415.9621887,0.2713931799,415.9621887,0.2675508261,
415.037323,0.2861662507,415.037323,0.2773034871,415.037323,0.2801342905,415.037323,0.2697609663,415.037323,0.2716830671,415.037323,0.2678697109,
413.9580994,0.2866604328,413.9580994,0.2776176631,413.9580994,0.2806071341,413.9580994,0.2700267732,413.9580994,0.2720442116,413.9580994,0.2682203948,
413.0328979,0.286775291,413.0328979,0.2777900696,413.0328979,0.2807699442,413.0328979,0.2702580392,413.0328979,0.2723583281,413.0328979,0.268520236,
411.9533081,0.2872802019,411.9533081,0.27821064,411.9533081,0.2813732028,411.9533081,0.2708852887,411.9533081,0.2727818191,411.9533081,0.2692436576,
411.027771,0.2879310846,411.027771,0.2788793147,411.027771,0.2822702825,411.027771,0.2717228532,411.027771,0.2736923695,411.027771,0.2697768211,
409.9478455,0.2881891131,409.9478455,0.2790415883,409.9478455,0.282263279,409.9478455,0.271815002,409.9478455,0.2737494409,409.9478455,0.2701134086,
409.0220032,0.2886554003,409.0220032,0.2796700001,409.0220032,0.2828064561,409.0220032,0.2722721696,409.0220032,0.2743723691,409.0220032,0.2703504562,
407.9417114,0.2892414629,407.9417114,0.280184269,407.9417114,0.2834614217,407.9417114,0.2728989422,407.9417114,0.2750506103,407.9417114,0.2711105049,
407.0155945,0.2898213267,407.0155945,0.2808088362,407.0155945,0.2839699984,407.0155945,0.2733747065,407.0155945,0.2755821943,407.0155945,0.2716130912,
405.934906,0.2906055152,405.934906,0.2817828655,405.934906,0.2848955989,405.934906,0.2744577825,405.934906,0.2763094604,405.934906,0.2725501359,
405.0084839,0.2908434868,405.0084839,0.282061249,405.0084839,0.2851549089,405.0084839,0.2745470107,405.0084839,0.2766394913,405.0084839,0.2725080252,
403.9274597,0.2913466692,403.9274597,0.2823541462,403.9274597,0.2855321765,403.9274597,0.2749459147,403.9274597,0.2770920098,403.9274597,0.273136735,
403.0007324,0.2918893695,403.0007324,0.2831032276,403.0007324,0.2861001194,403.0007324,0.275533855,403.0007324,0.2777295709,403.0007324,0.2737297714,
402.0738525,0.2925720215,402.0738525,0.2836850584,402.0738525,0.2868133783,402.0738525,0.276285708,402.0738525,0.2784781456,402.0738525,0.2743906677,
400.9923096,0.2930475175,400.9923096,0.2841528654,400.9923096,0.2875866294,400.9923096,0.2769325078,400.9923096,0.2790077925,400.9923096,0.2748379111,
400.0651245,0.2935839891,400.0651245,0.2848222256,400.0651245,0.2880734205,400.0651245,0.2774087787,400.0651245,0.27962026,400.0651245,0.2758629918,

Direct 100x 0hr,
Direct 100x 0hr
Collection Time: 10/4/2015 1:48:44 PM
Operator Name  :
Scan Version 5.0.0.999
Parameter List :
Instrument  Cary 50
Instrument Version  3.00
Start (nm)  700.0
Stop (nm)  400.0
X Mode  Nanometers
Y Mode  Abs
UV-Vis Scan Rate (nm/min)  600.000
UV-Vis Data Interval (nm)  1.00
UV-Vis Ave. Time (sec)  0.1000
Beam Mode  Dual Beam
Baseline Correction  On
Baseline Type  Baseline correction
Baseline File Name
Baseline Std Ref File Name
Cycle Mode  Off
Method Log     :
Method Name    : C:\Users\heatherweltner\Documents\Au Standard.MSW
Date/Time stamp: 7/3/2015 11:24:50 AM
Method Modifications:
UVVIS SAT Changed: 7/1/2015 11:30:22 AM, Old:0.0125, New:0.1000
Common SAT Changed: 7/1/2015 11:30:22 AM, Old:0.0125, New:0.1000
X Start nm Changed: 7/1/2015 11:30:31 AM, Old:  800.0, New:  700.0
X Stop nm Changed: 7/1/2015 11:30:31 AM, Old:  200.0, New:  300.0
Common Interval nm Changed: 7/1/2015 11:30:31 AM, Old:     5.00, New:     1.00
Baseline Correction Changed: 7/1/2015 11:30:31 AM, Old:0, New:1
Saved as C:\Users\heatherweltner\Documents\Au Standard.MSWOpened C:\Users\heatherweltner\Documents\Au Standard.MSW
X Stop nm Changed: 7/3/2015 11:24:45 AM, Old:  300.0, New:  400.0
Saved as C:\Users\heatherweltner\Documents\Au Standard.MSW
Opened C:\Users\heatherweltner\Documents\Au Standard.MSW
End Method Modifications
<Current Wavelength> , 401.0

Direct 30x 0hr,
Direct 30x 0hr
Collection Time: 10/4/2015 1:49:27 PM
Operator Name  :
Scan Version 5.0.0.999
Parameter List :
Instrument  Cary 50
Instrument Version  3.00
Start (nm)  700.0
Stop (nm)  400.0
X Mode  Nanometers
Y Mode  Abs
UV-Vis Scan Rate (nm/min)  600.000
UV-Vis Data Interval (nm)  1.00
UV-Vis Ave. Time (sec)  0.1000
Beam Mode  Dual Beam
Baseline Correction  On
Baseline Type  Baseline correction
Baseline File Name
Baseline Std Ref File Name
Cycle Mode  Off
Method Log     :
Method Name    : C:\Users\heatherweltner\Documents\Au Standard.MSW
Date/Time stamp: 7/3/2015 11:24:50 AM
Method Modifications:
UVVIS SAT Changed: 7/1/2015 11:30:22 AM, Old:0.0125, New:0.1000
Common SAT Changed: 7/1/2015 11:30:22 AM, Old:0.0125, New:0.1000
X Start nm Changed: 7/1/2015 11:30:31 AM, Old:  800.0, New:  700.0
X Stop nm Changed: 7/1/2015 11:30:31 AM, Old:  200.0, New:  300.0
Common Interval nm Changed: 7/1/2015 11:30:31 AM, Old:     5.00, New:     1.00
Baseline Correction Changed: 7/1/2015 11:30:31 AM, Old:0, New:1
Saved as C:\Users\heatherweltner\Documents\Au Standard.MSWOpened C:\Users\heatherweltner\Documents\Au Standard.MSW
X Stop nm Changed: 7/3/2015 11:24:45 AM, Old:  300.0, New:  400.0
Saved as C:\Users\heatherweltner\Documents\Au Standard.MSW
Opened C:\Users\heatherweltner\Documents\Au Standard.MSW
End Method Modifications
<Current Wavelength> , 401.0

Direct 31x 0hr,
Direct 31x 0hr
Collection Time: 10/4/2015 1:50:38 PM
Operator Name  :
Scan Version 5.0.0.999
Parameter List :
Instrument  Cary 50
Instrument Version  3.00
Start (nm)  700.0
Stop (nm)  400.0
X Mode  Nanometers
Y Mode  Abs
UV-Vis Scan Rate (nm/min)  600.000
UV-Vis Data Interval (nm)  1.00
UV-Vis Ave. Time (sec)  0.1000
Beam Mode  Dual Beam
Baseline Correction  On
Baseline Type  Baseline correction
Baseline File Name
Baseline Std Ref File Name
Cycle Mode  Off
Method Log     :
Method Name    : C:\Users\heatherweltner\Documents\Au Standard.MSW
Date/Time stamp: 7/3/2015 11:24:50 AM
Method Modifications:
UVVIS SAT Changed: 7/1/2015 11:30:22 AM, Old:0.0125, New:0.1000
Common SAT Changed: 7/1/2015 11:30:22 AM, Old:0.0125, New:0.1000
X Start nm Changed: 7/1/2015 11:30:31 AM, Old:  800.0, New:  700.0
X Stop nm Changed: 7/1/2015 11:30:31 AM, Old:  200.0, New:  300.0
Common Interval nm Changed: 7/1/2015 11:30:31 AM, Old:     5.00, New:     1.00
Baseline Correction Changed: 7/1/2015 11:30:31 AM, Old:0, New:1
Saved as C:\Users\heatherweltner\Documents\Au Standard.MSWOpened C:\Users\heatherweltner\Documents\Au Standard.MSW
X Stop nm Changed: 7/3/2015 11:24:45 AM, Old:  300.0, New:  400.0
Saved as C:\Users\heatherweltner\Documents\Au Standard.MSW
Opened C:\Users\heatherweltner\Documents\Au Standard.MSW
End Method Modifications
<Current Wavelength> , 401.0

Direct 3x 0hr,
Direct 3x 0hr
Collection Time: 10/4/2015 1:51:25 PM
Operator Name  :
Scan Version 5.0.0.999
Parameter List :
Instrument  Cary 50
Instrument Version  3.00
Start (nm)  700.0
Stop (nm)  400.0
X Mode  Nanometers
Y Mode  Abs
UV-Vis Scan Rate (nm/min)  600.000
UV-Vis Data Interval (nm)  1.00
UV-Vis Ave. Time (sec)  0.1000
Beam Mode  Dual Beam
Baseline Correction  On
Baseline Type  Baseline correction
Baseline File Name
Baseline Std Ref File Name
Cycle Mode  Off
Method Log     :
Method Name    : C:\Users\heatherweltner\Documents\Au Standard.MSW
Date/Time stamp: 7/3/2015 11:24:50 AM
Method Modifications:
UVVIS SAT Changed: 7/1/2015 11:30:22 AM, Old:0.0125, New:0.1000
Common SAT Changed: 7/1/2015 11:30:22 AM, Old:0.0125, New:0.1000
X Start nm Changed: 7/1/2015 11:30:31 AM, Old:  800.0, New:  700.0
X Stop nm Changed: 7/1/2015 11:30:31 AM, Old:  200.0, New:  300.0
Common Interval nm Changed: 7/1/2015 11:30:31 AM, Old:     5.00, New:     1.00
Baseline Correction Changed: 7/1/2015 11:30:31 AM, Old:0, New:1
Saved as C:\Users\heatherweltner\Documents\Au Standard.MSWOpened C:\Users\heatherweltner\Documents\Au Standard.MSW
X Stop nm Changed: 7/3/2015 11:24:45 AM, Old:  300.0, New:  400.0
Saved as C:\Users\heatherweltner\Documents\Au Standard.MSW
Opened C:\Users\heatherweltner\Documents\Au Standard.MSW
End Method Modifications
<Current Wavelength> , 401.0

Direct 1x 0hr,
Direct 1x 0hr
Collection Time: 10/4/2015 1:52:09 PM
Operator Name  :
Scan Version 5.0.0.999
Parameter List :
Instrument  Cary 50
Instrument Version  3.00
Start (nm)  700.0
Stop (nm)  400.0
X Mode  Nanometers
Y Mode  Abs
UV-Vis Scan Rate (nm/min)  600.000
UV-Vis Data Interval (nm)  1.00
UV-Vis Ave. Time (sec)  0.1000
Beam Mode  Dual Beam
Baseline Correction  On
Baseline Type  Baseline correction
Baseline File Name
Baseline Std Ref File Name
Cycle Mode  Off
Method Log     :
Method Name    : C:\Users\heatherweltner\Documents\Au Standard.MSW
Date/Time stamp: 7/3/2015 11:24:50 AM
Method Modifications:
UVVIS SAT Changed: 7/1/2015 11:30:22 AM, Old:0.0125, New:0.1000
Common SAT Changed: 7/1/2015 11:30:22 AM, Old:0.0125, New:0.1000
X Start nm Changed: 7/1/2015 11:30:31 AM, Old:  800.0, New:  700.0
X Stop nm Changed: 7/1/2015 11:30:31 AM, Old:  200.0, New:  300.0
Common Interval nm Changed: 7/1/2015 11:30:31 AM, Old:     5.00, New:     1.00
Baseline Correction Changed: 7/1/2015 11:30:31 AM, Old:0, New:1
Saved as C:\Users\heatherweltner\Documents\Au Standard.MSWOpened C:\Users\heatherweltner\Documents\Au Standard.MSW
X Stop nm Changed: 7/3/2015 11:24:45 AM, Old:  300.0, New:  400.0
Saved as C:\Users\heatherweltner\Documents\Au Standard.MSW
Opened C:\Users\heatherweltner\Documents\Au Standard.MSW
End Method Modifications
<Current Wavelength> , 401.0

Direct 0x 0hr,
Direct 0x 0hr
Collection Time: 10/4/2015 1:52:52 PM
Operator Name  :
Scan Version 5.0.0.999
Parameter List :
Instrument  Cary 50
Instrument Version  3.00
Start (nm)  700.0
Stop (nm)  400.0
X Mode  Nanometers
Y Mode  Abs
UV-Vis Scan Rate (nm/min)  600.000
UV-Vis Data Interval (nm)  1.00
UV-Vis Ave. Time (sec)  0.1000
Beam Mode  Dual Beam
Baseline Correction  On
Baseline Type  Baseline correction
Baseline File Name
Baseline Std Ref File Name
Cycle Mode  Off
Method Log     :
Method Name    : C:\Users\heatherweltner\Documents\Au Standard.MSW
Date/Time stamp: 7/3/2015 11:24:50 AM
Method Modifications:
UVVIS SAT Changed: 7/1/2015 11:30:22 AM, Old:0.0125, New:0.1000
Common SAT Changed: 7/1/2015 11:30:22 AM, Old:0.0125, New:0.1000
X Start nm Changed: 7/1/2015 11:30:31 AM, Old:  800.0, New:  700.0
X Stop nm Changed: 7/1/2015 11:30:31 AM, Old:  200.0, New:  300.0
Common Interval nm Changed: 7/1/2015 11:30:31 AM, Old:     5.00, New:     1.00
Baseline Correction Changed: 7/1/2015 11:30:31 AM, Old:0, New:1
Saved as C:\Users\heatherweltner\Documents\Au Standard.MSWOpened C:\Users\heatherweltner\Documents\Au Standard.MSW
X Stop nm Changed: 7/3/2015 11:24:45 AM, Old:  300.0, New:  400.0
Saved as C:\Users\heatherweltner\Documents\Au Standard.MSW
Opened C:\Users\heatherweltner\Documents\Au Standard.MSW
End Method Modifications
<Current Wavelength> , 401.0

