DD_1 100x 48hr,,DD_1 30x 48hr,,DD_1 10x 48hr,,DD_1 3x 48hr,,DD_1 1x 48hr,,DD_1 0x 48hr,,
Wavelength (nm),Abs,Wavelength (nm),Abs,Wavelength (nm),Abs,Wavelength (nm),Abs,Wavelength (nm),Abs,Wavelength (nm),Abs,
700.0142822,0.04278937355,700.0142822,0.06055361778,700.0142822,0.05113504827,700.0142822,0.02695645019,700.0142822,0.02805379592,700.0142822,0.02380393073,
699.0070801,0.04275795072,699.0070801,0.06045137718,699.0070801,0.05114139616,699.0070801,0.02724200673,699.0070801,0.02832070552,699.0070801,0.02377065271,
697.9995728,0.04290453717,697.9995728,0.06073211879,697.9995728,0.05087996647,697.9995728,0.02742422745,697.9995728,0.02859621122,697.9995728,0.02390473336,
696.9916992,0.0431329906,696.9916992,0.06085023656,696.9916992,0.05125099048,696.9916992,0.02748936042,696.9916992,0.02891856618,696.9916992,0.02427267469,
695.9835205,0.04308447614,695.9835205,0.06052487344,695.9835205,0.05079170689,695.9835205,0.02767240256,695.9835205,0.02901209518,695.9835205,0.02451086603,
694.9750366,0.0432003215,694.9750366,0.06084201857,694.9750366,0.05090828612,694.9750366,0.02797571197,694.9750366,0.0291760955,694.9750366,0.02453661151,
693.9661865,0.04308090359,693.9661865,0.06001873314,693.9661865,0.05068120733,693.9661865,0.02829755098,693.9661865,0.02909866907,693.9661865,0.02449771948,
692.9570313,0.04369186237,692.9570313,0.06101262569,692.9570313,0.05123505741,692.9570313,0.02868317254,692.9570313,0.03000651859,692.9570313,0.02555997856,
691.9475098,0.04362940416,691.9475098,0.06124851108,691.9475098,0.05144380406,691.9475098,0.02931299061,691.9475098,0.03041656502,691.9475098,0.02591028251,
690.9376831,0.04390308261,690.9376831,0.06125983596,690.9376831,0.05108996853,690.9376831,0.02944557928,690.9376831,0.03031107411,690.9376831,0.02597779967,
690.0718384,0.04375283793,690.0718384,0.06128019467,690.0718384,0.05123179406,690.0718384,0.02949267626,690.0718384,0.03046645969,690.0718384,0.02591344342,
689.0614624,0.04404249415,689.0614624,0.06140070036,689.0614624,0.05103901774,689.0614624,0.02974666469,689.0614624,0.03090659715,689.0614624,0.02646892704,
688.0507202,0.04423483089,688.0507202,0.06190111116,688.0507202,0.05110878125,688.0507202,0.03021795861,688.0507202,0.03156949207,688.0507202,0.02651856281,
687.0396118,0.04364483058,687.0396118,0.06158524752,687.0396118,0.05063835904,687.0396118,0.03021468408,687.0396118,0.03134389594,687.0396118,0.02683912963,
686.0281982,0.04408510029,686.0281982,0.06177157536,686.0281982,0.05117817596,686.0281982,0.03061734326,686.0281982,0.03170875832,686.0281982,0.02719102055,
685.0164795,0.04421918094,685.0164795,0.06161594391,685.0164795,0.0508412607,685.0164795,0.0307688918,685.0164795,0.03180968761,685.0164795,0.02721130289,
684.0044556,0.0444901064,684.0044556,0.06232709065,684.0044556,0.05082551762,684.0044556,0.03136821464,684.0044556,0.03233880177,684.0044556,0.02784481272,
682.9920654,0.04474538937,682.9920654,0.06253152341,682.9920654,0.05132035166,682.9920654,0.03207281232,682.9920654,0.03285825625,682.9920654,0.02806508914,
681.9793701,0.04473913461,681.9793701,0.06227363646,681.9793701,0.0513121374,681.9793701,0.03240952641,681.9793701,0.03323199227,681.9793701,0.0285463091,
680.9663696,0.04444029555,680.9663696,0.0620230101,680.9663696,0.05043973774,680.9663696,0.03224505484,680.9663696,0.03290402144,680.9663696,0.0283155106,
679.9530029,0.04476447403,679.9530029,0.06221179664,679.9530029,0.05101421475,679.9530029,0.03291898966,679.9530029,0.03363094479,679.9530029,0.02934431285,
678.9393921,0.04460291192,678.9393921,0.0626488179,678.9393921,0.05089469254,678.9393921,0.03301905096,678.9393921,0.03368839994,678.9393921,0.02954778448,
678.0702515,0.04498555139,678.0702515,0.0628072992,678.0702515,0.05079635978,678.0702515,0.03350800648,678.0702515,0.03423815221,678.0702515,0.02983028069,
677.0560303,0.04538073763,677.0560303,0.06287485361,677.0560303,0.05132675916,677.0560303,0.0341026932,677.0560303,0.03464767337,677.0560303,0.03015754931,
676.0414429,0.04484422877,676.0414429,0.06281773746,676.0414429,0.05124411732,676.0414429,0.03429571539,676.0414429,0.03471131995,676.0414429,0.03055987693,
675.0265503,0.04537921399,675.0265503,0.06284807622,675.0265503,0.05101744458,675.0265503,0.03484195098,675.0265503,0.03537356481,675.0265503,0.03078228608,
674.0113525,0.04532556608,674.0113525,0.0631667152,674.0113525,0.0511180684,674.0113525,0.03489855677,674.0113525,0.03542453796,674.0113525,0.03112962656,
672.9957886,0.04527470842,672.9957886,0.06314036995,672.9957886,0.05114972219,672.9957886,0.03550343961,672.9957886,0.03589335084,672.9957886,0.03175125271,
671.9799805,0.04542347044,671.9799805,0.06295339763,671.9799805,0.05128116906,671.9799805,0.03584420681,671.9799805,0.03624629602,671.9799805,0.03171274066,
670.9638062,0.04583525285,670.9638062,0.06364680827,670.9638062,0.05129978433,670.9638062,0.03644962236,670.9638062,0.03671923652,670.9638062,0.03243189678,
669.9473267,0.0454932861,669.9473267,0.06315629929,669.9473267,0.05092900991,669.9473267,0.03645528108,669.9473267,0.03678958118,669.9473267,0.03238484263,
668.930542,0.04576405883,668.930542,0.0636298731,668.930542,0.05144164711,668.930542,0.03715588897,668.930542,0.03714114055,668.930542,0.03335667029,
668.0587158,0.04567473382,668.0587158,0.06379704922,668.0587158,0.05131015554,668.0587158,0.03776350245,668.0587158,0.03763817623,668.0587158,0.03320514038,
667.0413208,0.0459995456,667.0413208,0.0640039742,667.0413208,0.0519282259,667.0413208,0.03782215714,667.0413208,0.03776149824,667.0413208,0.03412677348,
666.0236206,0.04638324305,666.0236206,0.06413249671,666.0236206,0.05191195011,666.0236206,0.03880952671,666.0236206,0.03837544844,666.0236206,0.03473689407,
665.0056152,0.04611361027,665.0056152,0.06404489279,665.0056152,0.05194255337,665.0056152,0.03923386708,665.0056152,0.03884196654,665.0056152,0.03513647243,
663.9873047,0.04625488445,663.9873047,0.06445817649,663.9873047,0.05225719884,663.9873047,0.03931099549,663.9873047,0.03914051875,663.9873047,0.03537072986,
662.968689,0.04665670544,662.968689,0.0646064207,662.968689,0.05186226964,662.968689,0.04028454795,662.968689,0.03958307207,662.968689,0.03574475273,
661.949707,0.04666676372,661.949707,0.06486674398,661.949707,0.05198459327,661.949707,0.04081050307,661.949707,0.04011132941,661.949707,0.03652358428,
660.9304199,0.04653763026,660.9304199,0.06488201767,660.9304199,0.05217688903,660.9304199,0.04128468037,660.9304199,0.04039149359,660.9304199,0.03708883747,
660.0565186,0.0466039069,660.0565186,0.06475251913,660.0565186,0.052136112,660.0565186,0.04119829088,660.0565186,0.04029775411,660.0565186,0.037169002,
659.0366821,0.04692996293,659.0366821,0.06473295391,659.0366821,0.0521033071,659.0366821,0.04201249406,659.0366821,0.04094732925,659.0366821,0.03780515492,
658.0165405,0.04671005532,658.0165405,0.06496942788,658.0165405,0.05204648525,658.0165405,0.04271856323,658.0165405,0.04159064218,658.0165405,0.03843180835,
656.9960938,0.04688223451,656.9960938,0.06505271047,656.9960938,0.05211322755,656.9960938,0.04318419471,656.9960938,0.0417768769,656.9960938,0.03889077157,
655.9752808,0.04682309553,655.9752808,0.06488114595,655.9752808,0.05242087319,655.9752808,0.04332835227,655.9752808,0.0422978811,655.9752808,0.03949109465,
654.9542236,0.04711867496,654.9542236,0.06535458565,654.9542236,0.05223448575,654.9542236,0.04428622127,654.9542236,0.04272041842,654.9542236,0.04014591128,
653.9328003,0.04689714313,653.9328003,0.06508449465,653.9328003,0.05231133103,653.9328003,0.04511474073,653.9328003,0.04321178794,653.9328003,0.0407230407,
653.0570679,0.04705335945,653.0570679,0.06575593352,653.0570679,0.05272408947,653.0570679,0.04583948106,653.0570679,0.04375498369,653.0570679,0.04140488803,
652.0350952,0.04739444703,652.0350952,0.06551216543,652.0350952,0.05284776539,652.0350952,0.0464107506,652.0350952,0.04417710751,652.0350952,0.04175690189,
651.0128174,0.04723049328,651.0128174,0.06566821039,651.0128174,0.05251244456,651.0128174,0.04664894938,651.0128174,0.04464574158,651.0128174,0.04283750802,
649.9902344,0.04752487689,649.9902344,0.06560590863,649.9902344,0.05246544629,649.9902344,0.04733451456,649.9902344,0.04487209767,649.9902344,0.04307112843,
648.9673462,0.04743547365,648.9673462,0.06556273997,648.9673462,0.05232917145,648.9673462,0.04776519164,648.9673462,0.04541642964,648.9673462,0.04346617684,
647.9441528,0.04780336469,647.9441528,0.06584918499,647.9441528,0.0526996851,647.9441528,0.04870319739,647.9441528,0.04619718343,647.9441528,0.04435106739,
647.0668945,0.04743723571,647.0668945,0.06600793451,647.0668945,0.05247759819,647.0668945,0.04908807203,647.0668945,0.04613376036,647.0668945,0.0450136587,
646.0430908,0.04787651077,646.0430908,0.06588596851,646.0430908,0.05283566192,646.0430908,0.0497919023,646.0430908,0.0470466949,646.0430908,0.04527614638,
645.019043,0.04800916836,645.019043,0.06627172977,645.019043,0.05309475958,645.019043,0.05040194467,645.019043,0.04745190591,645.019043,0.04606274888,
643.9946899,0.04817254841,643.9946899,0.06629458815,643.9946899,0.05325333774,643.9946899,0.05151304975,643.9946899,0.04846745729,643.9946899,0.04724160582,
642.9699707,0.04817220196,642.9699707,0.06658218056,642.9699707,0.0535485819,642.9699707,0.05212612823,642.9699707,0.04875622317,642.9699707,0.04769313335,
641.9450073,0.04848221689,641.9450073,0.06655182689,641.9450073,0.05354840681,641.9450073,0.05334332958,641.9450073,0.04954300821,641.9450073,0.04889337718,
641.0662231,0.048339203,641.0662231,0.06678593904,641.0662231,0.0535877645,641.0662231,0.05370495096,641.0662231,0.05023266375,641.0662231,0.0493142046,
640.0406494,0.04914662614,640.0406494,0.06705011427,640.0406494,0.05395844206,640.0406494,0.05480076373,640.0406494,0.05085336789,640.0406494,0.05028695241,
639.0148315,0.04916668311,639.0148315,0.0667104423,639.0148315,0.05406165868,639.0148315,0.05530044064,639.0148315,0.05142148212,639.0148315,0.05097933859,
637.9886475,0.04943207279,637.9886475,0.06694663316,637.9886475,0.0540096201,637.9886475,0.05611426383,637.9886475,0.05224552006,637.9886475,0.05173968896,
636.9622192,0.04937037826,636.9622192,0.06719555706,636.9622192,0.05393675342,636.9622192,0.05707708001,636.9622192,0.05270012096,636.9622192,0.05257514119,
635.9354248,0.04969242588,635.9354248,0.06757350266,635.9354248,0.05432125181,635.9354248,0.05811728165,635.9354248,0.05365553498,635.9354248,0.05355039984,
635.0551147,0.04965597391,635.0551147,0.06754960865,635.0551147,0.05467350408,635.0551147,0.05894782022,635.0551147,0.05421228707,635.0551147,0.05444873124,
634.027832,0.05020401254,634.027832,0.067445077,634.027832,0.05469073728,634.027832,0.05984191969,634.027832,0.05505125225,634.027832,0.0555132404,
633.0002441,0.04983054474,633.0002441,0.06737154722,633.0002441,0.05442748591,633.0002441,0.06042308733,633.0002441,0.05520869046,633.0002441,0.05580579117,
631.97229,0.0496991314,631.97229,0.06752698869,631.97229,0.05451079831,631.97229,0.06097363308,631.97229,0.05610905215,631.97229,0.05670302361,
630.9440918,0.04991796985,630.9440918,0.06787017733,630.9440918,0.05476050079,630.9440918,0.06241587549,630.9440918,0.05739532411,630.9440918,0.05821311474,
630.062561,0.04994747788,630.062561,0.06793794036,630.062561,0.05494133756,630.062561,0.06313937902,630.062561,0.05759626254,630.062561,0.05867030472,
629.0338135,0.05020909756,629.0338135,0.06842015684,629.0338135,0.05477210134,629.0338135,0.0645288676,629.0338135,0.05900798365,629.0338135,0.06018565595,
628.0046997,0.0501960218,628.0046997,0.06829402596,628.0046997,0.05500053614,628.0046997,0.06541456282,628.0046997,0.05970156193,628.0046997,0.06100455299,
626.9754028,0.05059127137,626.9754028,0.06872987002,626.9754028,0.05552195013,626.9754028,0.06682823598,626.9754028,0.06080887839,626.9754028,0.06221538037,
625.9457397,0.05056858435,625.9457397,0.06861656159,625.9457397,0.05558316782,625.9457397,0.06768450886,625.9457397,0.06160857528,625.9457397,0.06327040493,
625.0629272,0.05063042045,625.0629272,0.06863675267,625.0629272,0.05586805195,625.0629272,0.06873499602,625.0629272,0.06265743077,625.0629272,0.06424079835,
624.0327148,0.05073121563,624.0327148,0.06899587065,624.0327148,0.0556201227,624.0327148,0.06971596181,624.0327148,0.06345203519,624.0327148,0.06546274573,
623.0022583,0.05116055533,623.0022583,0.06949074566,623.0022583,0.0563246645,623.0022583,0.07105421275,623.0022583,0.06476087123,623.0022583,0.06671541929,
621.9714355,0.0510222204,621.9714355,0.06899338216,621.9714355,0.0560701713,621.9714355,0.07184207439,621.9714355,0.06555322558,621.9714355,0.06769736856,
620.9403687,0.05093739182,620.9403687,0.06956286728,620.9403687,0.05624742806,620.9403687,0.07348486036,620.9403687,0.06688759476,620.9403687,0.06907959282,
620.0563354,0.05114168674,620.0563354,0.06949909776,620.0563354,0.05666081607,620.0563354,0.07447426021,620.0563354,0.06769948453,620.0563354,0.07011700422,
619.0247192,0.05123762041,619.0247192,0.06974419951,619.0247192,0.05658048391,619.0247192,0.07591658086,619.0247192,0.06883150339,619.0247192,0.07141215354,
617.9927979,0.05153190717,617.9927979,0.06990128011,617.9927979,0.05716125667,617.9927979,0.07726732641,617.9927979,0.07048946619,617.9927979,0.07273508608,
616.9606323,0.05125515535,616.9606323,0.06979092211,616.9606323,0.05675562099,616.9606323,0.07824800164,616.9606323,0.07113912702,616.9606323,0.07397837192,
615.9281006,0.05174613371,615.9281006,0.07006148994,615.9281006,0.05759623647,615.9281006,0.08003670722,615.9281006,0.07276342064,615.9281006,0.07585602999,
615.0428467,0.05158425868,615.0428467,0.07017885894,615.0428467,0.05754631758,615.0428467,0.08117093146,615.0428467,0.07405827194,615.0428467,0.07709942758,
614.0098267,0.05197415128,614.0098267,0.07015418261,614.0098267,0.05799650401,614.0098267,0.08240120858,614.0098267,0.07518614084,614.0098267,0.07855544239,
612.9765015,0.0517318733,612.9765015,0.07055947185,612.9765015,0.05810080096,612.9765015,0.08387501538,612.9765015,0.07643101364,612.9765015,0.08006064594,
611.9428711,0.05175744742,611.9428711,0.07050283253,611.9428711,0.05819556117,611.9428711,0.08536911011,611.9428711,0.07779785991,611.9428711,0.08124564588,
611.0567017,0.05223533139,611.0567017,0.07082074136,611.0567017,0.05844416469,611.0567017,0.08684010804,611.0567017,0.07935766876,611.0567017,0.0831701085,
610.022522,0.052531261,610.022522,0.07085407525,610.022522,0.05899855494,610.022522,0.08831930161,610.022522,0.08078424633,610.022522,0.08476081491,
608.9880981,0.05246348679,608.9880981,0.0707224533,608.9880981,0.05903452262,608.9880981,0.08997955918,608.9880981,0.08214554936,608.9880981,0.08595958352,
607.9533691,0.05237093195,607.9533691,0.0711812377,607.9533691,0.0592375882,607.9533691,0.09160805494,607.9533691,0.08391997963,607.9533691,0.08810823411,
607.0662231,0.05239508301,607.0662231,0.07139897346,607.0662231,0.05901868641,607.0662231,0.09291020036,607.0662231,0.08499888331,607.0662231,0.08916375041,
606.0309448,0.05271049589,606.0309448,0.07137813419,606.0309448,0.05931263044,606.0309448,0.09469935298,606.0309448,0.08637225628,606.0309448,0.09102779627,
604.9954224,0.05269170552,604.9954224,0.07117208838,604.9954224,0.05980549753,604.9954224,0.09618780762,604.9954224,0.08801828325,604.9954224,0.09282881021,
603.9595947,0.05306345969,603.9595947,0.07160363346,603.9595947,0.06017962098,603.9595947,0.0982163921,603.9595947,0.08972754329,603.9595947,0.09486636519,
603.0714722,0.05329272524,603.0714722,0.07183288038,603.0714722,0.06063811108,603.0714722,0.09993659705,603.0714722,0.09146506339,603.0714722,0.09651452303,
602.0350952,0.05371174961,602.0350952,0.07233118266,602.0350952,0.06083257869,602.0350952,0.1021774858,602.0350952,0.09337344021,602.0350952,0.09877482057,
600.9984741,0.05370597541,600.9984741,0.0721552819,600.9984741,0.06118383631,600.9984741,0.1035543159,600.9984741,0.09501225501,600.9984741,0.1005665436,
599.9615479,0.05362701043,599.9615479,0.07229483128,599.9615479,0.0612248145,599.9615479,0.1054172441,599.9615479,0.09669908881,599.9615479,0.1023177207,
599.0725098,0.05378150195,599.0725098,0.07235246897,599.0725098,0.06110671535,599.0725098,0.1072686538,599.0725098,0.0982131809,599.0725098,0.1042982563,
598.0350342,0.05361555889,598.0350342,0.07234659791,598.0350342,0.06181087717,598.0350342,0.1093094721,598.0350342,0.1003797054,598.0350342,0.1066013947,
596.9973145,0.05418040976,596.9973145,0.0726063773,596.9973145,0.06239103898,596.9973145,0.1111496314,596.9973145,0.1020736396,596.9973145,0.1085966527,
595.9592896,0.05452124402,595.9592896,0.07287145406,595.9592896,0.06308878958,595.9592896,0.1135991886,595.9592896,0.1042492837,595.9592896,0.1111994833,
595.0693359,0.05443270877,595.0693359,0.07295935601,595.0693359,0.0629600361,595.0693359,0.1149661168,595.0693359,0.1059051901,595.0693359,0.1128993109,
594.0307617,0.05461120978,594.0307617,0.07306271791,594.0307617,0.06314907968,594.0307617,0.1169744432,594.0307617,0.1077014282,594.0307617,0.1149944142,
592.9919434,0.05438382924,592.9919434,0.07288954407,592.9919434,0.06264896691,592.9919434,0.119016245,592.9919434,0.1094905362,592.9919434,0.1170105711,
591.9528809,0.054877799,591.9528809,0.07368642837,591.9528809,0.06372506917,591.9528809,0.1218383685,591.9528809,0.1123497337,591.9528809,0.1200906411,
591.0619507,0.05496354774,591.0619507,0.07338118553,591.0619507,0.06439223886,591.0619507,0.1237607971,591.0619507,0.1140937954,591.0619507,0.1223852709,
590.0223389,0.05536063015,590.0223389,0.0738087669,590.0223389,0.06464415044,590.0223389,0.1263448298,590.0223389,0.1166490465,590.0223389,0.1250368655,
588.9824219,0.05548053235,588.9824219,0.07392138243,588.9824219,0.06498984247,588.9824219,0.128754437,588.9824219,0.118955411,588.9824219,0.127720952,
587.9422607,0.05506688356,587.9422607,0.07371084392,587.9422607,0.06497712433,587.9422607,0.1306807548,587.9422607,0.1208295971,587.9422607,0.1297674328,
587.0504761,0.05516892299,587.0504761,0.07376188785,587.0504761,0.06514427811,587.0504761,0.1325776875,587.0504761,0.1226874664,587.0504761,0.1318414956,
586.0097656,0.05565872416,586.0097656,0.07440005988,586.0097656,0.06591685116,586.0097656,0.1352699697,586.0097656,0.1258192062,586.0097656,0.1350713819,
584.968811,0.05559005216,584.968811,0.07412157953,584.968811,0.06632295996,584.968811,0.1382446438,584.968811,0.1280597597,584.968811,0.1380420476,
583.9275513,0.05574362725,583.9275513,0.07468999177,583.9275513,0.0667277053,583.9275513,0.1406698078,583.9275513,0.1309133023,583.9275513,0.1409344673,
583.03479,0.0562806651,583.03479,0.07474207878,583.03479,0.06736426055,583.03479,0.143052429,583.03479,0.1329228431,583.03479,0.143631652,
581.993042,0.05612542853,581.993042,0.07472126186,581.993042,0.06746699661,581.993042,0.145207122,581.993042,0.1353286803,581.993042,0.1464127898,
580.9510498,0.05620747432,580.9510498,0.07497880608,580.9510498,0.06787610799,580.9510498,0.1479229778,580.9510498,0.1378089339,580.9510498,0.1490935981,
580.0576172,0.05636318401,580.0576172,0.07507547736,580.0576172,0.06806660444,580.0576172,0.1503208429,580.0576172,0.1402821541,580.0576172,0.1519807428,
579.0150757,0.05662120879,579.0150757,0.0749990195,579.0150757,0.06835591793,579.0150757,0.153455615,579.0150757,0.1431965232,579.0150757,0.1553923041,
577.97229,0.05669818819,577.97229,0.07520913333,577.97229,0.06880162656,577.97229,0.1564006805,577.97229,0.1461532861,577.97229,0.1586132944,
576.9291992,0.05682542175,576.9291992,0.07547897846,576.9291992,0.0692929998,576.9291992,0.1589419693,576.9291992,0.1489950269,576.9291992,0.1619208157,
576.0348511,0.05701343715,576.0348511,0.07557021081,576.0348511,0.06975872815,576.0348511,0.1610376686,576.0348511,0.1512788534,576.0348511,0.1641370654,
574.991272,0.0571894832,574.991272,0.07535185665,574.991272,0.06985065341,574.991272,0.1636177152,574.991272,0.1541456133,574.991272,0.1674368829,
573.9473877,0.05727976561,573.9473877,0.07579623163,573.9473877,0.07045539469,573.9473877,0.1668328643,573.9473877,0.1572131068,573.9473877,0.1711535901,
573.0524292,0.05747881904,573.0524292,0.07582548261,573.0524292,0.07046483457,573.0524292,0.1696827114,573.0524292,0.1599962115,573.0524292,0.1742937416,
572.0080566,0.05755529925,572.0080566,0.07551661879,572.0080566,0.07107305527,572.0080566,0.1722483188,572.0080566,0.1627641171,572.0080566,0.1774608493,
570.9634399,0.05783521011,570.9634399,0.07587718219,570.9634399,0.07166343927,570.9634399,0.1753631532,570.9634399,0.165800184,570.9634399,0.1809571534,
570.0678101,0.05778650567,570.0678101,0.07613451779,570.0678101,0.07192103565,570.0678101,0.1777245402,570.0678101,0.1682430804,570.0678101,0.183793664,
569.022644,0.05794816464,569.022644,0.07608692348,569.022644,0.07238733023,569.022644,0.1807651073,569.022644,0.1713905185,569.022644,0.187428534,
567.9772339,0.05754628778,567.9772339,0.07603615522,567.9772339,0.07237005234,567.9772339,0.1836860031,567.9772339,0.1744252592,567.9772339,0.1909216791,
566.9315796,0.05796834081,566.9315796,0.07618658245,566.9315796,0.0729714483,566.9315796,0.1865194142,566.9315796,0.1775531322,566.9315796,0.1941306144,
566.0350952,0.05800919607,566.0350952,0.07603436708,566.0350952,0.07317486405,566.0350952,0.1890766323,566.0350952,0.1803222001,566.0350952,0.197600469,
564.9888916,0.05800925568,564.9888916,0.07634015381,564.9888916,0.07350402325,564.9888916,0.1923452616,564.9888916,0.1835829616,564.9888916,0.2014167607,
563.9424438,0.05827560276,563.9424438,0.07645317912,563.9424438,0.07407829165,563.9424438,0.195379585,563.9424438,0.187152341,563.9424438,0.2055033296,
563.0452881,0.05833827704,563.0452881,0.07651303709,563.0452881,0.07446479797,563.0452881,0.1979289502,563.0452881,0.1896547526,563.0452881,0.2082431912,
561.9983521,0.05851785466,561.9983521,0.07671699673,561.9983521,0.07481129467,561.9983521,0.2007026374,561.9983521,0.19283171,561.9983521,0.2119603455,
560.9511719,0.05875132233,560.9511719,0.07689859718,560.9511719,0.07529948652,560.9511719,0.2038829774,560.9511719,0.1963058859,560.9511719,0.2160821706,
560.0533447,0.05882909149,560.0533447,0.07691070437,560.0533447,0.07565475255,560.0533447,0.2067582905,560.0533447,0.1997830868,560.0533447,0.2198462039,
559.0056763,0.05899437144,559.0056763,0.0770341754,559.0056763,0.07585138083,559.0056763,0.2100241631,559.0056763,0.2033054382,559.0056763,0.223719433,
557.9577026,0.05885096639,557.9577026,0.076778844,557.9577026,0.07589682192,557.9577026,0.2126308084,557.9577026,0.2060895413,557.9577026,0.2271049321,
557.0592041,0.05905777216,557.0592041,0.07693848759,557.0592041,0.07626939565,557.0592041,0.2150816321,557.0592041,0.2085020393,557.0592041,0.2299454063,
556.0108032,0.05900931731,556.0108032,0.07690464705,556.0108032,0.07664679736,556.0108032,0.2176520377,556.0108032,0.2114522159,556.0108032,0.233708635,
554.9620972,0.05912331864,554.9620972,0.07698156685,554.9620972,0.07685079426,554.9620972,0.2209005356,554.9620972,0.2151251435,554.9620972,0.2375826091,
554.0629883,0.05894200876,554.0629883,0.0768166557,554.0629883,0.07680550218,554.0629883,0.2234720886,554.0629883,0.2177628428,554.0629883,0.2411407828,
553.0137939,0.05932384729,553.0137939,0.07700206339,553.0137939,0.07772983611,553.0137939,0.2262325734,553.0137939,0.2210809439,553.0137939,0.2448539287,
551.9642944,0.05942365527,551.9642944,0.07719901949,551.9642944,0.07798318565,551.9642944,0.229127869,551.9642944,0.2244548351,551.9642944,0.2488846332,
551.0645752,0.0591975376,551.0645752,0.07691926509,551.0645752,0.07806562632,551.0645752,0.2305767089,551.0645752,0.2264551967,551.0645752,0.2509836257,
550.0146484,0.05918128043,550.0146484,0.07708109915,550.0146484,0.07801351696,550.0146484,0.2335049063,550.0146484,0.2294751257,550.0146484,0.2544155121,
548.9644165,0.05938361585,548.9644165,0.07712274045,548.9644165,0.07798876613,548.9644165,0.2360293269,548.9644165,0.2327178866,548.9644165,0.2583850622,
548.0640869,0.05967189372,548.0640869,0.07734446973,548.0640869,0.0783867985,548.0640869,0.2382891923,548.0640869,0.2353472859,548.0640869,0.2616848052,
547.0133667,0.05968142673,547.0133667,0.07709699124,547.0133667,0.07860004902,547.0133667,0.2403034866,547.0133667,0.2374333143,547.0133667,0.2643691003,
545.9624634,0.05933402479,545.9624634,0.07700873911,545.9624634,0.07853456587,545.9624634,0.2424816042,545.9624634,0.240274325,545.9624634,0.2675691247,
545.0614014,0.0594006218,545.0614014,0.07703575492,545.0614014,0.0785683468,545.0614014,0.2440952212,545.0614014,0.2423154116,545.0614014,0.2700835168,
544.0100098,0.05923569202,544.0100098,0.07664673775,544.0100098,0.078420192,544.0100098,0.2462611198,544.0100098,0.2446971983,544.0100098,0.2730461061,
542.958313,0.0593284443,542.958313,0.07685561478,542.958313,0.07835582644,542.958313,0.2480443865,542.958313,0.2471653819,542.958313,0.2759891152,
542.0567017,0.05963405967,542.0567017,0.07693017274,542.0567017,0.07883823663,542.0567017,0.2496600896,542.0567017,0.2490979582,542.0567017,0.2785252035,
541.0045776,0.05975042284,541.0045776,0.07677751034,541.0045776,0.07955256104,541.0045776,0.2512404025,541.0045776,0.2511206269,541.0045776,0.2808200717,
539.9521484,0.05954302102,539.9521484,0.07676701248,539.9521484,0.07970452309,539.9521484,0.2529546618,539.9521484,0.2531061172,539.9521484,0.2832474709,
539.0498657,0.05949480459,539.0498657,0.07680553198,539.0498657,0.07936568558,539.0498657,0.254029125,539.0498657,0.2545850575,539.0498657,0.2853996754,
537.9970093,0.0595100373,537.9970093,0.07684125006,537.9970093,0.07899156213,537.9970093,0.2554169893,537.9970093,0.2564436793,537.9970093,0.2874673903,
536.9438477,0.0593524836,536.9438477,0.07673448324,536.9438477,0.07976405323,536.9438477,0.2564026117,536.9438477,0.257925719,536.9438477,0.2896284461,
536.0409546,0.05941780657,536.0409546,0.07635320723,536.0409546,0.07964191586,536.0409546,0.2575693727,536.0409546,0.259251684,536.0409546,0.291205883,
534.9873657,0.05893027037,534.9873657,0.07631459832,534.9873657,0.07871618122,534.9873657,0.2580764592,534.9873657,0.2604236901,534.9873657,0.2929372489,
533.9335327,0.05903591588,533.9335327,0.07637564093,533.9335327,0.07920402288,533.9335327,0.2588872015,533.9335327,0.2617948651,533.9335327,0.2944933176,
533.0300293,0.05875241756,533.0300293,0.07617510855,533.0300293,0.07981385291,533.0300293,0.2591866553,533.0300293,0.2623538673,533.0300293,0.295280844,
531.975708,0.05870938674,531.975708,0.07590319961,531.975708,0.07931714505,531.975708,0.2594556808,531.975708,0.2630133927,531.975708,0.2963457704,
531.0717773,0.05850179866,531.0717773,0.07579666376,531.0717773,0.0790047273,531.0717773,0.2596860528,531.0717773,0.2635930777,531.0717773,0.2972375453,
530.0169678,0.05816436559,530.0169678,0.07563860714,530.0169678,0.07788611948,530.0169678,0.2593456507,530.0169678,0.2639788389,530.0169678,0.2975729108,
528.9619751,0.05849235132,528.9619751,0.07541266829,528.9619751,0.07873371243,528.9619751,0.2597150505,528.9619751,0.2641569972,528.9619751,0.2982020676,
528.0574341,0.05836433172,528.0574341,0.07539746165,528.0574341,0.07920011133,528.0574341,0.2591935098,528.0574341,0.2641105354,528.0574341,0.2981886566,
527.0019531,0.05810858309,527.0019531,0.07514499128,527.0019531,0.07880561799,527.0019531,0.258628577,527.0019531,0.2640613019,527.0019531,0.298273921,
525.946167,0.05835832283,525.946167,0.07533282787,525.946167,0.07914926112,525.946167,0.258308053,525.946167,0.2638197839,525.946167,0.2982359231,
525.0410767,0.05786360055,525.0410767,0.07464286685,525.0410767,0.0785984695,525.0410767,0.2574813366,525.0410767,0.2629283965,525.0410767,0.297650516,
523.9848633,0.05751170963,523.9848633,0.0745806247,523.9848633,0.07816698402,523.9848633,0.2559708953,523.9848633,0.2622789145,523.9848633,0.2966126204,
522.9283447,0.0573893562,522.9283447,0.07431185991,522.9283447,0.07765318453,522.9283447,0.2546505034,522.9283447,0.2611447275,522.9283447,0.2960773706,
522.022644,0.05719976127,522.022644,0.07423565537,522.022644,0.07752028853,522.022644,0.2537148595,522.022644,0.2604262829,522.022644,0.2948620021,
520.9656982,0.05698784441,520.9656982,0.07402100414,520.9656982,0.07716837525,520.9656982,0.2523581386,520.9656982,0.2593681216,520.9656982,0.2935109735,
520.0595703,0.05698949844,520.0595703,0.07397082448,520.0595703,0.07675230503,520.0595703,0.2510045767,520.0595703,0.2579981089,520.0595703,0.2921602428,
519.0021973,0.05657381937,519.0021973,0.07338762283,519.0021973,0.0763040781,519.0021973,0.2489542961,519.0021973,0.2562630475,519.0021973,0.2903718054,
517.9445801,0.05628909543,517.9445801,0.07331308722,517.9445801,0.07614969462,517.9445801,0.2470793575,517.9445801,0.2542372048,517.9445801,0.2882103622,
517.0378418,0.05611302704,517.0378418,0.07318052649,517.0378418,0.076132074,517.0378418,0.2453795224,517.0378418,0.2527940571,517.0378418,0.2863487005,
515.9797974,0.05593723804,515.9797974,0.07306369394,515.9797974,0.07553485036,515.9797974,0.2432604134,515.9797974,0.250777483,515.9797974,0.2843529582,
515.0726929,0.05555236712,515.0726929,0.07283070683,515.0726929,0.07526269555,515.0726929,0.2415608466,515.0726929,0.2489880919,515.0726929,0.2823153436,
514.0141602,0.05529585481,514.0141602,0.07244699448,514.0141602,0.07458237559,514.0141602,0.2389275879,514.0141602,0.2465760112,514.0141602,0.2796791792,
512.9553833,0.05517750233,512.9553833,0.07213489711,512.9553833,0.07403546572,512.9553833,0.2363206893,512.9553833,0.2440302968,512.9553833,0.2768729925,
512.0476685,0.0550882481,512.0476685,0.0719576031,512.0476685,0.07373869419,512.0476685,0.2339930534,512.0476685,0.2418288738,512.0476685,0.2743665278,
510.9884644,0.05464611202,510.9884644,0.07167448848,510.9884644,0.07336362451,510.9884644,0.2312772721,510.9884644,0.2390907407,510.9884644,0.2710892558,
509.9289856,0.05433078483,509.9289856,0.07138579339,509.9289856,0.07276213914,509.9289856,0.2287122458,509.9289856,0.2362997234,509.9289856,0.2683048546,
509.0206909,0.05411123484,509.0206909,0.07127279788,509.0206909,0.0724542439,509.0206909,0.2267062515,509.0206909,0.2344675511,509.0206909,0.2657525837,
507.9607849,0.0538098067,507.9607849,0.07098217309,507.9607849,0.07216952741,507.9607849,0.2238396108,507.9607849,0.2311103344,507.9607849,0.2621147335,
507.0520935,0.05360117927,507.0520935,0.07078125328,507.0520935,0.07145439088,507.0520935,0.2209628224,507.0520935,0.2284754515,507.0520935,0.2589193881,
505.9917603,0.05299955606,505.9917603,0.07033652067,505.9917603,0.07088601589,505.9917603,0.2180283368,505.9917603,0.2253182083,505.9917603,0.2556150556,
504.9311523,0.05293793976,504.9311523,0.07026281208,504.9311523,0.07055962086,504.9311523,0.2149699777,504.9311523,0.2221356481,504.9311523,0.2521745265,
504.0218811,0.05271236598,504.0218811,0.06995568424,504.0218811,0.07016343623,504.0218811,0.2129961848,504.0218811,0.2200258374,504.0218811,0.2498214692,
502.9608765,0.05254688859,502.9608765,0.06949362904,502.9608765,0.06944821775,502.9608765,0.2103855461,502.9608765,0.2171251327,502.9608765,0.2463795245,
502.0512085,0.05206160247,502.0512085,0.0692968294,502.0512085,0.06904172152,502.0512085,0.2072059214,502.0512085,0.2144238055,502.0512085,0.2427292764,
500.9897461,0.0517235361,500.9897461,0.06896613538,500.9897461,0.06843285263,500.9897461,0.2046347409,500.9897461,0.2113181651,500.9897461,0.2393561751,
499.9280396,0.05136699602,499.9280396,0.06866959482,499.9280396,0.06784775108,499.9280396,0.2014799118,499.9280396,0.2084306329,499.9280396,0.23614721,
499.0177917,0.05116844922,499.0177917,0.06856736541,499.0177917,0.06760026515,499.0177917,0.1997181028,499.0177917,0.2062865943,499.0177917,0.2335395515,
497.955658,0.0507199578,497.955658,0.06812849641,497.955658,0.06675701588,497.955658,0.1968802363,497.955658,0.2031345367,497.955658,0.2301996797,
497.0450439,0.05057643726,497.0450439,0.06782626361,497.0450439,0.06678780913,497.0450439,0.1947309226,497.0450439,0.2009080648,497.0450439,0.2274748832,
495.9824829,0.0506295152,495.9824829,0.06775448471,495.9824829,0.06655982137,495.9824829,0.1922000051,495.9824829,0.1983778328,495.9824829,0.2244932055,
495.0715027,0.05018724874,495.0715027,0.0676407367,495.0715027,0.06609253585,495.0715027,0.1897642612,495.0715027,0.1960741132,495.0715027,0.2217243612,
494.0084839,0.04969135299,494.0084839,0.0672865808,494.0084839,0.0651633814,494.0084839,0.1874274164,494.0084839,0.1934408545,494.0084839,0.2186812609,
492.9452209,0.04957901314,492.9452209,0.06716651469,492.9452209,0.06422357261,492.9452209,0.1853137463,492.9452209,0.1911199987,492.9452209,0.215860635,
492.0336914,0.04950882867,492.0336914,0.06685175747,492.0336914,0.06459563226,492.0336914,0.1837969422,492.0336914,0.1893709004,492.0336914,0.2139373124,
490.9700012,0.04935506731,490.9700012,0.06659696251,490.9700012,0.06449117512,490.9700012,0.1817879975,490.9700012,0.1868821234,490.9700012,0.2113644034,
490.058075,0.04907505959,490.058075,0.06632404774,490.058075,0.0636851415,490.058075,0.1797933578,490.058075,0.1850671619,490.058075,0.2089666426,
488.9939575,0.04882388189,488.9939575,0.06619427353,488.9939575,0.06292215735,488.9939575,0.1776534617,488.9939575,0.1828659922,488.9939575,0.2063558996,
487.9296265,0.04856839031,487.9296265,0.06603873521,487.9296265,0.06311067194,487.9296265,0.1758913249,487.9296265,0.180826962,487.9296265,0.2042416483,
487.0171509,0.04839267582,487.0171509,0.06591356546,487.0171509,0.06298472732,487.0171509,0.1744813174,487.0171509,0.1795016676,487.0171509,0.2024289668,
485.9523621,0.04836585373,485.9523621,0.06571687013,485.9523621,0.06244397163,485.9523621,0.1727801859,485.9523621,0.1773877293,485.9523621,0.2006341368,
485.0395203,0.04813127965,485.0395203,0.06540953368,485.0395203,0.06103178114,485.0395203,0.1710333228,485.0395203,0.17584005,485.0395203,0.1983754188,
483.9743347,0.0480174087,483.9743347,0.06529092044,483.9743347,0.06190704927,483.9743347,0.1695371866,483.9743347,0.1739285886,483.9743347,0.196558848,
483.0611267,0.04823656008,483.0611267,0.06524273008,483.0611267,0.06247529387,483.0611267,0.168566376,483.0611267,0.1728352159,483.0611267,0.1953403056,
481.9954834,0.0479856059,481.9954834,0.06525987387,481.9954834,0.0622176528,481.9954834,0.167365104,481.9954834,0.1714509875,481.9954834,0.1937455386,
480.929657,0.0475984402,480.929657,0.06486935914,480.929657,0.06187747046,480.929657,0.1657897085,480.929657,0.1697273999,480.929657,0.1919035763,
480.0158691,0.04769454896,480.0158691,0.06514196843,480.0158691,0.06182272732,480.0158691,0.1653240174,480.0158691,0.1690741181,480.0158691,0.1909993589,
478.9496155,0.04712788016,478.9496155,0.06476249546,478.9496155,0.06121754274,478.9496155,0.1638534367,478.9496155,0.1671541184,478.9496155,0.1893377155,
478.0354919,0.0471576862,478.0354919,0.0643831417,478.0354919,0.06123056635,478.0354919,0.1627326012,478.0354919,0.1661862284,478.0354919,0.1879796833,
476.9687805,0.04728813097,476.9687805,0.06457034498,476.9687805,0.06121477112,476.9687805,0.1619187444,476.9687805,0.1650761813,476.9687805,0.1865573078,
476.0542908,0.04719118774,476.0542908,0.06467206031,476.0542908,0.0609039627,476.0542908,0.1611661464,476.0542908,0.1646229327,476.0542908,0.1858084202,
474.9871826,0.04713137075,474.9871826,0.06455755234,474.9871826,0.06061816961,474.9871826,0.1604776829,474.9871826,0.1637316644,474.9871826,0.1848061234,
474.0723572,0.04702312499,474.0723572,0.06435438246,474.0723572,0.06068309024,474.0723572,0.1595514417,474.0723572,0.1622929275,474.0723572,0.1837329566,
473.0048218,0.04696566984,473.0048218,0.06428008527,473.0048218,0.06061632559,473.0048218,0.1589122266,473.0048218,0.1616302133,473.0048218,0.1828421354,
471.9370728,0.04683644697,471.9370728,0.06442001462,471.9370728,0.06052383035,471.9370728,0.158327058,471.9370728,0.1608701646,471.9370728,0.1819697618,
471.0216675,0.04651100561,471.0216675,0.06404846162,471.0216675,0.06017715111,471.0216675,0.1573897004,471.0216675,0.1598185897,471.0216675,0.181012243,
469.9535217,0.04655235261,469.9535217,0.06411299855,469.9535217,0.06024090573,469.9535217,0.1570547223,469.9535217,0.1594368219,469.9535217,0.1805511266,
469.0377808,0.04628857598,469.0377808,0.06399167329,469.0377808,0.05972894654,469.0377808,0.1562876254,469.0377808,0.1586671174,469.0377808,0.1796327531,
467.9692078,0.0465137139,467.9692078,0.06414435059,467.9692078,0.0599777773,467.9692078,0.1562472731,467.9692078,0.1583143175,467.9692078,0.1791958213,
467.0531006,0.04645159841,467.0531006,0.06404405087,467.0531006,0.05990021676,467.0531006,0.1557681262,467.0531006,0.1575953811,467.0531006,0.1782362014,
465.9841309,0.04632993042,465.9841309,0.06410318613,465.9841309,0.0597749576,465.9841309,0.1552497149,465.9841309,0.1572603583,465.9841309,0.1780890077,
465.067688,0.04618949443,465.067688,0.06403832138,465.067688,0.05956953391,465.067688,0.154865697,465.067688,0.1566837281,465.067688,0.1776020676,
463.998291,0.04636529833,463.998291,0.06407357007,463.998291,0.05994978175,463.998291,0.1546518654,463.998291,0.1563311517,463.998291,0.1772765666,
462.9286804,0.04639646411,462.9286804,0.06402368098,462.9286804,0.05983642489,462.9286804,0.1540543586,462.9286804,0.1559573561,462.9286804,0.1765164435,
462.0116882,0.04623731971,462.0116882,0.06373265386,462.0116882,0.0593604371,462.0116882,0.1537980437,462.0116882,0.1553890854,462.0116882,0.1761297733,
460.9416809,0.04629393294,460.9416809,0.06394095719,460.9416809,0.05902532861,460.9416809,0.1535997093,460.9416809,0.1550538391,460.9416809,0.1758059412,
460.024353,0.04633070901,460.024353,0.06376946718,460.024353,0.05918596685,460.024353,0.1532896012,460.024353,0.1548626274,460.024353,0.1754773706,
458.9539185,0.04621278867,458.9539185,0.06364521384,458.9539185,0.05928823724,458.9539185,0.1530592889,458.9539185,0.1544788629,458.9539185,0.1750909984,
458.0362549,0.04600435123,458.0362549,0.06369464099,458.0362549,0.05931236222,458.0362549,0.1529011279,458.0362549,0.1541191489,458.0362549,0.1746878624,
456.9654236,0.04586468264,456.9654236,0.06367746741,456.9654236,0.05915606767,456.9654236,0.1526753157,456.9654236,0.1539246887,456.9654236,0.1744088978,
456.0473938,0.04606099054,456.0473938,0.06366979331,456.0473938,0.05927835777,456.0473938,0.1526559293,456.0473938,0.1538234949,456.0473938,0.1744321883,
454.9761658,0.04628198221,454.9761658,0.06382160634,454.9761658,0.05934479833,454.9761658,0.1527056992,454.9761658,0.1539190859,454.9761658,0.1742421091,
454.0578308,0.04623553529,454.0578308,0.06385263801,454.0578308,0.05907705054,454.0578308,0.1525036544,454.0578308,0.1536999643,454.0578308,0.1740008444,
452.9862061,0.04613666609,452.9862061,0.06375411898,452.9862061,0.05937844887,452.9862061,0.152321279,452.9862061,0.1532824636,452.9862061,0.1737543344,
452.0675049,0.04615667462,452.0675049,0.06361806393,452.0675049,0.05933334306,452.0675049,0.1522564292,452.0675049,0.1532437801,452.0675049,0.173645243,
450.9954834,0.04620049149,450.9954834,0.06382529438,450.9954834,0.05936824158,450.9954834,0.1521339417,450.9954834,0.1532193124,450.9954834,0.1736058295,
450.076416,0.04602046683,450.076416,0.06366919726,450.076416,0.05898559466,450.076416,0.1519593,450.076416,0.1529950351,450.076416,0.1733026356,
449.0040283,0.0460938625,449.0040283,0.06362969428,449.0040283,0.05907117948,449.0040283,0.1519702375,449.0040283,0.1530147642,449.0040283,0.1734382957,
447.9313965,0.04584955052,447.9313965,0.06366226822,447.9313965,0.0588673912,447.9313965,0.1517002434,447.9313965,0.1527386308,447.9313965,0.1731869876,
447.0118408,0.04610540345,447.0118408,0.06373891979,447.0118408,0.05886202306,447.0118408,0.1519542933,447.0118408,0.1528992057,447.0118408,0.1731157899,
445.9388123,0.0458227098,445.9388123,0.06387192011,445.9388123,0.05903876573,445.9388123,0.1519520581,445.9388123,0.1528190076,445.9388123,0.1732142866,
445.0189209,0.04597672448,445.0189209,0.06369844824,445.0189209,0.05903324857,445.0189209,0.151993081,445.0189209,0.152717486,445.0189209,0.1729661077,
443.9454956,0.04593008012,443.9454956,0.06365124136,443.9454956,0.05877458677,443.9454956,0.152012527,443.9454956,0.1527942717,443.9454956,0.1729382426,
443.0252686,0.04609452561,443.0252686,0.06375426799,443.0252686,0.05902019888,443.0252686,0.1522130966,443.0252686,0.1529245377,443.0252686,0.1731868982,
441.9514771,0.04565287754,441.9514771,0.06360094994,441.9514771,0.05867993459,441.9514771,0.1520410627,441.9514771,0.1527371705,441.9514771,0.1730950475,
441.0309143,0.04587458074,441.0309143,0.06370887905,441.0309143,0.05892270803,441.0309143,0.1521287262,441.0309143,0.1529400647,441.0309143,0.1732410192,
439.9567261,0.04608833417,439.9567261,0.06389605999,439.9567261,0.059283223,439.9567261,0.152136147,439.9567261,0.1530151367,439.9567261,0.1733931452,
439.0358276,0.0458914116,439.0358276,0.06382991374,439.0358276,0.05924103037,439.0358276,0.1525962204,439.0358276,0.1530961096,439.0358276,0.1732763946,
437.9612732,0.04596826434,437.9612732,0.06398132443,437.9612732,0.05906637385,437.9612732,0.1525120735,437.9612732,0.1530728787,437.9612732,0.1733080298,
437.0400391,0.04596107081,437.0400391,0.06399062276,437.0400391,0.05901601911,437.0400391,0.152578786,437.0400391,0.1533064842,437.0400391,0.1736524254,
435.9650879,0.04600823671,435.9650879,0.06406055391,435.9650879,0.05921183899,435.9650879,0.152760759,435.9650879,0.1534685194,435.9650879,0.173664391,
435.0435181,0.04586730152,435.0435181,0.06402809173,435.0435181,0.05907633901,435.0435181,0.1530135572,435.0435181,0.15346542,435.0435181,0.1737985611,
433.9682007,0.04609141499,433.9682007,0.0639693588,433.9682007,0.05920670554,433.9682007,0.153065294,433.9682007,0.1536247879,433.9682007,0.1739664078,
433.0463257,0.04602777958,433.0463257,0.06404332817,433.0463257,0.0592626296,433.0463257,0.1530532837,433.0463257,0.1537996978,433.0463257,0.1742256433,
431.9706116,0.04604611173,431.9706116,0.06408388913,431.9706116,0.0589793101,431.9706116,0.1530421972,431.9706116,0.1536304206,431.9706116,0.1741701663,
431.0484009,0.04570095986,431.0484009,0.06395394355,431.0484009,0.05928725749,431.0484009,0.1534226984,431.0484009,0.1538954377,431.0484009,0.1742943525,
429.97229,0.04583591595,429.97229,0.06412529945,429.97229,0.0590912886,429.97229,0.1535782516,429.97229,0.1539959759,429.97229,0.1745102108,
429.0497742,0.04599600658,429.0497742,0.06415455043,429.0497742,0.05932803079,429.0497742,0.1537813991,429.0497742,0.1542271674,429.0497742,0.1747223586,
427.9732971,0.04600699991,427.9732971,0.0641598925,427.9732971,0.05919857696,427.9732971,0.153918311,427.9732971,0.1545099765,427.9732971,0.1748373359,
427.0504456,0.04614913091,427.0504456,0.0643389225,427.0504456,0.05938548595,427.0504456,0.154111132,427.0504456,0.1545668691,427.0504456,0.1751451194,
425.9736023,0.04583927989,425.9736023,0.06415008008,425.9736023,0.05915440619,425.9736023,0.1540000737,425.9736023,0.1545390487,425.9736023,0.1748220026,
425.0504456,0.04598849639,425.0504456,0.06428098679,425.0504456,0.05916873366,425.0504456,0.1544598788,425.0504456,0.1547747701,425.0504456,0.1754514277,
423.9732056,0.04619793221,423.9732056,0.06430464238,423.9732056,0.059477292,423.9732056,0.1547119021,423.9732056,0.1551083624,423.9732056,0.175632149,
423.0497131,0.04591008276,423.0497131,0.06433033943,423.0497131,0.05935343355,423.0497131,0.1548059434,423.0497131,0.1551851034,423.0497131,0.1759046763,
421.9721375,0.04604383931,421.9721375,0.06434886158,421.9721375,0.05922601745,421.9721375,0.154955104,421.9721375,0.1555060446,421.9721375,0.1760704666,
421.0483398,0.04613159969,421.0483398,0.06436179578,421.0483398,0.05976162106,421.0483398,0.1553242207,421.0483398,0.1556907296,421.0483398,0.1764019132,
419.9703674,0.04619557038,419.9703674,0.06431217492,419.9703674,0.05973209441,419.9703674,0.1554175913,419.9703674,0.1561019272,419.9703674,0.1765621454,
419.0462341,0.04613243416,419.0462341,0.06443940848,419.0462341,0.05973889679,419.0462341,0.1557953209,419.0462341,0.1560861319,419.0462341,0.17691423,
417.967926,0.04594927281,417.967926,0.06441052258,417.967926,0.05988194421,417.967926,0.156073153,417.967926,0.1566230506,417.967926,0.1772482246,
417.0434875,0.04613491148,417.0434875,0.06437890977,417.0434875,0.05979245529,417.0434875,0.1560856402,417.0434875,0.1567339301,417.0434875,0.1774185449,
415.9647827,0.04623176157,415.9647827,0.06454189867,415.9647827,0.05981161818,415.9647827,0.1566438079,415.9647827,0.1570155472,415.9647827,0.1778750122,
415.0400391,0.04600176215,415.0400391,0.06453667581,415.0400391,0.06013222784,415.0400391,0.1568610668,415.0400391,0.1572581679,415.0400391,0.178055495,
413.960968,0.04598780349,413.960968,0.06480111182,413.960968,0.06018666551,413.960968,0.1572546363,413.960968,0.1577457786,413.960968,0.178647995,
413.0359192,0.04621727765,413.0359192,0.06450922787,413.0359192,0.05991364643,413.0359192,0.1570843011,413.0359192,0.1576762497,413.0359192,0.1786396801,
411.9564819,0.04615894705,411.9564819,0.06458992511,411.9564819,0.05966984481,411.9564819,0.1574942172,411.9564819,0.1578485966,411.9564819,0.1788846403,
411.0311279,0.04634300619,411.0311279,0.06441800296,411.0311279,0.06006908417,411.0311279,0.1578395516,411.0311279,0.1584313214,411.0311279,0.1794444621,
409.9513245,0.04614783823,409.9513245,0.06441508979,409.9513245,0.06005377695,409.9513245,0.1581554115,409.9513245,0.1585452408,409.9513245,0.1796010435,
409.0256653,0.04619957134,409.0256653,0.06456793845,409.0256653,0.05998556316,409.0256653,0.1584840417,409.0256653,0.158854425,409.0256653,0.18002671,
407.9455261,0.04633376002,407.9455261,0.06451538205,407.9455261,0.05989528447,407.9455261,0.1589550376,407.9455261,0.1591376364,407.9455261,0.1804693788,
407.0195313,0.04627005756,407.0195313,0.06462020427,407.0195313,0.06013968959,407.0195313,0.159068048,407.0195313,0.1594412327,407.0195313,0.1806124449,
405.9390259,0.04649576545,405.9390259,0.06502570957,405.9390259,0.06016505137,405.9390259,0.1597052068,405.9390259,0.16001679,405.9390259,0.1812318712,
405.0127258,0.04624745622,405.0127258,0.06478454918,405.0127258,0.05993228033,405.0127258,0.1596226096,405.0127258,0.1602036953,405.0127258,0.1815878004,
403.9318848,0.04637166485,403.9318848,0.06468085945,403.9318848,0.06037016213,403.9318848,0.1601696312,403.9318848,0.1604379416,403.9318848,0.1818348914,
403.0052795,0.04640205204,403.0052795,0.06479720026,403.0052795,0.06068758294,403.0052795,0.1604444683,403.0052795,0.1607822925,403.0052795,0.1823516935,
401.9240723,0.04653480649,401.9240723,0.0649074167,401.9240723,0.06061909348,401.9240723,0.1609974653,401.9240723,0.1613525748,401.9240723,0.1828427762,
400.9971619,0.04642734304,400.9971619,0.0648971349,400.9971619,0.06066234037,400.9971619,0.1612869203,400.9971619,0.1615307033,400.9971619,0.1831472069,
400.0701294,0.04659955576,400.0701294,0.06508585066,400.0701294,0.06060992554,400.0701294,0.1615668982,400.0701294,0.161889255,400.0701294,0.1835804731,

DD_1 100x 48hr,
DD_1 100x 48hr
Collection Time: 10/6/2015 2:00:51 PM
Operator Name  :
Scan Version 5.0.0.999
Parameter List :
Instrument  Cary 50
Instrument Version  3.00
Start (nm)  700.0
Stop (nm)  400.0
X Mode  Nanometers
Y Mode  Abs
UV-Vis Scan Rate (nm/min)  600.000
UV-Vis Data Interval (nm)  1.00
UV-Vis Ave. Time (sec)  0.1000
Beam Mode  Dual Beam
Baseline Correction  On
Baseline Type  Baseline correction
Baseline File Name
Baseline Std Ref File Name
Cycle Mode  Off
Method Log     :
Method Name    : C:\Users\heatherweltner\Documents\Au Standard.MSW
Date/Time stamp: 7/3/2015 11:24:50 AM
Method Modifications:
UVVIS SAT Changed: 7/1/2015 11:30:22 AM, Old:0.0125, New:0.1000
Common SAT Changed: 7/1/2015 11:30:22 AM, Old:0.0125, New:0.1000
X Start nm Changed: 7/1/2015 11:30:31 AM, Old:  800.0, New:  700.0
X Stop nm Changed: 7/1/2015 11:30:31 AM, Old:  200.0, New:  300.0
Common Interval nm Changed: 7/1/2015 11:30:31 AM, Old:     5.00, New:     1.00
Baseline Correction Changed: 7/1/2015 11:30:31 AM, Old:0, New:1
Saved as C:\Users\heatherweltner\Documents\Au Standard.MSWOpened C:\Users\heatherweltner\Documents\Au Standard.MSW
X Stop nm Changed: 7/3/2015 11:24:45 AM, Old:  300.0, New:  400.0
Saved as C:\Users\heatherweltner\Documents\Au Standard.MSW
Opened C:\Users\heatherweltner\Documents\Au Standard.MSW
End Method Modifications
<Current Wavelength> , 401.0

DD_1 30x 48hr,
DD_1 30x 48hr
Collection Time: 10/6/2015 2:02:37 PM
Operator Name  :
Scan Version 5.0.0.999
Parameter List :
Instrument  Cary 50
Instrument Version  3.00
Start (nm)  700.0
Stop (nm)  400.0
X Mode  Nanometers
Y Mode  Abs
UV-Vis Scan Rate (nm/min)  600.000
UV-Vis Data Interval (nm)  1.00
UV-Vis Ave. Time (sec)  0.1000
Beam Mode  Dual Beam
Baseline Correction  On
Baseline Type  Baseline correction
Baseline File Name
Baseline Std Ref File Name
Cycle Mode  Off
Method Log     :
Method Name    : C:\Users\heatherweltner\Documents\Au Standard.MSW
Date/Time stamp: 7/3/2015 11:24:50 AM
Method Modifications:
UVVIS SAT Changed: 7/1/2015 11:30:22 AM, Old:0.0125, New:0.1000
Common SAT Changed: 7/1/2015 11:30:22 AM, Old:0.0125, New:0.1000
X Start nm Changed: 7/1/2015 11:30:31 AM, Old:  800.0, New:  700.0
X Stop nm Changed: 7/1/2015 11:30:31 AM, Old:  200.0, New:  300.0
Common Interval nm Changed: 7/1/2015 11:30:31 AM, Old:     5.00, New:     1.00
Baseline Correction Changed: 7/1/2015 11:30:31 AM, Old:0, New:1
Saved as C:\Users\heatherweltner\Documents\Au Standard.MSWOpened C:\Users\heatherweltner\Documents\Au Standard.MSW
X Stop nm Changed: 7/3/2015 11:24:45 AM, Old:  300.0, New:  400.0
Saved as C:\Users\heatherweltner\Documents\Au Standard.MSW
Opened C:\Users\heatherweltner\Documents\Au Standard.MSW
End Method Modifications
<Current Wavelength> , 401.0

DD_1 10x 48hr,
DD_1 10x 48hr
Collection Time: 10/6/2015 2:03:52 PM
Operator Name  :
Scan Version 5.0.0.999
Parameter List :
Instrument  Cary 50
Instrument Version  3.00
Start (nm)  700.0
Stop (nm)  400.0
X Mode  Nanometers
Y Mode  Abs
UV-Vis Scan Rate (nm/min)  600.000
UV-Vis Data Interval (nm)  1.00
UV-Vis Ave. Time (sec)  0.1000
Beam Mode  Dual Beam
Baseline Correction  On
Baseline Type  Baseline correction
Baseline File Name
Baseline Std Ref File Name
Cycle Mode  Off
Method Log     :
Method Name    : C:\Users\heatherweltner\Documents\Au Standard.MSW
Date/Time stamp: 7/3/2015 11:24:50 AM
Method Modifications:
UVVIS SAT Changed: 7/1/2015 11:30:22 AM, Old:0.0125, New:0.1000
Common SAT Changed: 7/1/2015 11:30:22 AM, Old:0.0125, New:0.1000
X Start nm Changed: 7/1/2015 11:30:31 AM, Old:  800.0, New:  700.0
X Stop nm Changed: 7/1/2015 11:30:31 AM, Old:  200.0, New:  300.0
Common Interval nm Changed: 7/1/2015 11:30:31 AM, Old:     5.00, New:     1.00
Baseline Correction Changed: 7/1/2015 11:30:31 AM, Old:0, New:1
Saved as C:\Users\heatherweltner\Documents\Au Standard.MSWOpened C:\Users\heatherweltner\Documents\Au Standard.MSW
X Stop nm Changed: 7/3/2015 11:24:45 AM, Old:  300.0, New:  400.0
Saved as C:\Users\heatherweltner\Documents\Au Standard.MSW
Opened C:\Users\heatherweltner\Documents\Au Standard.MSW
End Method Modifications
<Current Wavelength> , 401.0

DD_1 3x 48hr,
DD_1 3x 48hr
Collection Time: 10/6/2015 2:05:07 PM
Operator Name  :
Scan Version 5.0.0.999
Parameter List :
Instrument  Cary 50
Instrument Version  3.00
Start (nm)  700.0
Stop (nm)  400.0
X Mode  Nanometers
Y Mode  Abs
UV-Vis Scan Rate (nm/min)  600.000
UV-Vis Data Interval (nm)  1.00
UV-Vis Ave. Time (sec)  0.1000
Beam Mode  Dual Beam
Baseline Correction  On
Baseline Type  Baseline correction
Baseline File Name
Baseline Std Ref File Name
Cycle Mode  Off
Method Log     :
Method Name    : C:\Users\heatherweltner\Documents\Au Standard.MSW
Date/Time stamp: 7/3/2015 11:24:50 AM
Method Modifications:
UVVIS SAT Changed: 7/1/2015 11:30:22 AM, Old:0.0125, New:0.1000
Common SAT Changed: 7/1/2015 11:30:22 AM, Old:0.0125, New:0.1000
X Start nm Changed: 7/1/2015 11:30:31 AM, Old:  800.0, New:  700.0
X Stop nm Changed: 7/1/2015 11:30:31 AM, Old:  200.0, New:  300.0
Common Interval nm Changed: 7/1/2015 11:30:31 AM, Old:     5.00, New:     1.00
Baseline Correction Changed: 7/1/2015 11:30:31 AM, Old:0, New:1
Saved as C:\Users\heatherweltner\Documents\Au Standard.MSWOpened C:\Users\heatherweltner\Documents\Au Standard.MSW
X Stop nm Changed: 7/3/2015 11:24:45 AM, Old:  300.0, New:  400.0
Saved as C:\Users\heatherweltner\Documents\Au Standard.MSW
Opened C:\Users\heatherweltner\Documents\Au Standard.MSW
End Method Modifications
<Current Wavelength> , 401.0

DD_1 1x 48hr,
DD_1 1x 48hr
Collection Time: 10/6/2015 2:05:57 PM
Operator Name  :
Scan Version 5.0.0.999
Parameter List :
Instrument  Cary 50
Instrument Version  3.00
Start (nm)  700.0
Stop (nm)  400.0
X Mode  Nanometers
Y Mode  Abs
UV-Vis Scan Rate (nm/min)  600.000
UV-Vis Data Interval (nm)  1.00
UV-Vis Ave. Time (sec)  0.1000
Beam Mode  Dual Beam
Baseline Correction  On
Baseline Type  Baseline correction
Baseline File Name
Baseline Std Ref File Name
Cycle Mode  Off
Method Log     :
Method Name    : C:\Users\heatherweltner\Documents\Au Standard.MSW
Date/Time stamp: 7/3/2015 11:24:50 AM
Method Modifications:
UVVIS SAT Changed: 7/1/2015 11:30:22 AM, Old:0.0125, New:0.1000
Common SAT Changed: 7/1/2015 11:30:22 AM, Old:0.0125, New:0.1000
X Start nm Changed: 7/1/2015 11:30:31 AM, Old:  800.0, New:  700.0
X Stop nm Changed: 7/1/2015 11:30:31 AM, Old:  200.0, New:  300.0
Common Interval nm Changed: 7/1/2015 11:30:31 AM, Old:     5.00, New:     1.00
Baseline Correction Changed: 7/1/2015 11:30:31 AM, Old:0, New:1
Saved as C:\Users\heatherweltner\Documents\Au Standard.MSWOpened C:\Users\heatherweltner\Documents\Au Standard.MSW
X Stop nm Changed: 7/3/2015 11:24:45 AM, Old:  300.0, New:  400.0
Saved as C:\Users\heatherweltner\Documents\Au Standard.MSW
Opened C:\Users\heatherweltner\Documents\Au Standard.MSW
End Method Modifications
<Current Wavelength> , 401.0

DD_1 0x 48hr,
DD_1 0x 48hr
Collection Time: 10/6/2015 2:06:53 PM
Operator Name  :
Scan Version 5.0.0.999
Parameter List :
Instrument  Cary 50
Instrument Version  3.00
Start (nm)  700.0
Stop (nm)  400.0
X Mode  Nanometers
Y Mode  Abs
UV-Vis Scan Rate (nm/min)  600.000
UV-Vis Data Interval (nm)  1.00
UV-Vis Ave. Time (sec)  0.1000
Beam Mode  Dual Beam
Baseline Correction  On
Baseline Type  Baseline correction
Baseline File Name
Baseline Std Ref File Name
Cycle Mode  Off
Method Log     :
Method Name    : C:\Users\heatherweltner\Documents\Au Standard.MSW
Date/Time stamp: 7/3/2015 11:24:50 AM
Method Modifications:
UVVIS SAT Changed: 7/1/2015 11:30:22 AM, Old:0.0125, New:0.1000
Common SAT Changed: 7/1/2015 11:30:22 AM, Old:0.0125, New:0.1000
X Start nm Changed: 7/1/2015 11:30:31 AM, Old:  800.0, New:  700.0
X Stop nm Changed: 7/1/2015 11:30:31 AM, Old:  200.0, New:  300.0
Common Interval nm Changed: 7/1/2015 11:30:31 AM, Old:     5.00, New:     1.00
Baseline Correction Changed: 7/1/2015 11:30:31 AM, Old:0, New:1
Saved as C:\Users\heatherweltner\Documents\Au Standard.MSWOpened C:\Users\heatherweltner\Documents\Au Standard.MSW
X Stop nm Changed: 7/3/2015 11:24:45 AM, Old:  300.0, New:  400.0
Saved as C:\Users\heatherweltner\Documents\Au Standard.MSW
Opened C:\Users\heatherweltner\Documents\Au Standard.MSW
End Method Modifications
<Current Wavelength> , 401.0

