DD_2 100x 48hr,,DD_2 30x 48hr,,DD_2 10x 48hr,,DD_2 3x 48hr,,DD_2 1x 48hr,,DD_2 0x 48hr,,
Wavelength (nm),Abs,Wavelength (nm),Abs,Wavelength (nm),Abs,Wavelength (nm),Abs,Wavelength (nm),Abs,Wavelength (nm),Abs,
700.0142822,0.05626475438,700.0142822,0.06606064737,700.0142822,0.02621175908,700.0142822,0.04112882167,700.0142822,0.02728351578,700.0142822,0.02306150831,
699.0070801,0.05596256256,699.0070801,0.06618794054,699.0070801,0.0264381133,699.0070801,0.04133000597,699.0070801,0.02756909467,699.0070801,0.02330537327,
697.9995728,0.0562720038,697.9995728,0.06652711332,697.9995728,0.02663535625,697.9995728,0.04111496359,697.9995728,0.02792428061,697.9995728,0.02354729734,
696.9916992,0.05645674095,696.9916992,0.06690308452,696.9916992,0.02657279931,696.9916992,0.04140807688,696.9916992,0.02770242095,696.9916992,0.02379621938,
695.9835205,0.05623269454,695.9835205,0.06635538489,695.9835205,0.0265111886,695.9835205,0.04130668938,695.9835205,0.02789794654,695.9835205,0.02368439734,
694.9750366,0.05609040707,694.9750366,0.06689097732,694.9750366,0.02676690929,694.9750366,0.04151370749,694.9750366,0.02838199399,694.9750366,0.0238589514,
693.9661865,0.05627214909,693.9661865,0.06689756364,693.9661865,0.02663769573,693.9661865,0.0417188853,693.9661865,0.02827492356,693.9661865,0.02399538271,
692.9570313,0.05622898415,692.9570313,0.06710799783,692.9570313,0.02691863477,692.9570313,0.0416732356,692.9570313,0.02860367671,692.9570313,0.02456098981,
691.9475098,0.05586183816,691.9475098,0.06692796946,691.9475098,0.02730760723,691.9475098,0.04186161608,691.9475098,0.02888320759,691.9475098,0.02466054447,
690.9376831,0.05652068555,690.9376831,0.06757047772,690.9376831,0.02741554193,690.9376831,0.04217603058,690.9376831,0.02926898748,690.9376831,0.02496784367,
690.0718384,0.05625659227,690.0718384,0.06739836186,690.0718384,0.02715045586,690.0718384,0.04188906774,690.0718384,0.02904120833,690.0718384,0.02484886721,
689.0614624,0.05668476596,689.0614624,0.06740579754,689.0614624,0.02729908936,689.0614624,0.04243692011,689.0614624,0.02962518111,689.0614624,0.02554740384,
688.0507202,0.05627960339,688.0507202,0.06775276363,688.0507202,0.02737481892,688.0507202,0.04317081347,688.0507202,0.02954714745,688.0507202,0.0257545691,
687.0396118,0.05643763766,687.0396118,0.06789877266,687.0396118,0.02723180875,687.0396118,0.04326326028,687.0396118,0.02980712987,687.0396118,0.02575410157,
686.0281982,0.05633683503,686.0281982,0.06764630228,686.0281982,0.02763468958,686.0281982,0.04327621311,686.0281982,0.03018987551,686.0281982,0.02587665245,
685.0164795,0.05668376386,685.0164795,0.06802991033,685.0164795,0.02767919004,685.0164795,0.04365837201,685.0164795,0.03025650606,685.0164795,0.02628124878,
684.0044556,0.05661828816,684.0044556,0.06801601499,684.0044556,0.02781627513,684.0044556,0.04381245002,684.0044556,0.03061676025,684.0044556,0.02653449401,
682.9920654,0.05649586394,682.9920654,0.06799766421,682.9920654,0.02758145146,682.9920654,0.04395489767,682.9920654,0.03087129816,682.9920654,0.02654398791,
681.9793701,0.05710220337,681.9793701,0.06875276566,681.9793701,0.02836157195,681.9793701,0.04463934526,681.9793701,0.03152228147,681.9793701,0.02739080973,
680.9663696,0.05640320852,680.9663696,0.06836876273,680.9663696,0.02828978747,680.9663696,0.04453438893,680.9663696,0.03142367303,680.9663696,0.02725793794,
679.9530029,0.05626036227,679.9530029,0.06855936348,679.9530029,0.02841988206,679.9530029,0.04493077099,679.9530029,0.0315593034,679.9530029,0.02755033784,
678.9393921,0.05651947856,678.9393921,0.06865170598,678.9393921,0.02794658579,678.9393921,0.04494079202,678.9393921,0.03182447702,678.9393921,0.02756368741,
678.0702515,0.05699991807,678.0702515,0.06911534816,678.0702515,0.02899344265,678.0702515,0.04581641033,678.0702515,0.03235290945,678.0702515,0.02815404348,
677.0560303,0.05635118857,677.0560303,0.06899872422,677.0560303,0.02872144617,677.0560303,0.04568465427,677.0560303,0.03260698915,677.0560303,0.02832462825,
676.0414429,0.05666102469,676.0414429,0.06860674173,676.0414429,0.02884652279,676.0414429,0.04604988173,676.0414429,0.0327472873,676.0414429,0.02871793322,
675.0265503,0.05725808814,675.0265503,0.06947458535,675.0265503,0.02924132533,675.0265503,0.04697659984,675.0265503,0.03357483819,675.0265503,0.02960810997,
674.0113525,0.05733213574,674.0113525,0.06971143186,674.0113525,0.02950314805,674.0113525,0.04723635316,674.0113525,0.03387882933,674.0113525,0.02981724963,
672.9957886,0.05686339736,672.9957886,0.0692794919,672.9957886,0.02909036539,672.9957886,0.0469061695,672.9957886,0.03348169476,672.9957886,0.0297348015,
671.9799805,0.05723091587,671.9799805,0.06973848492,671.9799805,0.02939929254,671.9799805,0.04747087508,671.9799805,0.03464436531,671.9799805,0.03056765348,
670.9638062,0.05783923343,670.9638062,0.06967736781,670.9638062,0.02976288274,670.9638062,0.04836703837,670.9638062,0.03513518348,670.9638062,0.03099866398,
669.9473267,0.05770380422,669.9473267,0.06978201121,669.9473267,0.02940045483,669.9473267,0.04801439866,669.9473267,0.03518635035,669.9473267,0.0309834294,
668.930542,0.05834070593,668.930542,0.07040674984,668.930542,0.03025961481,668.930542,0.04915091395,668.930542,0.0363205038,668.930542,0.03173462674,
668.0587158,0.05775779486,668.0587158,0.07027954608,668.0587158,0.02968751267,668.0587158,0.04887697846,668.0587158,0.03613445908,668.0587158,0.03183302656,
667.0413208,0.05821971595,667.0413208,0.07050883025,667.0413208,0.02990947478,667.0413208,0.04937229306,667.0413208,0.03647847846,667.0413208,0.03258349374,
666.0236206,0.05810452998,666.0236206,0.07033362985,666.0236206,0.03041134402,666.0236206,0.04971994087,666.0236206,0.03714190423,666.0236206,0.03296799958,
665.0056152,0.05885573849,665.0056152,0.0713442713,665.0056152,0.03078303672,665.0056152,0.05048390478,665.0056152,0.03799099103,665.0056152,0.03380987793,
663.9873047,0.05814113468,663.9873047,0.07089219987,663.9873047,0.03029197827,663.9873047,0.0501884371,663.9873047,0.03745850548,663.9873047,0.03380016983,
662.968689,0.05854285508,662.968689,0.07124134898,662.968689,0.03094490059,662.968689,0.0508129485,662.968689,0.03856472299,662.968689,0.03435987234,
661.949707,0.0586623624,661.949707,0.07133752853,661.949707,0.03090353869,661.949707,0.05129401386,661.949707,0.0388985835,661.949707,0.03496538103,
660.9304199,0.05894108862,660.9304199,0.07166402042,660.9304199,0.03119039536,660.9304199,0.05200606957,660.9304199,0.03965825215,660.9304199,0.03540608659,
660.0565186,0.05907358229,660.0565186,0.07149293274,660.0565186,0.03107086942,660.0565186,0.05201601982,660.0565186,0.03998046741,660.0565186,0.03565071896,
659.0366821,0.05908775702,659.0366821,0.07171390951,659.0366821,0.0313397795,659.0366821,0.0525310263,659.0366821,0.04047965631,659.0366821,0.03610129282,
658.0165405,0.05877858773,658.0165405,0.07174593955,658.0165405,0.03143269196,658.0165405,0.05332205072,658.0165405,0.04079801962,658.0165405,0.0368492566,
656.9960938,0.05957995728,656.9960938,0.07218489796,656.9960938,0.03174785525,656.9960938,0.0536127761,656.9960938,0.0414089039,656.9960938,0.03745404631,
655.9752808,0.05982899666,655.9752808,0.07231164724,655.9752808,0.03205084801,655.9752808,0.05429262295,655.9752808,0.04233683273,655.9752808,0.0381103456,
654.9542236,0.05990134552,654.9542236,0.07249361277,654.9542236,0.03202147782,654.9542236,0.0545415543,654.9542236,0.04275106639,654.9542236,0.03863726184,
653.9328003,0.05984798074,653.9328003,0.07284126431,653.9328003,0.03207551315,653.9328003,0.05517547578,653.9328003,0.04327878729,653.9328003,0.03916808218,
653.0570679,0.06014385074,653.0570679,0.07275721431,653.0570679,0.03253154084,653.0570679,0.05524579063,653.0570679,0.0436543934,653.0570679,0.03967393562,
652.0350952,0.06031816825,652.0350952,0.07294655591,652.0350952,0.03266388923,652.0350952,0.05607335269,652.0350952,0.04456401616,652.0350952,0.04043715075,
651.0128174,0.06022448838,651.0128174,0.07285057008,651.0128174,0.03277578577,651.0128174,0.05656582862,651.0128174,0.04499907419,651.0128174,0.04110156,
649.9902344,0.06105478108,649.9902344,0.07371884584,649.9902344,0.03331013396,649.9902344,0.057214614,649.9902344,0.04618039727,649.9902344,0.04145361111,
648.9673462,0.06098152697,648.9673462,0.07336049527,648.9673462,0.03302273899,648.9673462,0.05742693692,648.9673462,0.04645615071,648.9673462,0.04192293435,
647.9441528,0.06055022776,647.9441528,0.07360729575,647.9441528,0.03320840746,647.9441528,0.05808067694,647.9441528,0.04683693498,647.9441528,0.04279948398,
647.0668945,0.06107429788,647.0668945,0.0739319697,647.0668945,0.0334411785,647.0668945,0.05911112949,647.0668945,0.04793331027,647.0668945,0.04361889884,
646.0430908,0.06088856608,646.0430908,0.0737844035,646.0430908,0.03373998404,646.0430908,0.05964665115,646.0430908,0.04831712693,646.0430908,0.04421981052,
645.019043,0.06135505438,645.019043,0.07416751236,645.019043,0.03350249678,645.019043,0.05992244184,645.019043,0.04868521541,645.019043,0.04462224618,
643.9946899,0.06114050373,643.9946899,0.07414712757,643.9946899,0.0336278975,643.9946899,0.06057299301,643.9946899,0.04934059456,643.9946899,0.04518628865,
642.9699707,0.06149007007,642.9699707,0.07443579286,642.9699707,0.03409925103,642.9699707,0.06126582995,642.9699707,0.05041348562,642.9699707,0.0463635698,
641.9450073,0.06169297546,641.9450073,0.07465713471,641.9450073,0.03421364725,641.9450073,0.06188305095,641.9450073,0.05125664175,641.9450073,0.04685397819,
641.0662231,0.06186612695,641.0662231,0.07533799857,641.0662231,0.03446194902,641.0662231,0.06280367821,641.0662231,0.05196665227,641.0662231,0.04780038819,
640.0406494,0.06176444143,640.0406494,0.07489980757,640.0406494,0.03446626663,640.0406494,0.06331643462,640.0406494,0.0528591983,640.0406494,0.0482330583,
639.0148315,0.06207467243,639.0148315,0.07527069747,639.0148315,0.03522742167,639.0148315,0.06427741796,639.0148315,0.05374060199,639.0148315,0.04931237921,
637.9886475,0.06229544804,637.9886475,0.07547075301,637.9886475,0.03519895673,637.9886475,0.06519863009,637.9886475,0.05452236161,637.9886475,0.05021203309,
636.9622192,0.06228391454,636.9622192,0.07550213486,636.9622192,0.03492514789,636.9622192,0.06579918414,636.9622192,0.05521207303,636.9622192,0.05096324161,
635.9354248,0.06235983968,635.9354248,0.07621691376,635.9354248,0.035615623,635.9354248,0.06656250358,635.9354248,0.05648250878,635.9354248,0.05181318149,
635.0551147,0.06257878989,635.0551147,0.07618451864,635.0551147,0.0357154943,635.0551147,0.0672275275,635.0551147,0.05726127699,635.0551147,0.05294439942,
634.027832,0.06280021369,634.027832,0.07651451975,634.027832,0.03602599353,634.027832,0.0681636557,634.027832,0.05775403976,634.027832,0.0534722209,
633.0002441,0.06289286166,633.0002441,0.07637882233,633.0002441,0.03603206947,633.0002441,0.06883147359,633.0002441,0.05900940672,633.0002441,0.05429253355,
631.97229,0.06299918145,631.97229,0.07666748762,631.97229,0.03617885336,631.97229,0.06953971833,631.97229,0.05978054553,631.97229,0.05526407436,
630.9440918,0.06273327023,630.9440918,0.07707627863,630.9440918,0.03656131402,630.9440918,0.07058033347,630.9440918,0.06091134995,630.9440918,0.05650485307,
630.062561,0.06321177632,630.062561,0.07696413994,630.062561,0.03681045771,630.062561,0.07158519328,630.062561,0.06197655201,630.062561,0.05737668276,
629.0338135,0.0632692948,629.0338135,0.07690795511,629.0338135,0.03686991334,629.0338135,0.07240834087,629.0338135,0.06276859343,629.0338135,0.05809914321,
628.0046997,0.06365552545,628.0046997,0.0776071921,628.0046997,0.03729647771,628.0046997,0.07363867015,628.0046997,0.06410228461,628.0046997,0.05961745977,
626.9754028,0.06326214224,626.9754028,0.07785718888,626.9754028,0.03748432547,626.9754028,0.07435277849,626.9754028,0.06513228267,626.9754028,0.06039937586,
625.9457397,0.0636819005,625.9457397,0.07814209908,625.9457397,0.03749304265,625.9457397,0.0756720677,625.9457397,0.06602493674,625.9457397,0.0616299361,
625.0629272,0.06371223927,625.0629272,0.07803213596,625.0629272,0.0378267616,625.0629272,0.07637480646,625.0629272,0.06718401611,625.0629272,0.06254404783,
624.0327148,0.06372383982,624.0327148,0.07789924741,624.0327148,0.03792335838,624.0327148,0.07750936598,624.0327148,0.06799255311,624.0327148,0.06346434355,
623.0022583,0.06426000595,623.0022583,0.07837842405,623.0022583,0.03826862946,623.0022583,0.0786190331,623.0022583,0.06961731613,623.0022583,0.06499913335,
621.9714355,0.06409442425,621.9714355,0.07848441601,621.9714355,0.03855547309,621.9714355,0.07960656285,621.9714355,0.0703708604,621.9714355,0.0659610182,
620.9403687,0.06405869126,620.9403687,0.07880456001,620.9403687,0.03863938525,620.9403687,0.08104690164,620.9403687,0.07226642966,620.9403687,0.06726206839,
620.0563354,0.06408764422,620.0563354,0.07898817956,620.0563354,0.03913329542,620.0563354,0.08157423139,620.0563354,0.07291829586,620.0563354,0.06774728745,
619.0247192,0.06492238492,619.0247192,0.07929316163,619.0247192,0.03953705356,619.0247192,0.08336191624,619.0247192,0.074557513,619.0247192,0.06977386773,
617.9927979,0.06481634825,617.9927979,0.07925370336,617.9927979,0.03979193792,617.9927979,0.08433018625,617.9927979,0.07552058995,617.9927979,0.07094867527,
616.9606323,0.06498277932,616.9606323,0.07981652766,616.9606323,0.03998390213,616.9606323,0.08559978753,616.9606323,0.0773332715,616.9606323,0.07229464501,
615.9281006,0.06488493085,615.9281006,0.07978862524,615.9281006,0.0403926298,615.9281006,0.08744116127,615.9281006,0.07883392274,615.9281006,0.0737798661,
615.0428467,0.06495274603,615.0428467,0.0802795738,615.0428467,0.04081055894,615.0428467,0.08809523284,615.0428467,0.07995971292,615.0428467,0.07515647262,
614.0098267,0.06502486765,614.0098267,0.08008794487,614.0098267,0.04106346145,614.0098267,0.08951235563,614.0098267,0.0814113766,614.0098267,0.07626096904,
612.9765015,0.06530599296,612.9765015,0.08032803982,612.9765015,0.04146699607,612.9765015,0.09092594683,612.9765015,0.08293823898,612.9765015,0.07807585597,
611.9428711,0.06516993791,611.9428711,0.08044338226,611.9428711,0.04163343459,611.9428711,0.09250508249,611.9428711,0.08449804038,611.9428711,0.0796629414,
611.0567017,0.06545073539,611.0567017,0.08065356314,611.0567017,0.04184363037,611.0567017,0.09372258186,611.0567017,0.08573524654,611.0567017,0.0809417814,
610.022522,0.06542244554,610.022522,0.08113729209,610.022522,0.04215089977,610.022522,0.09512972832,610.022522,0.08735948801,610.022522,0.08260864764,
608.9880981,0.06561244279,608.9880981,0.08135268092,608.9880981,0.042636998,608.9880981,0.09681808949,608.9880981,0.08946880698,608.9880981,0.08457477391,
607.9533691,0.06552354246,607.9533691,0.08128525317,607.9533691,0.04293925688,607.9533691,0.09830750525,607.9533691,0.09087922424,607.9533691,0.08584550768,
607.0662231,0.06569708139,607.0662231,0.08149815351,607.0662231,0.04301441833,607.0662231,0.09954586625,607.0662231,0.09207358211,607.0662231,0.08712103963,
606.0309448,0.06618088484,606.0309448,0.08185400069,606.0309448,0.04348254204,606.0309448,0.1012678593,606.0309448,0.09399238229,606.0309448,0.08923187107,
604.9954224,0.06589461118,604.9954224,0.08181546628,604.9954224,0.04357645661,604.9954224,0.1025311872,604.9954224,0.09571430087,604.9954224,0.09066598117,
603.9595947,0.06572967023,603.9595947,0.08217567205,603.9595947,0.04391187802,603.9595947,0.1044193953,603.9595947,0.0977018699,603.9595947,0.09248691797,
603.0714722,0.06588723511,603.0714722,0.08237924427,603.0714722,0.04412486777,603.0714722,0.1058876514,603.0714722,0.09945830703,603.0714722,0.09427984804,
602.0350952,0.06607532501,602.0350952,0.08247554302,602.0350952,0.04449807853,602.0350952,0.107893236,602.0350952,0.1013140753,602.0350952,0.0963871032,
600.9984741,0.06609072536,600.9984741,0.08234910667,600.9984741,0.0446686931,600.9984741,0.1093105078,600.9984741,0.1031022444,600.9984741,0.0981169343,
599.9615479,0.06646852195,599.9615479,0.08265195042,599.9615479,0.04515635595,599.9615479,0.1111286655,599.9615479,0.1049274132,599.9615479,0.1000574678,
599.0725098,0.06644185632,599.0725098,0.08279360086,599.0725098,0.04545643926,599.0725098,0.1125244498,599.0725098,0.1069694161,599.0725098,0.1020989865,
598.0350342,0.06659998,598.0350342,0.0829936415,598.0350342,0.04596708342,598.0350342,0.1148578152,598.0350342,0.1093452349,598.0350342,0.1044568941,
596.9973145,0.06654850394,596.9973145,0.08327962458,596.9973145,0.04630801454,596.9973145,0.1165401265,596.9973145,0.1114659458,596.9973145,0.1063703075,
595.9592896,0.06634965539,595.9592896,0.08316847682,595.9592896,0.04633514211,595.9592896,0.1181874797,595.9592896,0.1134036705,595.9592896,0.108294405,
595.0693359,0.06685821712,595.0693359,0.08370228112,595.0693359,0.04720653966,595.0693359,0.1201482862,595.0693359,0.1154034212,595.0693359,0.1102761254,
594.0307617,0.06652843952,594.0307617,0.08337514848,594.0307617,0.04678772017,594.0307617,0.121418573,594.0307617,0.1171776801,594.0307617,0.1119770855,
592.9919434,0.06677914411,592.9919434,0.08392057568,592.9919434,0.04763729125,592.9919434,0.1239523217,592.9919434,0.119933866,592.9919434,0.1149302945,
591.9528809,0.06718999892,591.9528809,0.0840504542,591.9528809,0.04799959809,591.9528809,0.1262916028,591.9528809,0.1226353422,591.9528809,0.1175957099,
591.0619507,0.06725898385,591.0619507,0.08410964161,591.0619507,0.04834255949,591.0619507,0.128155753,591.0619507,0.1248000413,591.0619507,0.1197552234,
590.0223389,0.0672147125,590.0223389,0.08437548578,590.0223389,0.04863023013,590.0223389,0.1307756603,590.0223389,0.127173841,590.0223389,0.122160241,
588.9824219,0.06759966165,588.9824219,0.08474187553,588.9824219,0.04919544235,588.9824219,0.1329593062,588.9824219,0.1300911903,588.9824219,0.1250179559,
587.9422607,0.06741680205,587.9422607,0.08470443636,587.9422607,0.04931176826,587.9422607,0.1350259036,587.9422607,0.1322319955,587.9422607,0.1272990704,
587.0504761,0.06789002568,587.0504761,0.084917292,587.0504761,0.04995546117,587.0504761,0.1368175447,587.0504761,0.1348336786,587.0504761,0.1295640469,
586.0097656,0.06763003021,586.0097656,0.08501861989,586.0097656,0.04995380715,586.0097656,0.1391230673,586.0097656,0.1374765337,586.0097656,0.1322376877,
584.968811,0.06781452149,584.968811,0.08520281315,584.968811,0.05026841164,584.968811,0.1418352276,584.968811,0.1403298527,584.968811,0.1356553435,
583.9275513,0.06761623919,583.9275513,0.08518340439,583.9275513,0.050855726,583.9275513,0.1439585537,583.9275513,0.1427984089,583.9275513,0.1382593662,
583.03479,0.06784602255,583.03479,0.08522041887,583.03479,0.05126975104,583.03479,0.1465750635,583.03479,0.1455981135,583.03479,0.1407601833,
581.993042,0.06808046997,581.993042,0.08526208997,581.993042,0.05183178931,581.993042,0.1486289501,581.993042,0.1482181698,581.993042,0.1434841603,
580.9510498,0.06806696951,580.9510498,0.08556949347,580.9510498,0.05164064094,580.9510498,0.1510578394,580.9510498,0.1511049122,580.9510498,0.1460606903,
580.0576172,0.06817425787,580.0576172,0.08577195555,580.0576172,0.05218479782,580.0576172,0.1531001329,580.0576172,0.1538068503,580.0576172,0.1488821208,
579.0150757,0.06865658611,579.0150757,0.0860536471,579.0150757,0.05272116512,579.0150757,0.1562413722,579.0150757,0.1573418975,579.0150757,0.1527377516,
577.97229,0.06857973337,577.97229,0.0860529542,577.97229,0.05299908668,577.97229,0.1586537659,577.97229,0.1605666876,577.97229,0.1559085101,
576.9291992,0.068378672,576.9291992,0.0861113444,576.9291992,0.05341144279,576.9291992,0.1611151546,576.9291992,0.163379401,576.9291992,0.1585534811,
576.0348511,0.06866410375,576.0348511,0.08626334369,576.0348511,0.05385091528,576.0348511,0.1632918119,576.0348511,0.165842846,576.0348511,0.1613107175,
574.991272,0.06862729788,574.991272,0.08634809405,574.991272,0.05426419899,574.991272,0.1655674577,574.991272,0.1690045446,574.991272,0.1642351449,
573.9473877,0.06882804632,573.9473877,0.08613775671,573.9473877,0.05464235321,573.9473877,0.1686363667,573.9473877,0.1721877456,573.9473877,0.1678823233,
573.0524292,0.06901692599,573.0524292,0.08643447608,573.0524292,0.05505101383,573.0524292,0.1714589298,573.0524292,0.1756722927,573.0524292,0.1713113934,
572.0080566,0.0688572526,572.0080566,0.08635911345,572.0080566,0.05537753925,572.0080566,0.1740560234,572.0080566,0.1786715537,572.0080566,0.1742472947,
570.9634399,0.06913213432,570.9634399,0.08671735972,570.9634399,0.05577924103,570.9634399,0.1765973717,570.9634399,0.1822044402,570.9634399,0.177815333,
570.0678101,0.0692210719,570.0678101,0.0869082734,570.0678101,0.05647826195,570.0678101,0.1793280989,570.0678101,0.1851525158,570.0678101,0.180690378,
569.022644,0.06911814213,569.022644,0.08732184768,569.022644,0.05672216788,569.022644,0.1821978986,569.022644,0.1884969026,569.022644,0.184426859,
567.9772339,0.06914779544,567.9772339,0.08697351068,567.9772339,0.05717599019,567.9772339,0.1846744716,567.9772339,0.1918262988,567.9772339,0.1877774149,
566.9315796,0.06911358982,566.9315796,0.08706144243,566.9315796,0.05738011003,566.9315796,0.1877255142,566.9315796,0.1951157004,566.9315796,0.1911601275,
566.0350952,0.06923382729,566.0350952,0.08743394166,566.0350952,0.05776388571,566.0350952,0.1904287785,566.0350952,0.1985360533,566.0350952,0.1946423352,
564.9888916,0.06939272583,564.9888916,0.0870822221,564.9888916,0.05796612054,564.9888916,0.1931199431,564.9888916,0.2020540684,564.9888916,0.1982829869,
563.9424438,0.06961266696,563.9424438,0.08772920072,563.9424438,0.05868105963,563.9424438,0.1965362281,563.9424438,0.2061258256,563.9424438,0.2025713325,
563.0452881,0.06958717108,563.0452881,0.08771655709,563.0452881,0.05889605731,563.0452881,0.1986709982,563.0452881,0.208962664,563.0452881,0.2053773254,
561.9983521,0.06944080442,561.9983521,0.08794119209,561.9983521,0.05942003056,561.9983521,0.2013219446,561.9983521,0.2120368034,561.9983521,0.2088852823,
560.9511719,0.06943375617,560.9511719,0.087869443,560.9511719,0.05954014137,560.9511719,0.2042358816,560.9511719,0.2157230824,560.9511719,0.2126288712,
560.0533447,0.06964089721,560.0533447,0.08818516135,560.0533447,0.06020290032,560.0533447,0.2074887007,560.0533447,0.219460085,560.0533447,0.2163247913,
559.0056763,0.06965363026,559.0056763,0.08800785989,559.0056763,0.06028471142,559.0056763,0.2102255672,559.0056763,0.22316508,559.0056763,0.2202488631,
557.9577026,0.06957636029,557.9577026,0.08777929097,557.9577026,0.0604903549,557.9577026,0.2127869874,557.9577026,0.2267747074,557.9577026,0.2239145488,
557.0592041,0.06963956356,557.0592041,0.08811378479,557.0592041,0.06107483059,557.0592041,0.2151525766,557.0592041,0.2293774933,557.0592041,0.2266205698,
556.0108032,0.06954925507,556.0108032,0.0880112499,556.0108032,0.06152305752,556.0108032,0.2179702222,556.0108032,0.2326462716,556.0108032,0.2302338481,
554.9620972,0.06964557618,554.9620972,0.08801600337,554.9620972,0.06147050858,554.9620972,0.2206655443,554.9620972,0.2366281748,554.9620972,0.2343572825,
554.0629883,0.06972192228,554.0629883,0.08811152726,554.0629883,0.06187442318,554.0629883,0.2235318571,554.0629883,0.2402270138,554.0629883,0.2381163985,
553.0137939,0.06978815049,553.0137939,0.08847877383,553.0137939,0.06237588823,553.0137939,0.2258091718,553.0137939,0.2433676273,553.0137939,0.2414136529,
551.9642944,0.06984430552,551.9642944,0.0883904025,551.9642944,0.06218207255,551.9642944,0.2285460234,551.9642944,0.2466192544,551.9642944,0.244806394,
551.0645752,0.0698229298,551.0645752,0.08819752932,551.0645752,0.0624958314,551.0645752,0.2303161621,551.0645752,0.2491411418,551.0645752,0.2475911826,
550.0146484,0.0696663633,550.0146484,0.08824694902,550.0146484,0.06281430274,550.0146484,0.2329003066,550.0146484,0.2522229552,550.0146484,0.2509739399,
548.9644165,0.06989626586,548.9644165,0.08804669231,548.9644165,0.06319434941,548.9644165,0.2357966304,548.9644165,0.2562041581,548.9644165,0.2549497485,
548.0640869,0.06990054995,548.0640869,0.08816673607,548.0640869,0.06329954416,548.0640869,0.2379567623,548.0640869,0.2589557767,548.0640869,0.2580547333,
547.0133667,0.06958522648,547.0133667,0.08819372952,547.0133667,0.06356022507,547.0133667,0.2399987429,547.0133667,0.2617638707,547.0133667,0.2610591054,
545.9624634,0.06955806911,545.9624634,0.08826950192,545.9624634,0.06363490969,545.9624634,0.2421609461,545.9624634,0.2648379207,545.9624634,0.2642973065,
545.0614014,0.06962376088,545.0614014,0.08804323524,545.0614014,0.06382178515,545.0614014,0.2436733395,545.0614014,0.2669221163,545.0614014,0.2665037215,
544.0100098,0.06963579357,544.0100098,0.0882454887,544.0100098,0.06418867409,544.0100098,0.2461444438,544.0100098,0.2701261342,544.0100098,0.2699459493,
542.958313,0.0695964992,542.958313,0.08782079816,542.958313,0.06391759217,542.958313,0.2478258461,542.958313,0.2725489438,542.958313,0.2726980448,
542.0567017,0.06956776232,542.0567017,0.08812424541,542.0567017,0.06406955421,542.0567017,0.249326095,542.0567017,0.2746721506,542.0567017,0.2750364244,
541.0045776,0.06883335114,541.0045776,0.0879599303,541.0045776,0.06429992616,541.0045776,0.2508884668,541.0045776,0.2767339647,541.0045776,0.2773109674,
539.9521484,0.06922535598,539.9521484,0.08781991154,539.9521484,0.06444184482,539.9521484,0.2525298893,539.9521484,0.2792565823,539.9521484,0.2800324559,
539.0498657,0.06930113584,539.0498657,0.08788604289,539.0498657,0.06450475007,539.0498657,0.253638953,539.0498657,0.2810602486,539.0498657,0.2819450498,
537.9970093,0.06915611029,537.9970093,0.08761532605,537.9970093,0.06456920505,537.9970093,0.2549258769,537.9970093,0.2827059925,537.9970093,0.2839706838,
536.9438477,0.0689465031,536.9438477,0.08782140166,536.9438477,0.06462401897,536.9438477,0.256252557,536.9438477,0.2847101092,536.9438477,0.2863100171,
536.0409546,0.06902160496,536.0409546,0.08784763515,536.0409546,0.06466971338,536.0409546,0.2571273744,536.0409546,0.2863022089,536.0409546,0.2880608141,
534.9873657,0.06882324815,534.9873657,0.08724886924,534.9873657,0.06451196223,534.9873657,0.2578872144,534.9873657,0.2876599729,534.9873657,0.2896679342,
533.9335327,0.06833986193,533.9335327,0.08709933609,533.9335327,0.06434252858,533.9335327,0.2584536672,533.9335327,0.2887670398,533.9335327,0.2909979522,
533.0300293,0.068267636,533.0300293,0.08749023825,533.0300293,0.06443178654,533.0300293,0.2588095367,533.0300293,0.2894009054,533.0300293,0.2917625308,
531.975708,0.06869387627,531.975708,0.08715919405,531.975708,0.06445415318,531.975708,0.2595964372,531.975708,0.2907871902,531.975708,0.2931811213,
531.0717773,0.06857836992,531.0717773,0.08681920916,531.0717773,0.06439998746,531.0717773,0.2594890296,531.0717773,0.2911916971,531.0717773,0.2940145433,
530.0169678,0.06858082116,530.0169678,0.08635561168,530.0169678,0.06407020986,530.0169678,0.2592967749,530.0169678,0.2915180326,530.0169678,0.2945034206,
528.9619751,0.0678794384,528.9619751,0.08659199625,528.9619751,0.06394791603,528.9619751,0.2594436705,528.9619751,0.2920256853,528.9619751,0.2949429452,
528.0574341,0.06775799394,528.0574341,0.08669226617,528.0574341,0.06409670413,528.0574341,0.2591332793,528.0574341,0.2919178307,528.0574341,0.2951994538,
527.0019531,0.06765897572,527.0019531,0.08610995114,527.0019531,0.06353631616,527.0019531,0.2587746084,527.0019531,0.2916615009,527.0019531,0.295201093,
525.946167,0.06745614111,525.946167,0.0859919861,525.946167,0.06360214949,525.946167,0.2583504617,525.946167,0.2913329005,525.946167,0.2949110568,
525.0410767,0.06751347333,525.0410767,0.08595179021,525.0410767,0.06319770217,525.0410767,0.2574064136,525.0410767,0.2909721136,525.0410767,0.29450652,
523.9848633,0.06699819118,523.9848633,0.08546616882,523.9848633,0.06304709613,523.9848633,0.2562229931,523.9848633,0.2897002399,523.9848633,0.2936661839,
522.9283447,0.06713896245,522.9283447,0.08547225595,522.9283447,0.06282754987,522.9283447,0.2552289665,522.9283447,0.2890401185,522.9283447,0.2929672301,
522.022644,0.06687244028,522.022644,0.08514045179,522.022644,0.06250022352,522.022644,0.2542402744,522.022644,0.2877889574,522.022644,0.2918527126,
520.9656982,0.06669972837,520.9656982,0.08472473174,520.9656982,0.06213697046,520.9656982,0.2530979514,520.9656982,0.2866897881,520.9656982,0.2907769978,
520.0595703,0.06677944958,520.0595703,0.08457801491,520.0595703,0.06190340966,520.0595703,0.2513157129,520.0595703,0.2850395441,520.0595703,0.289418757,
519.0021973,0.06640834361,519.0021973,0.08452382684,519.0021973,0.06165795028,519.0021973,0.2495841533,519.0021973,0.2832789719,519.0021973,0.2879087925,
517.9445801,0.06581294537,517.9445801,0.08400323987,517.9445801,0.06107405946,517.9445801,0.2475885302,517.9445801,0.2809154391,517.9445801,0.285405755,
517.0378418,0.065751113,517.0378418,0.08390142024,517.0378418,0.0607714504,517.0378418,0.2456866056,517.0378418,0.2794546187,517.0378418,0.2838529646,
515.9797974,0.06542380154,515.9797974,0.08327570558,515.9797974,0.06031150743,515.9797974,0.2437196076,515.9797974,0.2767977417,515.9797974,0.2814842463,
515.0726929,0.06539102644,515.0726929,0.08346875012,515.0726929,0.0601767078,515.0726929,0.2421354502,515.0726929,0.2749212086,515.0726929,0.2797447145,
514.0141602,0.06535148621,514.0141602,0.08339647949,514.0141602,0.05994199589,514.0141602,0.2399556935,514.0141602,0.2726535797,514.0141602,0.2770529687,
512.9553833,0.06499582529,512.9553833,0.0827563256,512.9553833,0.05939640477,512.9553833,0.2371718735,512.9553833,0.269669205,512.9553833,0.2740360498,
512.0476685,0.06470958143,512.0476685,0.08253876865,512.0476685,0.05888855457,512.0476685,0.2351689488,512.0476685,0.2669615746,512.0476685,0.2717796266,
510.9884644,0.06433982402,510.9884644,0.08208438009,510.9884644,0.05821477249,510.9884644,0.2321504802,510.9884644,0.2639760673,510.9884644,0.2685287297,
509.9289856,0.06394317746,509.9289856,0.08170703053,509.9289856,0.05781013146,509.9289856,0.2297084779,509.9289856,0.2608658075,509.9289856,0.265391022,
509.0206909,0.06391258538,509.0206909,0.08171950281,509.0206909,0.05764462054,509.0206909,0.2277285755,509.0206909,0.2584179938,509.0206909,0.2631821632,
507.9607849,0.06357622892,507.9607849,0.08142520487,507.9607849,0.05731320009,507.9607849,0.2249684334,507.9607849,0.2551255822,507.9607849,0.2598841786,
507.0520935,0.0633515045,507.0520935,0.0809308663,507.0520935,0.05667308718,507.0520935,0.2223538905,507.0520935,0.2519211173,507.0520935,0.2562921941,
505.9917603,0.06293400377,505.9917603,0.08049382269,505.9917603,0.0560685508,505.9917603,0.2192857862,505.9917603,0.2483986765,505.9917603,0.2527323961,
504.9311523,0.06270749122,504.9311523,0.08036516607,504.9311523,0.05569003522,504.9311523,0.2166489512,504.9311523,0.2450617254,504.9311523,0.2497406304,
504.0218811,0.06244047359,504.0218811,0.0800588727,504.0218811,0.05531787872,504.0218811,0.2142923027,504.0218811,0.2429251969,504.0218811,0.2472207695,
502.9608765,0.0623870641,502.9608765,0.07965700328,502.9608765,0.05507405475,502.9608765,0.2116716951,502.9608765,0.2396732718,502.9608765,0.2439733148,
502.0512085,0.06207192317,502.0512085,0.07895436883,502.0512085,0.05427575484,502.0512085,0.2087220401,502.0512085,0.2362234592,502.0512085,0.2406540811,
500.9897461,0.06194565073,500.9897461,0.07882780582,500.9897461,0.05390217155,500.9897461,0.2060921639,500.9897461,0.2328824699,500.9897461,0.2369377017,
499.9280396,0.06170156971,499.9280396,0.07872269303,499.9280396,0.05351364985,499.9280396,0.2032624036,499.9280396,0.2296327353,499.9280396,0.2331442684,
499.0177917,0.0615468584,499.0177917,0.07843139023,499.0177917,0.05314879119,499.0177917,0.2010024786,499.0177917,0.2272921354,499.0177917,0.2309518754,
497.955658,0.06117829308,497.955658,0.07772874832,497.955658,0.05252810568,497.955658,0.1986467093,497.955658,0.2241072357,497.955658,0.2278028876,
497.0450439,0.06072800979,497.0450439,0.077601403,497.0450439,0.05212484673,497.0450439,0.1960138977,497.0450439,0.2211727351,497.0450439,0.2251209319,
495.9824829,0.06065466255,495.9824829,0.07725031674,495.9824829,0.05192493275,495.9824829,0.1935832798,495.9824829,0.2179496139,495.9824829,0.2219289392,
495.0715027,0.06063677371,495.0715027,0.07701528817,495.0715027,0.05150031298,495.0715027,0.1918345094,495.0715027,0.2155114561,495.0715027,0.2193283439,
494.0084839,0.06063549221,494.0084839,0.0767493993,494.0084839,0.05135513842,494.0084839,0.1893315017,494.0084839,0.2130669504,494.0084839,0.2164940238,
492.9452209,0.0609026514,492.9452209,0.07660461217,492.9452209,0.05101872608,492.9452209,0.1872300059,492.9452209,0.210427016,492.9452209,0.2138098478,
492.0336914,0.06024723873,492.0336914,0.07668592781,492.0336914,0.05062160641,492.0336914,0.1858470142,492.0336914,0.2085616589,492.0336914,0.2119024098,
490.9700012,0.05958782509,490.9700012,0.07618945837,490.9700012,0.05003422871,490.9700012,0.1833403558,490.9700012,0.2059045583,490.9700012,0.2090618908,
490.058075,0.05985119194,490.058075,0.07572753727,490.058075,0.04991893098,490.058075,0.181636557,490.058075,0.2035296857,490.058075,0.2067092061,
488.9939575,0.05965273827,488.9939575,0.07536330819,488.9939575,0.0495114997,488.9939575,0.1795159876,488.9939575,0.2012073547,488.9939575,0.2043105066,
487.9296265,0.05911445245,487.9296265,0.07541584224,487.9296265,0.0492644459,487.9296265,0.1778930724,487.9296265,0.1989711076,487.9296265,0.2021509111,
487.0171509,0.0588933602,487.0171509,0.07529065013,487.0171509,0.04909129068,487.0171509,0.1765837222,487.0171509,0.1974193007,487.0171509,0.2004476041,
485.9523621,0.05903259665,485.9523621,0.07479364425,485.9523621,0.0486337617,485.9523621,0.1746852696,485.9523621,0.1952687055,485.9523621,0.1984474957,
485.0395203,0.05943190679,485.0395203,0.07463008165,485.0395203,0.04872210696,485.0395203,0.1732530892,485.0395203,0.1934933513,485.0395203,0.1965973228,
483.9743347,0.05817963928,483.9743347,0.07460072637,483.9743347,0.04801781103,483.9743347,0.1716918051,483.9743347,0.1916068941,483.9743347,0.1943532079,
483.0611267,0.05827616528,483.0611267,0.07462337613,483.0611267,0.0481300056,483.0611267,0.1708023399,483.0611267,0.1904155761,483.0611267,0.1929169148,
481.9954834,0.05833052099,481.9954834,0.07431954145,481.9954834,0.04802130908,481.9954834,0.1697051376,481.9954834,0.1888836324,481.9954834,0.1915422231,
480.929657,0.0580923669,480.929657,0.07389634103,480.929657,0.04755026102,480.929657,0.1681047082,480.929657,0.1871140152,480.929657,0.1896548718,
480.0158691,0.05826159939,480.0158691,0.0741366595,480.0158691,0.04749619961,480.0158691,0.1673253328,480.0158691,0.1863081455,480.0158691,0.188977018,
478.9496155,0.05825088546,478.9496155,0.07419638336,478.9496155,0.04736716673,478.9496155,0.1664073169,478.9496155,0.1846005321,478.9496155,0.1873511374,
478.0354919,0.05825861171,478.0354919,0.07394332439,478.0354919,0.04744006693,478.0354919,0.1654819548,478.0354919,0.1835535318,478.0354919,0.1857946068,
476.9687805,0.05804751068,476.9687805,0.07377701253,476.9687805,0.04732785001,476.9687805,0.1644994766,476.9687805,0.1822796166,476.9687805,0.1848721355,
476.0542908,0.05800880864,476.0542908,0.07389996201,476.0542908,0.04707499593,476.0542908,0.1637653708,476.0542908,0.1814799905,476.0542908,0.1837119311,
474.9871826,0.05802966654,474.9871826,0.07375645638,474.9871826,0.04683263972,474.9871826,0.1628567725,474.9871826,0.1806410104,474.9871826,0.1831443757,
474.0723572,0.05776568875,474.0723572,0.07342397422,474.0723572,0.04676108062,474.0723572,0.1618385166,474.0723572,0.1792693138,474.0723572,0.1816830486,
473.0048218,0.05767802522,473.0048218,0.07346621901,473.0048218,0.04673582688,473.0048218,0.161192745,473.0048218,0.1785888225,473.0048218,0.1808668077,
471.9370728,0.05746298283,471.9370728,0.07323212177,471.9370728,0.04632817209,471.9370728,0.1602403075,471.9370728,0.1774607301,471.9370728,0.1798045635,
471.0216675,0.05746100098,471.0216675,0.07313816249,471.0216675,0.04639032856,471.0216675,0.1596385837,471.0216675,0.1768207103,471.0216675,0.1789551824,
469.9535217,0.05754002184,469.9535217,0.07308492064,469.9535217,0.04623118415,469.9535217,0.1590577066,469.9535217,0.1761799455,469.9535217,0.1782268435,
469.0377808,0.05765047669,469.0377808,0.07298823446,469.0377808,0.04628572613,469.0377808,0.1587593406,469.0377808,0.1755173504,469.0377808,0.1776536554,
467.9692078,0.05756546557,467.9692078,0.07295200974,467.9692078,0.04623490199,467.9692078,0.1583143175,467.9692078,0.1751060635,467.9692078,0.1768518686,
467.0531006,0.0573791042,467.0531006,0.07313806564,467.0531006,0.0464165695,467.0531006,0.1579880416,467.0531006,0.1745007038,467.0531006,0.1765955836,
465.9841309,0.05737233907,465.9841309,0.07278760523,465.9841309,0.04602763429,465.9841309,0.1572917402,465.9841309,0.1737640649,465.9841309,0.1757158488,
465.067688,0.0573365055,465.067688,0.07292233407,465.067688,0.04626977071,465.067688,0.1571609527,465.067688,0.1737319678,465.067688,0.1755256057,
463.998291,0.05756851286,463.998291,0.07298845053,463.998291,0.04631118104,463.998291,0.1568674892,463.998291,0.173041597,463.998291,0.1751515865,
462.9286804,0.05750677362,462.9286804,0.07268746197,462.9286804,0.0460187979,462.9286804,0.1564608365,462.9286804,0.1725421846,462.9286804,0.1746038496,
462.0116882,0.05765396357,462.0116882,0.07290779054,462.0116882,0.04631553218,462.0116882,0.1562917084,462.0116882,0.1721162796,462.0116882,0.1741992384,
460.9416809,0.05773981661,460.9416809,0.07275739312,460.9416809,0.04608424753,460.9416809,0.1557798386,460.9416809,0.1717757136,460.9416809,0.1737469137,
460.024353,0.05721567571,460.024353,0.07294909656,460.024353,0.04594795033,460.024353,0.1557653099,460.024353,0.1715975255,460.024353,0.173280105,
458.9539185,0.05706984922,458.9539185,0.07287025452,458.9539185,0.04598150402,458.9539185,0.155281961,458.9539185,0.1711765081,458.9539185,0.1731670797,
458.0362549,0.05716051534,458.0362549,0.0728411451,458.0362549,0.04580674693,458.0362549,0.1551907361,458.0362549,0.1708543599,458.0362549,0.172796905,
456.9654236,0.05720283091,456.9654236,0.0727603659,456.9654236,0.04580668733,456.9654236,0.155019328,456.9654236,0.1704690903,456.9654236,0.1726268828,
456.0473938,0.05732661113,456.0473938,0.07283952087,456.0473938,0.04610865936,456.0473938,0.1549833715,456.0473938,0.1703601331,456.0473938,0.1724089086,
454.9761658,0.05714581162,454.9761658,0.07272268832,454.9761658,0.045841638,454.9761658,0.1546458453,454.9761658,0.1702561527,454.9761658,0.1719119847,
454.0578308,0.05725578219,454.0578308,0.0724145472,454.0578308,0.04589615762,454.0578308,0.1546092182,454.0578308,0.1700875759,454.0578308,0.1718063951,
452.9862061,0.05718558654,452.9862061,0.07267157733,452.9862061,0.04583663493,452.9862061,0.1544518173,452.9862061,0.1700039059,452.9862061,0.1717300564,
452.0675049,0.05687649548,452.0675049,0.07261371613,452.0675049,0.04568071291,452.0675049,0.1543331742,452.0675049,0.1697028428,452.0675049,0.1714605093,
450.9954834,0.05700195581,450.9954834,0.07273673266,450.9954834,0.04582898319,450.9954834,0.1542526484,450.9954834,0.1696667522,450.9954834,0.1710647196,
450.076416,0.05716780946,450.076416,0.07264101505,450.076416,0.04599560425,450.076416,0.154405579,450.076416,0.1696266234,450.076416,0.1713952422,
449.0040283,0.05714705214,449.0040283,0.072685875,449.0040283,0.04592855647,449.0040283,0.1542348862,449.0040283,0.1695241481,449.0040283,0.1710861027,
447.9313965,0.05702907965,447.9313965,0.07268455625,447.9313965,0.04589831457,447.9313965,0.1541356444,447.9313965,0.1694093943,447.9313965,0.1712089479,
447.0118408,0.05719240755,447.0118408,0.07292702049,447.0118408,0.04597925767,447.0118408,0.1544776857,447.0118408,0.1695052981,447.0118408,0.1711789221,
445.9388123,0.05698341876,445.9388123,0.0728552565,445.9388123,0.04571527988,445.9388123,0.154004395,445.9388123,0.1693556011,445.9388123,0.1709650159,
445.0189209,0.05697550997,445.0189209,0.07286076993,445.0189209,0.04606539384,445.0189209,0.1543040425,445.0189209,0.1694501489,445.0189209,0.1710993052,
443.9454956,0.05704900622,443.9454956,0.07268226147,443.9454956,0.04606997222,443.9454956,0.1544048041,443.9454956,0.169446677,443.9454956,0.1709569991,
443.0252686,0.05737520382,443.0252686,0.0728322044,443.0252686,0.04619617388,443.0252686,0.154213205,443.0252686,0.1695944518,443.0252686,0.1712436974,
441.9514771,0.05733130872,441.9514771,0.07266671211,441.9514771,0.04604282975,441.9514771,0.1543592215,441.9514771,0.1694529057,441.9514771,0.1710170209,
441.0309143,0.05726916343,441.0309143,0.07293862849,441.0309143,0.04613488168,441.0309143,0.1545492858,441.0309143,0.1696347743,441.0309143,0.1711948961,
439.9567261,0.05708327889,439.9567261,0.07290620357,439.9567261,0.04600320011,439.9567261,0.1544325799,439.9567261,0.1694345474,439.9567261,0.1712718755,
439.0358276,0.05736134946,439.0358276,0.07298029959,439.0358276,0.04621627182,439.0358276,0.1547188014,439.0358276,0.1695887595,439.0358276,0.1714345813,
437.9612732,0.05728989467,437.9612732,0.07295063138,437.9612732,0.04629623517,437.9612732,0.1546709388,437.9612732,0.1698675454,437.9612732,0.1715016514,
437.0400391,0.0572969839,437.0400391,0.07292546332,437.0400391,0.04641538858,437.0400391,0.1546689868,437.0400391,0.1699911952,437.0400391,0.1713331044,
435.9650879,0.05747766793,435.9650879,0.07304890454,435.9650879,0.04651281983,435.9650879,0.15497908,435.9650879,0.1700623482,435.9650879,0.1717475802,
435.0435181,0.0574054569,435.0435181,0.07286985964,435.0435181,0.04614901543,435.0435181,0.1551278979,435.0435181,0.1701523066,435.0435181,0.1717348993,
433.9682007,0.05744794384,433.9682007,0.07286453247,433.9682007,0.0462756753,433.9682007,0.155002892,433.9682007,0.1701162606,433.9682007,0.1716767401,
433.0463257,0.0573678799,433.0463257,0.07288440317,433.0463257,0.0463113822,433.0463257,0.1552309245,433.0463257,0.1701562107,433.0463257,0.1717564613,
431.9706116,0.05753872171,431.9706116,0.07311102003,431.9706116,0.0467095077,431.9706116,0.155546084,431.9706116,0.1708303541,431.9706116,0.1721954793,
431.0484009,0.05742342025,431.0484009,0.07273758948,431.0484009,0.04637209699,431.0484009,0.1553372145,431.0484009,0.1704883426,431.0484009,0.1721340269,
429.97229,0.05737706646,429.97229,0.07301276177,429.97229,0.04641884565,429.97229,0.1556769758,429.97229,0.1708705127,429.97229,0.1723613292,
429.0497742,0.05747252703,429.0497742,0.07296140492,429.0497742,0.04643238336,429.0497742,0.1558617353,429.0497742,0.1710321456,429.0497742,0.17262052,
427.9732971,0.05776154995,427.9732971,0.07301750779,427.9732971,0.04683307186,427.9732971,0.1562606245,427.9732971,0.1711516678,427.9732971,0.1728868186,
427.0504456,0.05775726214,427.0504456,0.07306391001,427.0504456,0.04682387412,427.0504456,0.1563514024,427.0504456,0.1713103205,427.0504456,0.1728339046,
425.9736023,0.05774830282,425.9736023,0.07326356322,425.9736023,0.04687981308,425.9736023,0.1565973312,425.9736023,0.1715359241,425.9736023,0.1732433438,
425.0504456,0.05781788006,425.0504456,0.07317682356,425.0504456,0.04705534875,425.0504456,0.1568884104,425.0504456,0.1718271673,425.0504456,0.173417002,
423.9732056,0.05750432238,423.9732056,0.07323874533,423.9732056,0.04685265198,423.9732056,0.1568590999,423.9732056,0.1718249321,423.9732056,0.1735268384,
423.0497131,0.05761018768,423.0497131,0.07319765538,423.0497131,0.04692024365,423.0497131,0.1569282264,423.0497131,0.1721576899,423.0497131,0.1736333519,
421.9721375,0.05767619237,421.9721375,0.07313555479,421.9721375,0.04691998288,421.9721375,0.157123521,421.9721375,0.1724199951,421.9721375,0.1739421487,
421.0483398,0.05761633441,421.0483398,0.07316462696,421.0483398,0.04696907103,421.0483398,0.1573189944,421.0483398,0.1725719571,421.0483398,0.1740082949,
419.9703674,0.05745834485,419.9703674,0.0732351616,419.9703674,0.04695909098,419.9703674,0.1576756835,419.9703674,0.1726802737,419.9703674,0.1744101793,
419.0462341,0.05780223757,419.0462341,0.0731459409,419.0462341,0.04716339707,419.0462341,0.1580147594,419.0462341,0.1730852425,419.0462341,0.174783051,
417.967926,0.05795526505,417.967926,0.07348176092,417.967926,0.04736644402,417.967926,0.1583839059,417.967926,0.1736748666,417.967926,0.1749811918,
417.0434875,0.05798111856,417.0434875,0.0734321624,417.0434875,0.04735986143,417.0434875,0.1586238146,417.0434875,0.1736737341,417.0434875,0.1752130836,
415.9647827,0.05782210827,415.9647827,0.0733089447,415.9647827,0.04726042226,415.9647827,0.158767432,415.9647827,0.1740906239,415.9647827,0.1755599231,
415.0400391,0.05810080096,415.0400391,0.07345757633,415.0400391,0.04748620838,415.0400391,0.1589268595,415.0400391,0.1744116545,415.0400391,0.1761525273,
413.960968,0.05792580172,413.960968,0.07338961214,413.960968,0.04743099958,413.960968,0.1594393551,413.960968,0.174671188,413.960968,0.1761509627,
413.0359192,0.05796138942,413.0359192,0.07336585969,413.0359192,0.04756528139,413.0359192,0.1595156789,413.0359192,0.1748810112,413.0359192,0.1763741672,
411.9564819,0.05808772147,411.9564819,0.07341208309,411.9564819,0.04767134786,411.9564819,0.1599088162,411.9564819,0.1752557158,411.9564819,0.1768279076,
411.0311279,0.05826906115,411.0311279,0.0736496821,411.0311279,0.04765084013,411.0311279,0.1602802873,411.0311279,0.1757484823,411.0311279,0.1770869493,
409.9513245,0.05795834213,409.9513245,0.07376725227,409.9513245,0.04771425202,409.9513245,0.1603906751,409.9513245,0.1757829785,409.9513245,0.1773073226,
409.0256653,0.05815152079,409.0256653,0.07374323159,409.0256653,0.04785916954,409.0256653,0.1607819796,409.0256653,0.1762662381,409.0256653,0.1777201891,
407.9455261,0.05818147212,407.9455261,0.07367866486,407.9455261,0.04792975262,407.9455261,0.1610175222,407.9455261,0.1765968204,407.9455261,0.1783011854,
407.0195313,0.05831716582,407.0195313,0.07385693491,407.0195313,0.0481505692,407.0195313,0.1613842547,407.0195313,0.1770966351,407.0195313,0.178601712,
405.9390259,0.05843735486,405.9390259,0.07364035398,405.9390259,0.0478968583,405.9390259,0.1616996229,405.9390259,0.1774431169,405.9390259,0.1789913028,
405.0127258,0.05833294615,405.0127258,0.07383520901,405.0127258,0.04823861271,405.0127258,0.1622119099,405.0127258,0.1777344495,405.0127258,0.1792205721,
403.9318848,0.05799363181,403.9318848,0.07385770231,403.9318848,0.04810933024,403.9318848,0.16227597,403.9318848,0.1779947281,403.9318848,0.1794840991,
403.0052795,0.05817934126,403.0052795,0.07385024428,403.0052795,0.04819976538,403.0052795,0.162539795,403.0052795,0.1783365458,403.0052795,0.1799228936,
401.9240723,0.0582216382,401.9240723,0.07400894165,401.9240723,0.04828009754,401.9240723,0.1631490141,401.9240723,0.1790474653,401.9240723,0.1803904772,
400.9971619,0.0585754402,400.9971619,0.07402653247,400.9971619,0.04861259833,400.9971619,0.1635751128,400.9971619,0.1793381125,400.9971619,0.1809376329,
400.0701294,0.05841428414,400.0701294,0.07379569113,400.0701294,0.04847735539,400.0701294,0.1635666937,400.0701294,0.1794129163,400.0701294,0.1811376512,

DD_2 100x 48hr,
DD_2 100x 48hr
Collection Time: 10/6/2015 2:10:01 PM
Operator Name  :
Scan Version 5.0.0.999
Parameter List :
Instrument  Cary 50
Instrument Version  3.00
Start (nm)  700.0
Stop (nm)  400.0
X Mode  Nanometers
Y Mode  Abs
UV-Vis Scan Rate (nm/min)  600.000
UV-Vis Data Interval (nm)  1.00
UV-Vis Ave. Time (sec)  0.1000
Beam Mode  Dual Beam
Baseline Correction  On
Baseline Type  Baseline correction
Baseline File Name
Baseline Std Ref File Name
Cycle Mode  Off
Method Log     :
Method Name    : C:\Users\heatherweltner\Documents\Au Standard.MSW
Date/Time stamp: 7/3/2015 11:24:50 AM
Method Modifications:
UVVIS SAT Changed: 7/1/2015 11:30:22 AM, Old:0.0125, New:0.1000
Common SAT Changed: 7/1/2015 11:30:22 AM, Old:0.0125, New:0.1000
X Start nm Changed: 7/1/2015 11:30:31 AM, Old:  800.0, New:  700.0
X Stop nm Changed: 7/1/2015 11:30:31 AM, Old:  200.0, New:  300.0
Common Interval nm Changed: 7/1/2015 11:30:31 AM, Old:     5.00, New:     1.00
Baseline Correction Changed: 7/1/2015 11:30:31 AM, Old:0, New:1
Saved as C:\Users\heatherweltner\Documents\Au Standard.MSWOpened C:\Users\heatherweltner\Documents\Au Standard.MSW
X Stop nm Changed: 7/3/2015 11:24:45 AM, Old:  300.0, New:  400.0
Saved as C:\Users\heatherweltner\Documents\Au Standard.MSW
Opened C:\Users\heatherweltner\Documents\Au Standard.MSW
End Method Modifications
<Current Wavelength> , 401.0

DD_2 30x 48hr,
DD_2 30x 48hr
Collection Time: 10/6/2015 2:11:32 PM
Operator Name  :
Scan Version 5.0.0.999
Parameter List :
Instrument  Cary 50
Instrument Version  3.00
Start (nm)  700.0
Stop (nm)  400.0
X Mode  Nanometers
Y Mode  Abs
UV-Vis Scan Rate (nm/min)  600.000
UV-Vis Data Interval (nm)  1.00
UV-Vis Ave. Time (sec)  0.1000
Beam Mode  Dual Beam
Baseline Correction  On
Baseline Type  Baseline correction
Baseline File Name
Baseline Std Ref File Name
Cycle Mode  Off
Method Log     :
Method Name    : C:\Users\heatherweltner\Documents\Au Standard.MSW
Date/Time stamp: 7/3/2015 11:24:50 AM
Method Modifications:
UVVIS SAT Changed: 7/1/2015 11:30:22 AM, Old:0.0125, New:0.1000
Common SAT Changed: 7/1/2015 11:30:22 AM, Old:0.0125, New:0.1000
X Start nm Changed: 7/1/2015 11:30:31 AM, Old:  800.0, New:  700.0
X Stop nm Changed: 7/1/2015 11:30:31 AM, Old:  200.0, New:  300.0
Common Interval nm Changed: 7/1/2015 11:30:31 AM, Old:     5.00, New:     1.00
Baseline Correction Changed: 7/1/2015 11:30:31 AM, Old:0, New:1
Saved as C:\Users\heatherweltner\Documents\Au Standard.MSWOpened C:\Users\heatherweltner\Documents\Au Standard.MSW
X Stop nm Changed: 7/3/2015 11:24:45 AM, Old:  300.0, New:  400.0
Saved as C:\Users\heatherweltner\Documents\Au Standard.MSW
Opened C:\Users\heatherweltner\Documents\Au Standard.MSW
End Method Modifications
<Current Wavelength> , 401.0

DD_2 10x 48hr,
DD_2 10x 48hr
Collection Time: 10/6/2015 2:12:31 PM
Operator Name  :
Scan Version 5.0.0.999
Parameter List :
Instrument  Cary 50
Instrument Version  3.00
Start (nm)  700.0
Stop (nm)  400.0
X Mode  Nanometers
Y Mode  Abs
UV-Vis Scan Rate (nm/min)  600.000
UV-Vis Data Interval (nm)  1.00
UV-Vis Ave. Time (sec)  0.1000
Beam Mode  Dual Beam
Baseline Correction  On
Baseline Type  Baseline correction
Baseline File Name
Baseline Std Ref File Name
Cycle Mode  Off
Method Log     :
Method Name    : C:\Users\heatherweltner\Documents\Au Standard.MSW
Date/Time stamp: 7/3/2015 11:24:50 AM
Method Modifications:
UVVIS SAT Changed: 7/1/2015 11:30:22 AM, Old:0.0125, New:0.1000
Common SAT Changed: 7/1/2015 11:30:22 AM, Old:0.0125, New:0.1000
X Start nm Changed: 7/1/2015 11:30:31 AM, Old:  800.0, New:  700.0
X Stop nm Changed: 7/1/2015 11:30:31 AM, Old:  200.0, New:  300.0
Common Interval nm Changed: 7/1/2015 11:30:31 AM, Old:     5.00, New:     1.00
Baseline Correction Changed: 7/1/2015 11:30:31 AM, Old:0, New:1
Saved as C:\Users\heatherweltner\Documents\Au Standard.MSWOpened C:\Users\heatherweltner\Documents\Au Standard.MSW
X Stop nm Changed: 7/3/2015 11:24:45 AM, Old:  300.0, New:  400.0
Saved as C:\Users\heatherweltner\Documents\Au Standard.MSW
Opened C:\Users\heatherweltner\Documents\Au Standard.MSW
End Method Modifications
<Current Wavelength> , 401.0

DD_2 3x 48hr,
DD_2 3x 48hr
Collection Time: 10/6/2015 2:13:30 PM
Operator Name  :
Scan Version 5.0.0.999
Parameter List :
Instrument  Cary 50
Instrument Version  3.00
Start (nm)  700.0
Stop (nm)  400.0
X Mode  Nanometers
Y Mode  Abs
UV-Vis Scan Rate (nm/min)  600.000
UV-Vis Data Interval (nm)  1.00
UV-Vis Ave. Time (sec)  0.1000
Beam Mode  Dual Beam
Baseline Correction  On
Baseline Type  Baseline correction
Baseline File Name
Baseline Std Ref File Name
Cycle Mode  Off
Method Log     :
Method Name    : C:\Users\heatherweltner\Documents\Au Standard.MSW
Date/Time stamp: 7/3/2015 11:24:50 AM
Method Modifications:
UVVIS SAT Changed: 7/1/2015 11:30:22 AM, Old:0.0125, New:0.1000
Common SAT Changed: 7/1/2015 11:30:22 AM, Old:0.0125, New:0.1000
X Start nm Changed: 7/1/2015 11:30:31 AM, Old:  800.0, New:  700.0
X Stop nm Changed: 7/1/2015 11:30:31 AM, Old:  200.0, New:  300.0
Common Interval nm Changed: 7/1/2015 11:30:31 AM, Old:     5.00, New:     1.00
Baseline Correction Changed: 7/1/2015 11:30:31 AM, Old:0, New:1
Saved as C:\Users\heatherweltner\Documents\Au Standard.MSWOpened C:\Users\heatherweltner\Documents\Au Standard.MSW
X Stop nm Changed: 7/3/2015 11:24:45 AM, Old:  300.0, New:  400.0
Saved as C:\Users\heatherweltner\Documents\Au Standard.MSW
Opened C:\Users\heatherweltner\Documents\Au Standard.MSW
End Method Modifications
<Current Wavelength> , 401.0

DD_2 1x 48hr,
DD_2 1x 48hr
Collection Time: 10/6/2015 2:14:24 PM
Operator Name  :
Scan Version 5.0.0.999
Parameter List :
Instrument  Cary 50
Instrument Version  3.00
Start (nm)  700.0
Stop (nm)  400.0
X Mode  Nanometers
Y Mode  Abs
UV-Vis Scan Rate (nm/min)  600.000
UV-Vis Data Interval (nm)  1.00
UV-Vis Ave. Time (sec)  0.1000
Beam Mode  Dual Beam
Baseline Correction  On
Baseline Type  Baseline correction
Baseline File Name
Baseline Std Ref File Name
Cycle Mode  Off
Method Log     :
Method Name    : C:\Users\heatherweltner\Documents\Au Standard.MSW
Date/Time stamp: 7/3/2015 11:24:50 AM
Method Modifications:
UVVIS SAT Changed: 7/1/2015 11:30:22 AM, Old:0.0125, New:0.1000
Common SAT Changed: 7/1/2015 11:30:22 AM, Old:0.0125, New:0.1000
X Start nm Changed: 7/1/2015 11:30:31 AM, Old:  800.0, New:  700.0
X Stop nm Changed: 7/1/2015 11:30:31 AM, Old:  200.0, New:  300.0
Common Interval nm Changed: 7/1/2015 11:30:31 AM, Old:     5.00, New:     1.00
Baseline Correction Changed: 7/1/2015 11:30:31 AM, Old:0, New:1
Saved as C:\Users\heatherweltner\Documents\Au Standard.MSWOpened C:\Users\heatherweltner\Documents\Au Standard.MSW
X Stop nm Changed: 7/3/2015 11:24:45 AM, Old:  300.0, New:  400.0
Saved as C:\Users\heatherweltner\Documents\Au Standard.MSW
Opened C:\Users\heatherweltner\Documents\Au Standard.MSW
End Method Modifications
<Current Wavelength> , 401.0

DD_2 0x 48hr,
DD_2 0x 48hr
Collection Time: 10/6/2015 2:15:13 PM
Operator Name  :
Scan Version 5.0.0.999
Parameter List :
Instrument  Cary 50
Instrument Version  3.00
Start (nm)  700.0
Stop (nm)  400.0
X Mode  Nanometers
Y Mode  Abs
UV-Vis Scan Rate (nm/min)  600.000
UV-Vis Data Interval (nm)  1.00
UV-Vis Ave. Time (sec)  0.1000
Beam Mode  Dual Beam
Baseline Correction  On
Baseline Type  Baseline correction
Baseline File Name
Baseline Std Ref File Name
Cycle Mode  Off
Method Log     :
Method Name    : C:\Users\heatherweltner\Documents\Au Standard.MSW
Date/Time stamp: 7/3/2015 11:24:50 AM
Method Modifications:
UVVIS SAT Changed: 7/1/2015 11:30:22 AM, Old:0.0125, New:0.1000
Common SAT Changed: 7/1/2015 11:30:22 AM, Old:0.0125, New:0.1000
X Start nm Changed: 7/1/2015 11:30:31 AM, Old:  800.0, New:  700.0
X Stop nm Changed: 7/1/2015 11:30:31 AM, Old:  200.0, New:  300.0
Common Interval nm Changed: 7/1/2015 11:30:31 AM, Old:     5.00, New:     1.00
Baseline Correction Changed: 7/1/2015 11:30:31 AM, Old:0, New:1
Saved as C:\Users\heatherweltner\Documents\Au Standard.MSWOpened C:\Users\heatherweltner\Documents\Au Standard.MSW
X Stop nm Changed: 7/3/2015 11:24:45 AM, Old:  300.0, New:  400.0
Saved as C:\Users\heatherweltner\Documents\Au Standard.MSW
Opened C:\Users\heatherweltner\Documents\Au Standard.MSW
End Method Modifications
<Current Wavelength> , 401.0

