Direct 100x 4hr,,Direct 30x 4hr,,Direct 10x 4hr,,Direct 3x 4hr,,Direct 1x 4hr,,Direct 0x 4hr,,
Wavelength (nm),Abs,Wavelength (nm),Abs,Wavelength (nm),Abs,Wavelength (nm),Abs,Wavelength (nm),Abs,Wavelength (nm),Abs,
700.0548706,0.08864748478,700.0548706,0.0910744071,700.0548706,0.0567587465,700.0548706,0.04464330524,700.0548706,0.03915587068,700.0548706,0.03939185292,
699.0474854,0.08892764896,699.0474854,0.09142640233,699.0474854,0.05710604042,699.0474854,0.04487344623,699.0474854,0.03965865076,699.0474854,0.0396671854,
698.039856,0.08989186585,698.039856,0.09202433378,698.039856,0.05788235366,698.039856,0.04545908049,698.039856,0.04023476318,698.039856,0.04030201584,
697.0317993,0.09044567496,697.0317993,0.09288917482,697.0317993,0.05827119201,697.0317993,0.04615307599,697.0317993,0.04040473327,697.0317993,0.04073566198,
696.0234985,0.0913079083,696.0234985,0.09398190677,696.0234985,0.0588963218,696.0234985,0.04646807909,696.0234985,0.04100826383,696.0234985,0.04096357152,
695.0148315,0.09170532972,695.0148315,0.09456673265,695.0148315,0.05961499363,695.0148315,0.04723366722,695.0148315,0.04140688106,695.0148315,0.04141505435,
694.0058594,0.09223780036,694.0058594,0.09474368393,694.0058594,0.05993596464,694.0058594,0.04726160318,694.0058594,0.04178312048,694.0058594,0.04201737046,
692.996521,0.0929755792,692.996521,0.09551834315,692.996521,0.06073682383,692.996521,0.04790151492,692.996521,0.04231814295,692.996521,0.04261112586,
691.9868774,0.09352684766,691.9868774,0.09596470743,691.9868774,0.06156767905,691.9868774,0.04889207333,691.9868774,0.04296560585,691.9868774,0.04287699237,
690.9769287,0.0944583565,690.9769287,0.09689909965,690.9769287,0.0620842576,690.9769287,0.04888033867,690.9769287,0.0431949757,690.9769287,0.04342692345,
689.9666138,0.09465135634,689.9666138,0.09743224829,689.9666138,0.06241464987,689.9666138,0.04935924336,689.9666138,0.04334700108,689.9666138,0.04357073456,
688.9559937,0.0952924639,688.9559937,0.09808409959,688.9559937,0.06303021312,688.9559937,0.04971355572,688.9559937,0.04405665025,688.9559937,0.04418888688,
687.9450073,0.09649913013,687.9450073,0.09872536361,687.9450073,0.06375537813,687.9450073,0.05101438612,687.9450073,0.0448385179,687.9450073,0.0449453257,
686.9337158,0.0973046571,686.9337158,0.09981703013,686.9337158,0.06465754658,686.9337158,0.05120159313,686.9337158,0.04536769167,686.9337158,0.04566665366,
686.0666504,0.09849137813,686.0666504,0.1001920626,686.0666504,0.06533430517,686.0666504,0.0522416383,686.0666504,0.04608491063,686.0666504,0.04631527141,
685.0548096,0.09870443493,685.0548096,0.1009030342,685.0548096,0.06609081477,685.0548096,0.05225535855,685.0548096,0.04654889554,685.0548096,0.0467411615,
684.0426025,0.09900697321,684.0426025,0.1013989076,684.0426025,0.06620289385,684.0426025,0.05293226615,684.0426025,0.04695822671,684.0426025,0.04712885991,
683.0300903,0.100185968,683.0300903,0.1027172804,683.0300903,0.067745924,683.0300903,0.05416483805,683.0300903,0.04832285643,683.0300903,0.04812086746,
682.0172119,0.1009208634,682.0172119,0.1032699719,682.0172119,0.0680712387,682.0172119,0.05414492637,682.0172119,0.04839542508,682.0172119,0.0484402217,
681.0040283,0.1013289839,681.0040283,0.1040512547,681.0040283,0.06897435337,681.0040283,0.0549238883,681.0040283,0.04895998538,681.0040283,0.04913552105,
679.9905396,0.1018887386,679.9905396,0.1047086418,679.9905396,0.06947154552,679.9905396,0.05523858592,679.9905396,0.0494639799,679.9905396,0.04951860756,
678.9767456,0.1029288471,678.9767456,0.1053429395,678.9767456,0.07024421543,678.9767456,0.05619875342,678.9767456,0.0497582294,678.9767456,0.05032778904,
677.9626465,0.1035757363,677.9626465,0.1061398685,677.9626465,0.0711716637,677.9626465,0.05712449551,677.9626465,0.0504578799,677.9626465,0.05066512153,
676.9481812,0.1046359092,676.9481812,0.1069584563,676.9481812,0.07227990776,676.9481812,0.05795718729,676.9481812,0.05162195116,676.9481812,0.05170292035,
675.9334106,0.1057760417,675.9334106,0.1076746583,675.9334106,0.07268159091,675.9334106,0.05843397975,675.9334106,0.05189500004,675.9334106,0.05215149373,
675.0633545,0.1059345603,675.0633545,0.1082496345,675.0633545,0.0737343654,675.0633545,0.05900730193,675.0633545,0.05243363604,675.0633545,0.05255328864,
674.0479736,0.1073383167,674.0479736,0.1093862578,674.0479736,0.07474549115,674.0479736,0.05973251164,674.0479736,0.0534276031,674.0479736,0.0538180694,
673.0322876,0.1077280641,673.0322876,0.1106019914,673.0322876,0.0754988119,673.0322876,0.06065811589,673.0322876,0.05410276353,673.0322876,0.05444814637,
672.0162964,0.1087076589,672.0162964,0.1109262034,672.0162964,0.07667425275,672.0162964,0.06122722849,672.0162964,0.05504560843,672.0162964,0.05528283119,
670.999939,0.1096348166,670.999939,0.1119518653,670.999939,0.07756011933,670.999939,0.0624159053,670.999939,0.05559399351,670.999939,0.05565831438,
669.9833374,0.110467039,669.9833374,0.1126071364,669.9833374,0.07826022059,669.9833374,0.0632911846,669.9833374,0.05625449866,669.9833374,0.05653372034,
668.9663696,0.1112012938,668.9663696,0.1135796532,668.9663696,0.07912534475,668.9663696,0.06376610696,668.9663696,0.05745796114,668.9663696,0.05721039325,
667.9490967,0.1122158766,667.9490967,0.1142860204,667.9490967,0.07979235798,667.9490967,0.06461092085,667.9490967,0.05785647407,667.9490967,0.05818564817,
666.9315186,0.1129004881,666.9315186,0.1158440784,666.9315186,0.08120709658,666.9315186,0.06550512463,666.9315186,0.05878021568,666.9315186,0.05914070085,
666.059082,0.1134237051,666.059082,0.116003029,666.059082,0.08195296675,666.059082,0.06616656482,666.059082,0.05945378169,666.059082,0.05935019627,
665.0408936,0.1149422973,665.0408936,0.1172241345,665.0408936,0.0831823349,665.0408936,0.06746436656,665.0408936,0.06054379791,665.0408936,0.06060962752,
664.0223999,0.1158928201,664.0223999,0.1182495654,664.0223999,0.08438390493,664.0223999,0.06829935312,664.0223999,0.06115609035,664.0223999,0.06133096293,
663.0036011,0.116775468,663.0036011,0.1193630546,663.0036011,0.08564729989,663.0036011,0.06958106905,663.0036011,0.06261341274,663.0036011,0.06268212944,
661.9844971,0.1177375838,661.9844971,0.1200560629,661.9844971,0.08640440553,661.9844971,0.07044939697,661.9844971,0.0631455183,661.9844971,0.06312037259,
660.9650879,0.1187944189,660.9650879,0.1211190447,660.9650879,0.08764404804,660.9650879,0.07138103247,660.9650879,0.06397821009,660.9650879,0.06408428401,
659.9453735,0.1194572449,659.9453735,0.1216790155,659.9453735,0.08847490698,659.9453735,0.07225096226,659.9453735,0.06472427398,659.9453735,0.06504637003,
659.0710449,0.1204076633,659.0710449,0.122670196,659.0710449,0.08952466398,659.0710449,0.07274255157,659.0710449,0.06548976898,659.0710449,0.06554807723,
658.0507202,0.1211137697,658.0507202,0.1235828102,658.0507202,0.09066400677,658.0507202,0.07387179136,658.0507202,0.06707790494,658.0507202,0.06664126366,
657.0300903,0.1224556863,657.0300903,0.1246545687,657.0300903,0.09228268266,657.0300903,0.07537399232,657.0300903,0.06800238788,657.0300903,0.0681527555,
656.0091553,0.1233652011,656.0091553,0.1255146861,656.0091553,0.09293110669,656.0091553,0.07624233514,656.0091553,0.06885773689,656.0091553,0.06879589707,
654.987915,0.1242631227,654.987915,0.1266242415,654.987915,0.09428136051,654.987915,0.0775744766,654.987915,0.06985579431,654.987915,0.07009124011,
653.9663696,0.125294894,653.9663696,0.127946347,653.9663696,0.09602134675,653.9663696,0.07863368094,653.9663696,0.071330145,653.9663696,0.07115342468,
652.944519,0.1263305545,652.944519,0.1284170002,652.944519,0.09684921056,652.944519,0.07991138846,652.944519,0.07208009809,652.944519,0.07190347463,
652.0684204,0.1268211603,652.0684204,0.1292645931,652.0684204,0.09776391834,652.0684204,0.0805715397,652.0684204,0.07277560979,652.0684204,0.0728880167,
651.0459595,0.1283166707,651.0459595,0.1307208389,651.0459595,0.09935178608,651.0459595,0.08196925372,651.0459595,0.0739345178,651.0459595,0.0742790252,
650.0232544,0.1297752559,650.0232544,0.131886065,650.0232544,0.1008697227,650.0232544,0.08311471343,650.0232544,0.07531047612,650.0232544,0.07553414255,
649.0001831,0.1302549094,649.0001831,0.1326214671,649.0001831,0.1018730253,649.0001831,0.08442656696,649.0001831,0.07635715604,649.0001831,0.07645422965,
647.9768066,0.1313641667,647.9768066,0.1339669675,647.9768066,0.1039764285,647.9768066,0.08570172638,647.9768066,0.07794369757,647.9768066,0.07779448479,
646.953186,0.1327009648,646.953186,0.1351039559,646.953186,0.1050775051,646.953186,0.08741310984,646.953186,0.07914360613,646.953186,0.07947739214,
645.9291992,0.1334509552,645.9291992,0.1357332468,645.9291992,0.1063559204,645.9291992,0.08788775653,645.9291992,0.07995765656,645.9291992,0.07995311916,
645.0512695,0.1346948892,645.0512695,0.1368983835,645.0512695,0.1077920943,645.0512695,0.0892701149,645.0512695,0.08128294349,645.0512695,0.08127379417,
644.0267334,0.1354575604,644.0267334,0.1377697885,644.0267334,0.1088592261,644.0267334,0.09073928744,644.0267334,0.08247090876,644.0267334,0.08259393275,
643.0018921,0.1369736344,643.0018921,0.1386050135,643.0018921,0.1105612889,643.0018921,0.09202577919,643.0018921,0.08363746852,643.0018921,0.08396328986,
641.9767456,0.1380790323,641.9767456,0.1400323659,641.9767456,0.1127175912,641.9767456,0.09323564917,641.9767456,0.08525906503,641.9767456,0.0854177624,
640.9512939,0.13934201,640.9512939,0.141181156,640.9512939,0.1140958443,640.9512939,0.0952161327,640.9512939,0.08682695776,640.9512939,0.08686748892,
640.0721436,0.1403285265,640.0721436,0.1423662007,640.0721436,0.1155750528,640.0721436,0.09645161033,640.0721436,0.08803851157,640.0721436,0.08824793249,
639.0461426,0.1413752586,639.0461426,0.1434324831,639.0461426,0.1170838177,639.0461426,0.09838337451,639.0461426,0.08974660933,639.0461426,0.08972124755,
638.0198364,0.1425923854,638.0198364,0.1445122808,638.0198364,0.118951492,638.0198364,0.09985120595,638.0198364,0.09114065766,638.0198364,0.09106103331,
636.9932251,0.1435185671,636.9932251,0.1455273181,636.9932251,0.1205772534,636.9932251,0.1010157093,636.9932251,0.09253201634,636.9932251,0.09238190949,
635.9663086,0.1451827139,635.9663086,0.1471676975,635.9663086,0.122412689,635.9663086,0.1031683236,635.9663086,0.09416250885,635.9663086,0.09399347752,
634.9390869,0.1460434794,634.9390869,0.1479347795,634.9390869,0.124093093,634.9390869,0.1048093289,634.9390869,0.09587434679,634.9390869,0.09603493661,
634.0584106,0.1474533677,634.0584106,0.1491588056,634.0584106,0.1256940216,634.0584106,0.1064102203,634.0584106,0.09733697772,634.0584106,0.09749785066,
633.0306396,0.1486464739,633.0306396,0.1502030343,633.0306396,0.1275247633,633.0306396,0.1082146913,633.0306396,0.09894490242,633.0306396,0.09895495325,
632.0025635,0.1497856826,632.0025635,0.1515271515,632.0025635,0.1294283271,632.0025635,0.1097486839,632.0025635,0.1006449908,632.0025635,0.1007723585,
630.9741821,0.1509863734,630.9741821,0.1527129859,630.9741821,0.1315400749,630.9741821,0.1114883646,630.9741821,0.102557905,630.9741821,0.1026197374,
629.9455566,0.1523767114,629.9455566,0.1542801112,629.9455566,0.1336430609,629.9455566,0.1137184426,629.9455566,0.1045721769,629.9455566,0.1048534885,
629.0635986,0.1537777185,629.0635986,0.1549348384,629.0635986,0.1357496232,629.0635986,0.115399912,629.0635986,0.1059582159,629.0635986,0.1064200774,
628.0343628,0.154854998,628.0343628,0.1561148614,628.0343628,0.1375322789,628.0343628,0.1172261313,628.0343628,0.1079211086,628.0343628,0.1080438271,
627.0048828,0.1562015712,627.0048828,0.1574108601,627.0048828,0.1395973563,627.0048828,0.1192113832,627.0048828,0.1097803786,627.0048828,0.1101460382,
625.9750366,0.1571778953,625.9750366,0.1587249786,625.9750366,0.1416926831,625.9750366,0.1209083796,625.9750366,0.1114216521,625.9750366,0.1120393649,
624.9449463,0.1581500471,624.9449463,0.1597039402,624.9449463,0.1436163485,624.9449463,0.1234891638,624.9449463,0.1136671528,624.9449463,0.1137166247,
624.0617676,0.1598254293,624.0617676,0.161320895,624.0617676,0.1458352357,624.0617676,0.125048086,624.0617676,0.1154797748,624.0617676,0.11548426,
623.0311279,0.1612711251,623.0311279,0.1624482721,623.0311279,0.1481425017,623.0311279,0.1272768229,623.0311279,0.1177984551,623.0311279,0.1178015098,
622.0001831,0.1621046662,622.0001831,0.1633980274,622.0001831,0.1499721557,622.0001831,0.129413411,622.0001831,0.1193907559,622.0001831,0.1194553003,
620.9689331,0.1637253612,620.9689331,0.1645246595,620.9689331,0.152743414,620.9689331,0.1315188408,620.9689331,0.1218264475,620.9689331,0.1220106781,
619.937439,0.1650315523,619.937439,0.1657526642,619.937439,0.1547410637,619.937439,0.1340207905,619.937439,0.1239019856,619.937439,0.1240593642,
619.0530396,0.1656521708,619.0530396,0.1666896641,619.0530396,0.1563605368,619.0530396,0.1355547011,619.0530396,0.1252400428,619.0530396,0.1257937402,
618.0209351,0.1672980487,618.0209351,0.1678804159,618.0209351,0.1592608839,618.0209351,0.1380635947,618.0209351,0.1278113723,618.0209351,0.1280914992,
616.9885864,0.1690941006,616.9885864,0.1696845889,616.9885864,0.1621924788,616.9885864,0.1411256641,616.9885864,0.1309916824,616.9885864,0.131141305,
615.9559326,0.1701585799,615.9559326,0.170812279,615.9559326,0.1645894647,615.9559326,0.1435766816,615.9559326,0.1332202852,615.9559326,0.1336137652,
615.0705566,0.1714948863,615.0705566,0.1718893349,615.0705566,0.1668011248,615.0705566,0.1453376114,615.0705566,0.1351485401,615.0705566,0.1356977224,
614.0373535,0.1727045774,614.0373535,0.173005119,614.0373535,0.1691018492,614.0373535,0.1480282396,614.0373535,0.1375376433,614.0373535,0.1379515529,
613.0038452,0.1736277938,613.0038452,0.1739754975,613.0038452,0.1718046665,613.0038452,0.1502896696,613.0038452,0.1399087757,613.0038452,0.140276432,
611.9700928,0.1754221916,611.9700928,0.1755660176,611.9700928,0.1745408624,611.9700928,0.1532063782,611.9700928,0.1427007765,611.9700928,0.1428709477,
610.9360352,0.1767864525,610.9360352,0.1769093722,610.9360352,0.1775900573,610.9360352,0.1560072303,610.9360352,0.1454575211,610.9360352,0.1458856016,
610.0494385,0.1775785387,610.0494385,0.1780012399,610.0494385,0.1798718125,610.0494385,0.1581071019,610.0494385,0.1476557404,610.0494385,0.1481509954,
609.0148315,0.1794288903,609.0148315,0.1792530715,609.0148315,0.1828374416,609.0148315,0.1614307165,609.0148315,0.1504728347,609.0148315,0.1512104273,
607.9799805,0.1806433648,607.9799805,0.1805326939,607.9799805,0.1856980026,607.9799805,0.1640295386,607.9799805,0.1533174962,607.9799805,0.1540431827,
606.9447632,0.1816915423,606.9447632,0.1816021502,606.9447632,0.1885585636,606.9447632,0.1668613702,606.9447632,0.1561844349,606.9447632,0.1564658135,
606.057251,0.1830800474,606.057251,0.1827726513,606.057251,0.1909805834,606.057251,0.1694660932,606.057251,0.1588116139,606.057251,0.15906775,
605.0215454,0.1844517142,605.0215454,0.1840468794,605.0215454,0.1936709732,605.0215454,0.1720396429,605.0215454,0.1614292115,605.0215454,0.1617758572,
603.9855957,0.1857703477,603.9855957,0.1850753278,603.9855957,0.1970657706,603.9855957,0.1755368859,603.9855957,0.1648147851,603.9855957,0.1651157439,
602.9492798,0.1873205304,602.9492798,0.1866358072,602.9492798,0.2005232275,602.9492798,0.1788666993,602.9492798,0.1679746211,602.9492798,0.1685333252,
602.0608521,0.1885062903,602.0608521,0.1877107173,602.0608521,0.203365311,602.0608521,0.1818161756,602.0608521,0.1709298342,602.0608521,0.1711866111,
601.0239868,0.1900988519,601.0239868,0.1890164614,601.0239868,0.2065223753,601.0239868,0.184659332,601.0239868,0.1737893224,601.0239868,0.1743306667,
599.9869385,0.1909954548,599.9869385,0.1900819391,599.9869385,0.2091249526,599.9869385,0.1877949536,599.9869385,0.1765536368,599.9869385,0.176869452,
598.9495239,0.1924879402,598.9495239,0.1914380789,598.9495239,0.212729618,598.9495239,0.1912970245,598.9495239,0.1802510023,598.9495239,0.1806380749,
598.0601196,0.1936938614,598.0601196,0.1924059391,598.0601196,0.2160045207,598.0601196,0.1944519132,598.0601196,0.183693558,598.0601196,0.1839911193,
597.0222778,0.1946624219,597.0222778,0.1934500635,597.0222778,0.2188622952,597.0222778,0.1976226568,597.0222778,0.1867562085,597.0222778,0.1871898621,
595.9840698,0.1960185319,595.9840698,0.1943646669,595.9840698,0.2221242934,595.9840698,0.2011207938,595.9840698,0.1898729801,595.9840698,0.1903762072,
594.9456177,0.1973609477,594.9456177,0.1958097219,594.9456177,0.2259223014,594.9456177,0.2046053708,594.9456177,0.1934093684,594.9456177,0.1937272251,
594.0552979,0.198420018,594.0552979,0.1967551708,594.0552979,0.2282457501,594.0552979,0.2074578553,594.0552979,0.1961477101,594.0552979,0.1966263056,
593.0162964,0.1999090016,593.0162964,0.1978774667,593.0162964,0.2317224145,593.0162964,0.2109907568,593.0162964,0.2000273466,593.0162964,0.2006911337,
591.9770508,0.201277867,591.9770508,0.1992895305,591.9770508,0.2359253466,591.9770508,0.2152073383,591.9770508,0.2039726824,591.9770508,0.2046858221,
590.9375,0.2024991065,590.9375,0.200357765,590.9375,0.2394727916,590.9375,0.2189271748,590.9375,0.2078080922,590.9375,0.2082750052,
590.0462036,0.2036717385,590.0462036,0.2013215274,590.0462036,0.2423239946,590.0462036,0.222357735,590.0462036,0.2110325843,590.0462036,0.2117218822,
589.0061646,0.2052590102,589.0061646,0.2026754171,589.0061646,0.2465404272,589.0061646,0.2264649123,589.0061646,0.215417847,589.0061646,0.2160227895,
587.9658203,0.206109181,587.9658203,0.2036104351,587.9658203,0.2496711761,587.9658203,0.2299167961,587.9658203,0.2187620401,587.9658203,0.2193061262,
587.0738525,0.2071935385,587.0738525,0.2044222355,587.0738525,0.2530027926,587.0738525,0.2330407053,587.0738525,0.222036317,587.0738525,0.222510621,
586.03302,0.2080065906,586.03302,0.2055107653,586.03302,0.2569267154,586.03302,0.2369872928,586.03302,0.2259437293,586.03302,0.2265047282,
584.9918823,0.2094118297,584.9918823,0.2068228722,584.9918823,0.2611466646,584.9918823,0.2416452318,584.9918823,0.2310147136,584.9918823,0.2312085927,
583.9505005,0.2106338739,583.9505005,0.2074986398,583.9505005,0.2649249732,583.9505005,0.2453975976,583.9505005,0.2346922159,583.9505005,0.235176906,
583.0576172,0.2119387984,583.0576172,0.2088374943,583.0576172,0.2685801387,583.0576172,0.2497971356,583.0576172,0.2388501912,583.0576172,0.239535749,
582.015686,0.2128010988,582.015686,0.2094484717,582.015686,0.272121489,582.015686,0.2533287704,582.015686,0.2425777018,582.015686,0.2430816591,
580.9735107,0.2138858885,580.9735107,0.2103278637,580.9735107,0.2758299708,580.9735107,0.2574709654,580.9735107,0.2465585619,580.9735107,0.2473894358,
579.9310303,0.2150446922,579.9310303,0.2111714333,579.9310303,0.2795016766,579.9310303,0.2612960935,579.9310303,0.2509975135,579.9310303,0.2511368692,
579.0372925,0.2159304619,579.0372925,0.2122664154,579.0372925,0.2837317586,579.0372925,0.2658682168,579.0372925,0.2551497817,579.0372925,0.2559004724,
577.9943237,0.2174358815,577.9943237,0.2133629769,577.9943237,0.2879799604,577.9943237,0.2704436481,577.9943237,0.2598359585,577.9943237,0.2602311075,
576.9510498,0.2183227837,576.9510498,0.213905707,576.9510498,0.2916848958,576.9510498,0.2745704055,576.9510498,0.2642710805,576.9510498,0.2647555768,
576.0566406,0.2190015316,576.0566406,0.2146638781,576.0566406,0.2949847579,576.0566406,0.2780436277,576.0566406,0.2678025663,576.0566406,0.2683147788,
575.0128784,0.220136568,575.0128784,0.2155523151,575.0128784,0.2992622852,575.0128784,0.2823779881,575.0128784,0.2720972002,575.0128784,0.2724176943,
573.968811,0.2211987078,573.968811,0.2166446447,573.968811,0.3032302558,573.968811,0.2868885696,573.968811,0.2768499851,573.968811,0.2774851322,
573.0737305,0.222202301,573.0737305,0.2174961865,573.0737305,0.3075228631,573.0737305,0.2916005552,573.0737305,0.2816615701,573.0737305,0.28205356,
572.0292358,0.222694695,572.0292358,0.2181945145,572.0292358,0.3109977245,572.0292358,0.2956354022,572.0292358,0.2858605683,572.0292358,0.2864345312,
570.984436,0.2241408527,570.984436,0.2189305127,570.984436,0.315656364,570.984436,0.300599575,570.984436,0.2906880677,570.984436,0.2915501893,
569.9393311,0.2247357517,569.9393311,0.2194736004,569.9393311,0.3196275532,569.9393311,0.3051321507,569.9393311,0.2950206697,569.9393311,0.2955808043,
569.043335,0.2259316146,569.043335,0.220546335,569.043335,0.3229494691,569.043335,0.3089119494,569.043335,0.2992361784,569.043335,0.299815923,
567.9978027,0.2262829989,567.9978027,0.2210287899,567.9978027,0.3268038332,567.9978027,0.3131986558,567.9978027,0.3037301898,567.9978027,0.3044008017,
566.9519653,0.227043584,566.9519653,0.2217058688,566.9519653,0.3307625949,566.9519653,0.3175020218,566.9519653,0.3083544374,566.9519653,0.3089590073,
566.0552979,0.2280058712,566.0552979,0.2223425657,566.0552979,0.3346669078,566.0552979,0.3220801651,566.0552979,0.3129936755,566.0552979,0.3135279119,
565.0089722,0.2287097871,565.0089722,0.2231478989,565.0089722,0.3389050364,565.0089722,0.3266617656,565.0089722,0.3176814318,565.0089722,0.3187077045,
563.9623413,0.2298493832,563.9623413,0.2238933593,563.9623413,0.3434578776,563.9623413,0.331920296,563.9623413,0.3233725131,563.9623413,0.3238922358,
563.0650635,0.2299972773,563.0650635,0.2239719927,563.0650635,0.346401602,563.0650635,0.3353828192,563.0650635,0.3268328607,563.0650635,0.3274802566,
562.0179443,0.2305854708,562.0179443,0.2244071364,562.0179443,0.3504756093,562.0179443,0.3396195471,562.0179443,0.3312294483,562.0179443,0.331961453,
560.9705811,0.2313424796,560.9705811,0.2249535173,560.9705811,0.3547829986,560.9705811,0.345256716,560.9705811,0.3364621699,560.9705811,0.3373657167,
560.0726318,0.2323050797,560.0726318,0.2255989313,560.0726318,0.3586984277,560.0726318,0.3493082821,560.0726318,0.3413247168,560.0726318,0.3420046568,
559.0247803,0.2326664776,559.0247803,0.2258441299,559.0247803,0.3627247512,559.0247803,0.3541444242,559.0247803,0.3464638889,559.0247803,0.3472523689,
557.9766846,0.2333926558,557.9766846,0.2265875041,557.9766846,0.3669531941,557.9766846,0.3587426245,557.9766846,0.3513866067,557.9766846,0.3521113694,
556.9282837,0.2336459011,556.9282837,0.2266726941,556.9282837,0.3701271117,556.9282837,0.3628558218,556.9282837,0.3557530344,556.9282837,0.3563047349,
556.02948,0.2343409956,556.02948,0.2274165303,556.02948,0.3732197881,556.02948,0.3666203916,556.02948,0.3597522676,556.02948,0.3604202271,
554.9805908,0.2344040424,554.9805908,0.2275654376,554.9805908,0.3775717616,554.9805908,0.3714034855,554.9805908,0.36490798,554.9805908,0.3655119538,
553.9314575,0.2350839376,553.9314575,0.2277064472,553.9314575,0.3814750612,553.9314575,0.3763555586,553.9314575,0.369805485,553.9314575,0.370483011,
553.0320435,0.2347967476,553.0320435,0.2277957052,553.0320435,0.3841566443,553.0320435,0.3795667291,553.0320435,0.3733404577,553.0320435,0.3741724491,
551.9824219,0.2351896763,551.9824219,0.2279395908,551.9824219,0.3876308799,551.9824219,0.3839983344,551.9824219,0.3781155944,551.9824219,0.3787065446,
550.9325562,0.2356148064,550.9325562,0.2282080501,550.9325562,0.3910065293,550.9325562,0.3877650499,550.9325562,0.3825566471,550.9325562,0.3830031455,
550.0324097,0.2356665581,550.0324097,0.2281543314,550.0324097,0.3935479224,550.0324097,0.391168952,550.0324097,0.3860141337,550.0324097,0.3864102066,
548.9820557,0.2359027117,548.9820557,0.22818169,548.9820557,0.3970999122,548.9820557,0.3955433369,548.9820557,0.3906409144,548.9820557,0.39127177,
547.9314575,0.2359275818,547.9314575,0.2280223817,547.9314575,0.4002384245,547.9314575,0.3994205594,547.9314575,0.3946818113,547.9314575,0.39561975,
547.0307007,0.2358444333,547.0307007,0.2280621976,547.0307007,0.4026584625,547.0307007,0.4023474753,547.0307007,0.398062706,547.0307007,0.3988415897,
545.9796143,0.2359236628,545.9796143,0.2279058546,545.9796143,0.4055482745,545.9796143,0.4061441123,545.9796143,0.4023048878,545.9796143,0.4028971195,
544.9282837,0.23583588,544.9282837,0.2280694246,544.9282837,0.4083199501,544.9282837,0.4097218215,544.9282837,0.4063384831,544.9282837,0.4071411192,
544.0269165,0.2357919961,544.0269165,0.2277158946,544.0269165,0.4105336666,544.0269165,0.4124187529,544.0269165,0.4092544317,544.0269165,0.4098017812,
542.9750366,0.2354975194,542.9750366,0.22742562,542.9750366,0.4126738012,542.9750366,0.4153694212,542.9750366,0.4126474261,542.9750366,0.4132107794,
542.0733032,0.2355277091,542.0733032,0.2272773683,542.0733032,0.4148458838,542.0733032,0.4180403352,542.0733032,0.4155969322,542.0733032,0.4162915647,
541.0209961,0.2350759357,541.0209961,0.2269555181,541.0209961,0.4163854718,541.0209961,0.4205120206,541.0209961,0.4184570014,541.0209961,0.4191800356,
539.9683838,0.2345324904,539.9683838,0.226397559,539.9683838,0.418210119,539.9683838,0.4232379794,539.9683838,0.4215080142,539.9683838,0.4221267998,
539.065979,0.2344755977,539.065979,0.2262176573,539.065979,0.4196820259,539.065979,0.4252413213,539.065979,0.4237655401,539.065979,0.4245201647,
538.0129395,0.2339794338,538.0129395,0.2255902737,538.0129395,0.4212836325,538.0129395,0.4274069965,538.0129395,0.4263245761,538.0129395,0.4271871746,
536.9596558,0.2335083187,536.9596558,0.2249191999,536.9596558,0.4222889245,536.9596558,0.4292522371,536.9596558,0.4286606014,536.9596558,0.4293658733,
536.0566406,0.2329962105,536.0566406,0.2245668322,536.0566406,0.423379153,536.0566406,0.4310599566,536.0566406,0.4308620989,536.0566406,0.4314750731,
535.0028687,0.2321187556,535.0028687,0.2237497717,535.0028687,0.4239979386,535.0028687,0.4326554835,535.0028687,0.432805866,535.0028687,0.4333213568,
533.9488525,0.2313214093,533.9488525,0.2229498476,533.9488525,0.4245126843,533.9488525,0.433721453,533.9488525,0.4343438447,533.9488525,0.435023576,
533.0452271,0.2306654304,533.0452271,0.2223188579,533.0452271,0.4247173667,533.0452271,0.4343900383,533.0452271,0.4350512624,533.0452271,0.435821414,
531.9907227,0.2298371196,531.9907227,0.2215025127,531.9907227,0.4249187708,531.9907227,0.435277164,531.9907227,0.4363355935,531.9907227,0.4371527135,
530.9359741,0.2289373279,530.9359741,0.2206002325,530.9359741,0.4247891009,530.9359741,0.4358554184,530.9359741,0.4372072518,530.9359741,0.4380472898,
530.0317383,0.2279715687,530.0317383,0.2195842266,530.0317383,0.4242509902,530.0317383,0.4357675016,530.0317383,0.4374914169,530.0317383,0.4383552074,
528.9765625,0.2274113744,528.9765625,0.2189580649,528.9765625,0.4240023792,528.9765625,0.43596825,528.9765625,0.4382034838,528.9765625,0.4387119412,
528.0718994,0.2262679636,528.0718994,0.2176689506,528.0718994,0.4228239655,528.0718994,0.4353588521,528.0718994,0.4376206696,528.0718994,0.4384559691,
527.0162354,0.2250418216,527.0162354,0.2166308314,527.0162354,0.4217742085,527.0162354,0.4348661005,527.0162354,0.4375143051,527.0162354,0.4379348159,
525.9603271,0.2239151597,525.9603271,0.2155899107,525.9603271,0.4204058945,525.9603271,0.4341089129,525.9603271,0.4370594025,525.9603271,0.4377377927,
525.0550537,0.2227422893,525.0550537,0.2143918574,525.0550537,0.4190423787,525.0550537,0.4326222539,525.0550537,0.4359391332,525.0550537,0.4366754889,
523.9986572,0.2209083289,523.9986572,0.2127844542,523.9986572,0.4164254367,523.9986572,0.4307836294,523.9986572,0.4342991412,523.9986572,0.4350028932,
522.9420166,0.2199079543,522.9420166,0.2114118636,522.9420166,0.414966017,522.9420166,0.4293369949,522.9420166,0.4330014586,522.9420166,0.4338280261,
522.0361938,0.2185756862,522.0361938,0.2101846188,522.0361938,0.4126079082,522.0361938,0.4273938537,522.0361938,0.4313336313,522.0361938,0.4319173992,
520.9790649,0.2171092182,520.9790649,0.2091630697,520.9790649,0.4103771448,520.9790649,0.4254787564,520.9790649,0.4294440448,520.9790649,0.4301750362,
520.0728149,0.2156432867,520.0728149,0.2075795382,520.0728149,0.4075832367,520.0728149,0.4229051471,520.0728149,0.4269794524,520.0728149,0.4276440442,
519.0153198,0.2140652239,519.0153198,0.2059749663,519.0153198,0.4048149586,519.0153198,0.4199407101,519.0153198,0.4247129261,519.0153198,0.4251435399,
517.9575195,0.212199226,517.9575195,0.2041790485,517.9575195,0.4008620083,517.9575195,0.4164456725,517.9575195,0.4212408364,517.9575195,0.4217309952,
517.0506592,0.2108323127,517.0506592,0.2027124614,517.0506592,0.3981316984,517.0506592,0.41367203,517.0506592,0.4187818468,517.0506592,0.4192733169,
515.9924316,0.2091959715,515.9924316,0.2012842447,515.9924316,0.3949413896,515.9924316,0.4104067683,515.9924316,0.4154529274,515.9924316,0.4161299169,
514.93396,0.2074752301,514.93396,0.1994355768,514.93396,0.3911311328,514.93396,0.4068071544,514.93396,0.4117740989,514.93396,0.4124815464,
514.0264893,0.2057948261,514.0264893,0.1982141286,514.0264893,0.3879351318,514.0264893,0.4033834934,514.0264893,0.4085759819,514.0264893,0.4093301296,
512.9675293,0.2038492411,512.9675293,0.1959185004,512.9675293,0.3830962479,512.9675293,0.3988256752,512.9675293,0.4038344324,512.9675293,0.4047280848,
512.0596924,0.2020973861,512.0596924,0.1946925372,512.0596924,0.3796448112,512.0596924,0.3952897787,512.0596924,0.4003755152,512.0596924,0.401293546,
511.0003052,0.200218305,511.0003052,0.1928172261,511.0003052,0.3753142059,511.0003052,0.3907094896,511.0003052,0.3957985044,511.0003052,0.3965477943,
509.9407043,0.1982432604,509.9407043,0.190741837,509.9407043,0.3709509373,509.9407043,0.3863316476,509.9407043,0.39148736,509.9407043,0.3920839429,
509.0322571,0.1968264282,509.0322571,0.1894566268,509.0322571,0.3677740693,509.0322571,0.3827311099,509.0322571,0.3879064023,509.0322571,0.3886474073,
507.9721985,0.1948337257,507.9721985,0.1877540797,507.9721985,0.3624460101,507.9721985,0.3775833249,507.9721985,0.3825359046,507.9721985,0.3831695318,
507.0633545,0.1931874156,507.0633545,0.1860020459,507.0633545,0.3582992852,507.0633545,0.3733964562,507.0633545,0.3780895472,507.0633545,0.3787399232,
506.0028687,0.1909832358,506.0028687,0.1839067936,506.0028687,0.3534631729,506.0028687,0.3681670427,506.0028687,0.3729777634,506.0028687,0.3734363914,
504.9421082,0.1889975816,504.9421082,0.1819147319,504.9421082,0.349064976,504.9421082,0.3633753061,504.9421082,0.3681129515,504.9421082,0.368242979,
504.0326843,0.1873935014,504.0326843,0.1805518717,504.0326843,0.3453522921,504.0326843,0.3591774106,504.0326843,0.364218235,504.0326843,0.3647030592,
502.9714966,0.1855777055,502.9714966,0.1788579077,502.9714966,0.3410464525,502.9714966,0.3548708856,502.9714966,0.3594225943,502.9714966,0.3600868285,
502.0617065,0.1837913692,502.0617065,0.177194804,502.0617065,0.336019665,502.0617065,0.3494055271,502.0617065,0.3543915749,502.0617065,0.3546752036,
501.0000916,0.1819702685,501.0000916,0.175379321,501.0000916,0.3316541314,501.0000916,0.344830662,501.0000916,0.3493813276,501.0000916,0.3501211703,
499.9382019,0.1797296554,499.9382019,0.1735923439,499.9382019,0.3272733986,499.9382019,0.340051949,499.9382019,0.3446453214,499.9382019,0.3448639214,
499.027832,0.1787865907,499.027832,0.1722666323,499.027832,0.3242866397,499.027832,0.336555928,499.027832,0.3407985866,499.027832,0.3413095772,
497.9655457,0.1769097149,497.9655457,0.1705197394,497.9655457,0.3197493553,497.9655457,0.3317273259,497.9655457,0.3361725509,497.9655457,0.3367036581,
497.0548096,0.1756162792,497.0548096,0.1693546325,497.0548096,0.3160832226,497.0548096,0.3280292153,497.0548096,0.3320967257,497.0548096,0.3324882388,
495.9920654,0.1737575829,495.9920654,0.1676039696,495.9920654,0.3119315207,495.9920654,0.3231607974,495.9920654,0.3273188472,495.9920654,0.3276178241,
494.9290771,0.172154218,494.9290771,0.1662014425,494.9290771,0.3076420128,494.9290771,0.3192179203,494.9290771,0.3229319155,494.9290771,0.3233897984,
494.0177612,0.1710375845,494.0177612,0.1649976671,494.0177612,0.3045715988,494.0177612,0.3160008192,494.0177612,0.3195800185,494.0177612,0.3200343251,
492.9543457,0.1696855873,492.9543457,0.1637388766,492.9543457,0.3012524843,492.9543457,0.3117952943,492.9543457,0.3155917823,492.9543457,0.3161771894,
492.0426636,0.1686119884,492.0426636,0.1628310084,492.0426636,0.2986705005,492.0426636,0.3090214729,492.0426636,0.3128516674,492.0426636,0.3131791055,
490.9788208,0.1673488915,490.9788208,0.1613506526,490.9788208,0.295203656,490.9788208,0.3056333661,490.9788208,0.308690697,490.9788208,0.3093347847,
490.0667725,0.1661063433,490.0667725,0.1602779627,490.0667725,0.2919982672,490.0667725,0.3020765185,490.0667725,0.3052342534,490.0667725,0.3055620492,
489.0024719,0.1647384316,489.0024719,0.1591469049,489.0024719,0.288877219,489.0024719,0.2984820306,489.0024719,0.3016990423,489.0024719,0.3019167185,
487.9379883,0.1635687053,487.9379883,0.1581823975,487.9379883,0.2859195173,487.9379883,0.295460254,487.9379883,0.2982239723,487.9379883,0.2988590002,
487.0253601,0.1629326195,487.0253601,0.1573604941,487.0253601,0.2841844261,487.0253601,0.2935070992,487.0253601,0.2962872088,487.0253601,0.2971500456,
485.9604187,0.1619176567,485.9604187,0.156508863,485.9604187,0.2814359069,485.9604187,0.2902472913,485.9604187,0.2930563092,485.9604187,0.2936626971,
485.0474548,0.1610792577,485.0474548,0.1558189243,485.0474548,0.279294014,485.0474548,0.2875583172,485.0474548,0.2905200124,485.0474548,0.2905392945,
483.9820862,0.1599324495,483.9820862,0.1548263431,483.9820862,0.2767793834,483.9820862,0.285023272,483.9820862,0.2875268459,483.9820862,0.2880803049,
483.0687256,0.1594017744,483.0687256,0.1540402621,483.0687256,0.2750171721,483.0687256,0.2831229568,483.0687256,0.2855416834,483.0687256,0.2860940099,
482.0029602,0.1589198858,482.0029602,0.1533449441,482.0029602,0.2730306089,482.0029602,0.2811408639,482.0029602,0.2834834754,482.0029602,0.2837257981,
480.9369202,0.1577109694,480.9369202,0.1526974291,480.9369202,0.2708098888,480.9369202,0.2783883512,480.9369202,0.2806716263,480.9369202,0.2811412513,
480.0230408,0.1575214118,480.0230408,0.1521566212,480.0230408,0.2696093619,480.0230408,0.2770990133,480.0230408,0.2791350782,480.0230408,0.2800046802,
478.956604,0.1568551958,478.956604,0.1517692506,478.956604,0.2675768733,478.956604,0.2749243677,478.956604,0.2771394551,478.956604,0.2774820328,
478.0423279,0.1562817693,478.0423279,0.1513766646,478.0423279,0.2663017213,478.0423279,0.2734927237,478.0423279,0.2753169537,478.0423279,0.2758344412,
476.9754639,0.15580374,476.9754639,0.1508285552,476.9754639,0.2645969689,476.9754639,0.2714981139,476.9754639,0.2731289268,476.9754639,0.2741433084,
476.0608521,0.1552872062,476.0608521,0.1499836296,476.0608521,0.2635982037,476.0608521,0.2706145048,476.0608521,0.2721375227,476.0608521,0.2728399336,
474.9935913,0.1551086903,474.9935913,0.1499031633,474.9935913,0.2623613179,474.9935913,0.2692743838,474.9935913,0.270557791,474.9935913,0.2714002728,
473.9260864,0.1543868035,473.9260864,0.1496829987,473.9260864,0.260848701,473.9260864,0.267224431,473.9260864,0.2688601017,473.9260864,0.2696077824,
473.0108948,0.1543562263,473.0108948,0.1493314952,473.0108948,0.260091871,473.0108948,0.2660270929,473.0108948,0.2680490017,473.0108948,0.2684590518,
471.9429932,0.1539242119,471.9429932,0.1488908082,471.9429932,0.2587660551,471.9429932,0.2649731338,471.9429932,0.2667120993,471.9429932,0.2670637369,
471.0274658,0.1534904391,471.0274658,0.1488263011,471.0274658,0.2579911053,471.0274658,0.2636628747,471.0274658,0.2654647529,471.0274658,0.2658497393,
469.959137,0.1533252001,469.959137,0.1485844105,469.959137,0.2572818995,469.959137,0.2630239427,469.959137,0.2644061148,469.959137,0.2648763359,
469.0432739,0.1531852484,469.0432739,0.1484488547,469.0432739,0.2565358281,469.0432739,0.261923641,469.0432739,0.2632844746,469.0432739,0.2639840543,
467.9745178,0.1529775113,467.9745178,0.1483789384,467.9745178,0.2557088435,467.9745178,0.2614906728,467.9745178,0.2622848153,467.9745178,0.2629852295,
467.0582886,0.1529570818,467.0582886,0.1483897567,467.0582886,0.2550766766,467.0582886,0.2606891096,467.0582886,0.2618417442,467.0582886,0.2622850239,
465.9891357,0.1526552588,465.9891357,0.1482709795,465.9891357,0.2543014586,465.9891357,0.2597063482,465.9891357,0.2609259784,465.9891357,0.2615086436,
465.0725403,0.1527405828,465.0725403,0.1481402814,465.0725403,0.2539078295,465.0725403,0.2593865693,465.0725403,0.2605814338,465.0725403,0.2609803975,
464.0029907,0.1528262943,464.0029907,0.148230955,464.0029907,0.2538000345,464.0029907,0.2589836717,464.0029907,0.2600110173,464.0029907,0.2603590488,
462.9332275,0.1524550021,462.9332275,0.1477205902,462.9332275,0.2528904378,462.9332275,0.2580856085,462.9332275,0.2589262128,462.9332275,0.2593790293,
462.0161133,0.1524255723,462.0161133,0.1478214264,462.0161133,0.252574414,462.0161133,0.2575082183,462.0161133,0.2586252987,462.0161133,0.2588827014,
460.9459229,0.1521475762,460.9459229,0.1477040052,460.9459229,0.2521049082,460.9459229,0.256742239,460.9459229,0.2577231824,460.9459229,0.2583142817,
460.0284424,0.1524086297,460.0284424,0.1477992386,460.0284424,0.2518931031,460.0284424,0.2565118968,460.0284424,0.2573944628,460.0284424,0.2582432032,
458.9578552,0.1521575004,458.9578552,0.1476652026,458.9578552,0.2514972985,458.9578552,0.2561934292,458.9578552,0.2569397688,458.9578552,0.2576838732,
458.0400391,0.1523245126,458.0400391,0.1477686465,458.0400391,0.2514108717,458.0400391,0.2560410798,458.0400391,0.2568068504,458.0400391,0.2572276592,
456.9690552,0.1522527635,456.9690552,0.1478476226,456.9690552,0.2511457205,456.9690552,0.2557843626,456.9690552,0.2565120459,456.9690552,0.256926626,
456.0509033,0.1523138434,456.0509033,0.1478578448,456.0509033,0.2507950068,456.0509033,0.2554517388,456.0509033,0.2561231554,456.0509033,0.2563444972,
454.9795227,0.1523352116,454.9795227,0.1476947963,454.9795227,0.2506630123,454.9795227,0.2551577687,454.9795227,0.2558736801,454.9795227,0.2563813627,
454.0610352,0.152195394,454.0610352,0.1477379054,454.0610352,0.2507396638,454.0610352,0.2548754811,454.0610352,0.2554875314,454.0610352,0.2562755644,
452.9892273,0.1523768604,452.9892273,0.1479362696,452.9892273,0.2504673004,452.9892273,0.2548618019,452.9892273,0.2555421591,452.9892273,0.2559318841,
452.0704041,0.1522312611,452.0704041,0.1478547901,452.0704041,0.2501794994,452.0704041,0.2545351982,452.0704041,0.2551460564,452.0704041,0.2556250691,
450.9981995,0.1524973214,450.9981995,0.1481283158,450.9981995,0.2504967451,450.9981995,0.2545597553,450.9981995,0.2550901473,450.9981995,0.2556536496,
449.9258118,0.1524199098,449.9258118,0.1479668021,449.9258118,0.2502692342,449.9258118,0.2541603446,449.9258118,0.2549271584,449.9258118,0.2551613152,
449.0064392,0.1525236964,449.0064392,0.1479939818,449.0064392,0.2502863705,449.0064392,0.2542574406,449.0064392,0.2547050118,449.0064392,0.2552960217,
447.9336548,0.1525615305,447.9336548,0.1481522322,447.9336548,0.25023368,447.9336548,0.2542516291,447.9336548,0.2545801401,447.9336548,0.2551304996,
447.0139771,0.1527892053,447.0139771,0.1481611431,447.0139771,0.2503247857,447.0139771,0.2542561293,447.0139771,0.2545928657,447.0139771,0.2551621497,
445.9407959,0.1529177576,445.9407959,0.1483362466,445.9407959,0.2503673434,445.9407959,0.254036516,445.9407959,0.2544962168,445.9407959,0.2549786568,
445.020752,0.1529016048,445.020752,0.1481254995,445.020752,0.2503620982,445.020752,0.2541247904,445.020752,0.2544903457,445.020752,0.255071342,
443.9471741,0.1528022587,443.9471741,0.1483011395,443.9471741,0.250202626,443.9471741,0.253965795,443.9471741,0.2545619309,443.9471741,0.2547795177,
443.0267944,0.1531154066,443.0267944,0.1485839337,443.0267944,0.2505326271,443.0267944,0.2541486621,443.0267944,0.2547448874,443.0267944,0.2549991906,
441.9528503,0.1533176005,441.9528503,0.1488419771,441.9528503,0.2507322133,441.9528503,0.254460305,441.9528503,0.2548100054,441.9528503,0.2551549375,
441.032135,0.1533577293,441.032135,0.1488278657,441.032135,0.2507622242,441.032135,0.2543355525,441.032135,0.2546757758,441.032135,0.2553217709,
439.9577942,0.1533739418,439.9577942,0.1488668174,439.9577942,0.2508706152,439.9577942,0.2546056211,439.9577942,0.2547728717,439.9577942,0.2553278804,
439.0367432,0.1535528153,439.0367432,0.1491617262,439.0367432,0.2511844635,439.0367432,0.254537195,439.0367432,0.2550548017,439.0367432,0.2555931807,
437.9620361,0.1536678523,437.9620361,0.149178803,437.9620361,0.2512575388,437.9620361,0.2546998858,437.9620361,0.2551381588,437.9620361,0.2555270195,
437.0406494,0.1537648141,437.0406494,0.1493337601,437.0406494,0.2513371408,437.0406494,0.2548032105,437.0406494,0.2550819516,437.0406494,0.2555581927,
435.9655457,0.1541918665,435.9655457,0.1495722979,435.9655457,0.2517903447,435.9655457,0.2551249564,435.9655457,0.2555416524,435.9655457,0.2561113834,
435.0438538,0.154068023,435.0438538,0.149536103,435.0438538,0.2517202795,435.0438538,0.2552384138,435.0438538,0.2554843426,435.0438538,0.2560421228,
433.9683533,0.154251501,433.9683533,0.149647966,433.9683533,0.251911819,433.9683533,0.2553368509,433.9683533,0.2557140589,433.9683533,0.2561851144,
433.0463257,0.154435426,433.0463257,0.149816528,433.0463257,0.2523219883,433.0463257,0.2557225823,433.0463257,0.2558152676,433.0463257,0.2564622462,
431.970459,0.1544508636,431.970459,0.1499448419,431.970459,0.252530992,431.970459,0.2559930682,431.970459,0.2562295794,431.970459,0.2566347122,
431.0480957,0.1548482329,431.0480957,0.1502511352,431.0480957,0.2529078722,431.0480957,0.2562564611,431.0480957,0.2564965785,431.0480957,0.2570830584,
429.9718323,0.1549167633,429.9718323,0.1504305899,429.9718323,0.2531388104,429.9718323,0.2564524114,429.9718323,0.2565465271,429.9718323,0.2572316527,
429.0491638,0.1550320834,429.0491638,0.1503929347,429.0491638,0.2533950508,429.0491638,0.2566789389,429.0491638,0.2570920885,429.0491638,0.2575135827,
427.9725342,0.1552157402,427.9725342,0.1507522166,427.9725342,0.2537617683,427.9725342,0.2570467591,427.9725342,0.2572970688,427.9725342,0.2577481568,
427.0495605,0.1553712785,427.0495605,0.1507755518,427.0495605,0.2538438737,427.0495605,0.2570065558,427.0495605,0.2573246062,427.0495605,0.2577969134,
425.9725342,0.1554115862,425.9725342,0.150936529,425.9725342,0.2541852593,425.9725342,0.2573575675,425.9725342,0.2576065361,425.9725342,0.2581743002,
425.0492249,0.1556449383,425.0492249,0.1510109305,425.0492249,0.2543696165,425.0492249,0.2576468587,425.0492249,0.2578971982,425.0492249,0.2583995461,
423.9718628,0.1559155136,423.9718628,0.1514086872,423.9718628,0.2549066842,423.9718628,0.2582802773,423.9718628,0.2583194971,423.9718628,0.2588518262,
423.0482178,0.1561535448,423.0482178,0.1515587568,423.0482178,0.2552542984,423.0482178,0.2584963441,423.0482178,0.2588232756,423.0482178,0.2592139244,
421.970459,0.1562949717,421.970459,0.1517778486,421.970459,0.2556396127,421.970459,0.258859247,421.970459,0.2592025399,421.970459,0.2594840825,
421.0465088,0.1562989503,421.0465088,0.1517082453,421.0465088,0.2557652295,421.0465088,0.2590419054,421.0465088,0.2591379881,421.0465088,0.2596130073,
419.9683838,0.156446889,419.9683838,0.1518170983,419.9683838,0.2562086582,419.9683838,0.2594256997,419.9683838,0.2596315145,419.9683838,0.2601917982,
419.0441284,0.1568887383,419.0441284,0.1523024589,419.0441284,0.2568308413,419.0441284,0.2599138021,419.0441284,0.2602579594,419.0441284,0.2608852088,
417.9656372,0.1570791751,417.9656372,0.1524877548,417.9656372,0.2572726309,417.9656372,0.2604744136,417.9656372,0.2606359422,417.9656372,0.2609791458,
417.0410461,0.1572249979,417.0410461,0.152525574,417.0410461,0.2574420869,417.0410461,0.2606727481,417.0410461,0.2609559596,417.0410461,0.261384815,
415.9621887,0.1575917006,415.9621887,0.1529831737,415.9621887,0.258064121,415.9621887,0.2613611817,415.9621887,0.2617008388,415.9621887,0.2619735003,
415.037323,0.1576578617,415.037323,0.1530792117,415.037323,0.2582936287,415.037323,0.2614920139,415.037323,0.2619410753,415.037323,0.2623349428,
413.9580994,0.1582050472,413.9580994,0.1533919722,413.9580994,0.2590604722,413.9580994,0.2624408305,413.9580994,0.2625819743,413.9580994,0.2631061077,
413.0328979,0.1580301374,413.0328979,0.1531833708,413.0328979,0.259201318,413.0328979,0.2624182105,413.0328979,0.2626264393,413.0328979,0.2630705535,
411.9533081,0.1583102942,411.9533081,0.153498888,411.9533081,0.2596588433,411.9533081,0.2628841698,411.9533081,0.263171941,411.9533081,0.2636039257,
411.027771,0.1584009826,411.027771,0.1537438631,411.027771,0.2601088583,411.027771,0.2634255588,411.027771,0.2634288371,411.027771,0.2641706765,
409.9478455,0.1584372967,409.9478455,0.1537151337,409.9478455,0.26045084,409.9478455,0.2636104226,409.9478455,0.2638915181,409.9478455,0.2644924819,
409.0220032,0.1588572115,409.0220032,0.1541187018,409.0220032,0.2609514296,409.0220032,0.2644748986,409.0220032,0.264644444,409.0220032,0.2651488781,
407.9417114,0.1590797305,407.9417114,0.1544110775,407.9417114,0.2615896165,407.9417114,0.2648998499,407.9417114,0.2651005685,407.9417114,0.2656748891,
407.0155945,0.1592735946,407.0155945,0.154498741,407.0155945,0.2619277835,407.0155945,0.2652896345,407.0155945,0.2656026781,407.0155945,0.2659767866,
405.934906,0.1595503539,405.934906,0.1548326015,405.934906,0.2627582848,405.934906,0.2661899924,405.934906,0.26611045,405.934906,0.2669496536,
405.0084839,0.1597904712,405.0084839,0.1553864926,405.0084839,0.2633492053,405.0084839,0.266695857,405.0084839,0.267069608,405.0084839,0.2674019039,
403.9274597,0.1597844511,403.9274597,0.1549940556,403.9274597,0.2636342049,403.9274597,0.2666636407,403.9274597,0.2671259642,403.9274597,0.2675901651,
403.0007324,0.1601694822,403.0007324,0.1555027217,403.0007324,0.2642481327,403.0007324,0.2677389681,403.0007324,0.2679455578,403.0007324,0.268458277,
402.0738525,0.1605313271,402.0738525,0.1556885093,402.0738525,0.2648476064,402.0738525,0.2683949172,402.0738525,0.2686212361,402.0738525,0.2690828443,
400.9923096,0.1605482548,400.9923096,0.1558588743,400.9923096,0.2651602328,400.9923096,0.2687825561,400.9923096,0.2690437436,400.9923096,0.269559443,
400.0651245,0.1608452201,400.0651245,0.1561455727,400.0651245,0.2656360269,400.0651245,0.2693977654,400.0651245,0.2696872056,400.0651245,0.2701382935,

Direct 100x 4hr,
Direct 100x 4hr
Collection Time: 10/4/2015 5:44:39 PM
Operator Name  :
Scan Version 5.0.0.999
Parameter List :
Instrument  Cary 50
Instrument Version  3.00
Start (nm)  700.0
Stop (nm)  400.0
X Mode  Nanometers
Y Mode  Abs
UV-Vis Scan Rate (nm/min)  600.000
UV-Vis Data Interval (nm)  1.00
UV-Vis Ave. Time (sec)  0.1000
Beam Mode  Dual Beam
Baseline Correction  On
Baseline Type  Baseline correction
Baseline File Name
Baseline Std Ref File Name
Cycle Mode  Off
Method Log     :
Method Name    : C:\Users\heatherweltner\Documents\Au Standard.MSW
Date/Time stamp: 7/3/2015 11:24:50 AM
Method Modifications:
UVVIS SAT Changed: 7/1/2015 11:30:22 AM, Old:0.0125, New:0.1000
Common SAT Changed: 7/1/2015 11:30:22 AM, Old:0.0125, New:0.1000
X Start nm Changed: 7/1/2015 11:30:31 AM, Old:  800.0, New:  700.0
X Stop nm Changed: 7/1/2015 11:30:31 AM, Old:  200.0, New:  300.0
Common Interval nm Changed: 7/1/2015 11:30:31 AM, Old:     5.00, New:     1.00
Baseline Correction Changed: 7/1/2015 11:30:31 AM, Old:0, New:1
Saved as C:\Users\heatherweltner\Documents\Au Standard.MSWOpened C:\Users\heatherweltner\Documents\Au Standard.MSW
X Stop nm Changed: 7/3/2015 11:24:45 AM, Old:  300.0, New:  400.0
Saved as C:\Users\heatherweltner\Documents\Au Standard.MSW
Opened C:\Users\heatherweltner\Documents\Au Standard.MSW
End Method Modifications
<Current Wavelength> , 401.0

Direct 30x 4hr,
Direct 30x 4hr
Collection Time: 10/4/2015 5:45:33 PM
Operator Name  :
Scan Version 5.0.0.999
Parameter List :
Instrument  Cary 50
Instrument Version  3.00
Start (nm)  700.0
Stop (nm)  400.0
X Mode  Nanometers
Y Mode  Abs
UV-Vis Scan Rate (nm/min)  600.000
UV-Vis Data Interval (nm)  1.00
UV-Vis Ave. Time (sec)  0.1000
Beam Mode  Dual Beam
Baseline Correction  On
Baseline Type  Baseline correction
Baseline File Name
Baseline Std Ref File Name
Cycle Mode  Off
Method Log     :
Method Name    : C:\Users\heatherweltner\Documents\Au Standard.MSW
Date/Time stamp: 7/3/2015 11:24:50 AM
Method Modifications:
UVVIS SAT Changed: 7/1/2015 11:30:22 AM, Old:0.0125, New:0.1000
Common SAT Changed: 7/1/2015 11:30:22 AM, Old:0.0125, New:0.1000
X Start nm Changed: 7/1/2015 11:30:31 AM, Old:  800.0, New:  700.0
X Stop nm Changed: 7/1/2015 11:30:31 AM, Old:  200.0, New:  300.0
Common Interval nm Changed: 7/1/2015 11:30:31 AM, Old:     5.00, New:     1.00
Baseline Correction Changed: 7/1/2015 11:30:31 AM, Old:0, New:1
Saved as C:\Users\heatherweltner\Documents\Au Standard.MSWOpened C:\Users\heatherweltner\Documents\Au Standard.MSW
X Stop nm Changed: 7/3/2015 11:24:45 AM, Old:  300.0, New:  400.0
Saved as C:\Users\heatherweltner\Documents\Au Standard.MSW
Opened C:\Users\heatherweltner\Documents\Au Standard.MSW
End Method Modifications
<Current Wavelength> , 401.0

Direct 10x 4hr,
Direct 10x 4hr
Collection Time: 10/4/2015 5:47:49 PM
Operator Name  :
Scan Version 5.0.0.999
Parameter List :
Instrument  Cary 50
Instrument Version  3.00
Start (nm)  700.0
Stop (nm)  400.0
X Mode  Nanometers
Y Mode  Abs
UV-Vis Scan Rate (nm/min)  600.000
UV-Vis Data Interval (nm)  1.00
UV-Vis Ave. Time (sec)  0.1000
Beam Mode  Dual Beam
Baseline Correction  On
Baseline Type  Baseline correction
Baseline File Name
Baseline Std Ref File Name
Cycle Mode  Off
Method Log     :
Method Name    : C:\Users\heatherweltner\Documents\Au Standard.MSW
Date/Time stamp: 7/3/2015 11:24:50 AM
Method Modifications:
UVVIS SAT Changed: 7/1/2015 11:30:22 AM, Old:0.0125, New:0.1000
Common SAT Changed: 7/1/2015 11:30:22 AM, Old:0.0125, New:0.1000
X Start nm Changed: 7/1/2015 11:30:31 AM, Old:  800.0, New:  700.0
X Stop nm Changed: 7/1/2015 11:30:31 AM, Old:  200.0, New:  300.0
Common Interval nm Changed: 7/1/2015 11:30:31 AM, Old:     5.00, New:     1.00
Baseline Correction Changed: 7/1/2015 11:30:31 AM, Old:0, New:1
Saved as C:\Users\heatherweltner\Documents\Au Standard.MSWOpened C:\Users\heatherweltner\Documents\Au Standard.MSW
X Stop nm Changed: 7/3/2015 11:24:45 AM, Old:  300.0, New:  400.0
Saved as C:\Users\heatherweltner\Documents\Au Standard.MSW
Opened C:\Users\heatherweltner\Documents\Au Standard.MSW
End Method Modifications
<Current Wavelength> , 401.0

Direct 3x 4hr,
Direct 3x 4hr
Collection Time: 10/4/2015 5:48:50 PM
Operator Name  :
Scan Version 5.0.0.999
Parameter List :
Instrument  Cary 50
Instrument Version  3.00
Start (nm)  700.0
Stop (nm)  400.0
X Mode  Nanometers
Y Mode  Abs
UV-Vis Scan Rate (nm/min)  600.000
UV-Vis Data Interval (nm)  1.00
UV-Vis Ave. Time (sec)  0.1000
Beam Mode  Dual Beam
Baseline Correction  On
Baseline Type  Baseline correction
Baseline File Name
Baseline Std Ref File Name
Cycle Mode  Off
Method Log     :
Method Name    : C:\Users\heatherweltner\Documents\Au Standard.MSW
Date/Time stamp: 7/3/2015 11:24:50 AM
Method Modifications:
UVVIS SAT Changed: 7/1/2015 11:30:22 AM, Old:0.0125, New:0.1000
Common SAT Changed: 7/1/2015 11:30:22 AM, Old:0.0125, New:0.1000
X Start nm Changed: 7/1/2015 11:30:31 AM, Old:  800.0, New:  700.0
X Stop nm Changed: 7/1/2015 11:30:31 AM, Old:  200.0, New:  300.0
Common Interval nm Changed: 7/1/2015 11:30:31 AM, Old:     5.00, New:     1.00
Baseline Correction Changed: 7/1/2015 11:30:31 AM, Old:0, New:1
Saved as C:\Users\heatherweltner\Documents\Au Standard.MSWOpened C:\Users\heatherweltner\Documents\Au Standard.MSW
X Stop nm Changed: 7/3/2015 11:24:45 AM, Old:  300.0, New:  400.0
Saved as C:\Users\heatherweltner\Documents\Au Standard.MSW
Opened C:\Users\heatherweltner\Documents\Au Standard.MSW
End Method Modifications
<Current Wavelength> , 401.0

Direct 1x 4hr,
Direct 1x 4hr
Collection Time: 10/4/2015 5:49:36 PM
Operator Name  :
Scan Version 5.0.0.999
Parameter List :
Instrument  Cary 50
Instrument Version  3.00
Start (nm)  700.0
Stop (nm)  400.0
X Mode  Nanometers
Y Mode  Abs
UV-Vis Scan Rate (nm/min)  600.000
UV-Vis Data Interval (nm)  1.00
UV-Vis Ave. Time (sec)  0.1000
Beam Mode  Dual Beam
Baseline Correction  On
Baseline Type  Baseline correction
Baseline File Name
Baseline Std Ref File Name
Cycle Mode  Off
Method Log     :
Method Name    : C:\Users\heatherweltner\Documents\Au Standard.MSW
Date/Time stamp: 7/3/2015 11:24:50 AM
Method Modifications:
UVVIS SAT Changed: 7/1/2015 11:30:22 AM, Old:0.0125, New:0.1000
Common SAT Changed: 7/1/2015 11:30:22 AM, Old:0.0125, New:0.1000
X Start nm Changed: 7/1/2015 11:30:31 AM, Old:  800.0, New:  700.0
X Stop nm Changed: 7/1/2015 11:30:31 AM, Old:  200.0, New:  300.0
Common Interval nm Changed: 7/1/2015 11:30:31 AM, Old:     5.00, New:     1.00
Baseline Correction Changed: 7/1/2015 11:30:31 AM, Old:0, New:1
Saved as C:\Users\heatherweltner\Documents\Au Standard.MSWOpened C:\Users\heatherweltner\Documents\Au Standard.MSW
X Stop nm Changed: 7/3/2015 11:24:45 AM, Old:  300.0, New:  400.0
Saved as C:\Users\heatherweltner\Documents\Au Standard.MSW
Opened C:\Users\heatherweltner\Documents\Au Standard.MSW
End Method Modifications
<Current Wavelength> , 401.0

Direct 0x 4hr,
Direct 0x 4hr
Collection Time: 10/4/2015 5:50:25 PM
Operator Name  :
Scan Version 5.0.0.999
Parameter List :
Instrument  Cary 50
Instrument Version  3.00
Start (nm)  700.0
Stop (nm)  400.0
X Mode  Nanometers
Y Mode  Abs
UV-Vis Scan Rate (nm/min)  600.000
UV-Vis Data Interval (nm)  1.00
UV-Vis Ave. Time (sec)  0.1000
Beam Mode  Dual Beam
Baseline Correction  On
Baseline Type  Baseline correction
Baseline File Name
Baseline Std Ref File Name
Cycle Mode  Off
Method Log     :
Method Name    : C:\Users\heatherweltner\Documents\Au Standard.MSW
Date/Time stamp: 7/3/2015 11:24:50 AM
Method Modifications:
UVVIS SAT Changed: 7/1/2015 11:30:22 AM, Old:0.0125, New:0.1000
Common SAT Changed: 7/1/2015 11:30:22 AM, Old:0.0125, New:0.1000
X Start nm Changed: 7/1/2015 11:30:31 AM, Old:  800.0, New:  700.0
X Stop nm Changed: 7/1/2015 11:30:31 AM, Old:  200.0, New:  300.0
Common Interval nm Changed: 7/1/2015 11:30:31 AM, Old:     5.00, New:     1.00
Baseline Correction Changed: 7/1/2015 11:30:31 AM, Old:0, New:1
Saved as C:\Users\heatherweltner\Documents\Au Standard.MSWOpened C:\Users\heatherweltner\Documents\Au Standard.MSW
X Stop nm Changed: 7/3/2015 11:24:45 AM, Old:  300.0, New:  400.0
Saved as C:\Users\heatherweltner\Documents\Au Standard.MSW
Opened C:\Users\heatherweltner\Documents\Au Standard.MSW
End Method Modifications
<Current Wavelength> , 401.0

