Direct 100x 48hr,,Direct 30x 48hr,,Direct 10x 48hr,,Direct 3x 48hr,,Direct 1x 48hr,,Direct 0x 48hr,,
Wavelength (nm),Abs,Wavelength (nm),Abs,Wavelength (nm),Abs,Wavelength (nm),Abs,Wavelength (nm),Abs,Wavelength (nm),Abs,
700.0142822,0.02276758477,700.0142822,0.0184717197,700.0142822,0.05305702612,700.0142822,0.03823414072,700.0142822,0.03366655111,700.0142822,0.03383634984,
699.0070801,0.02274041623,699.0070801,0.01829343103,699.0070801,0.05353200808,699.0070801,0.0385475494,699.0070801,0.03384606168,699.0070801,0.0341902338,
697.9995728,0.02278880775,697.9995728,0.01847179979,697.9995728,0.05355561152,697.9995728,0.03873992711,697.9995728,0.03423689306,697.9995728,0.0342111811,
696.9916992,0.02284656465,696.9916992,0.01830309629,696.9916992,0.0541754812,696.9916992,0.03928719088,696.9916992,0.03482352197,696.9916992,0.03483261168,
695.9835205,0.02248997055,695.9835205,0.01827288419,695.9835205,0.05491099134,695.9835205,0.03971267864,695.9835205,0.0351880081,695.9835205,0.03533658385,
694.9750366,0.02264050953,694.9750366,0.0184502732,694.9750366,0.0550304465,694.9750366,0.04009273276,694.9750366,0.03550815955,694.9750366,0.03564436734,
693.9661865,0.02315449528,693.9661865,0.01865002699,693.9661865,0.05583431199,693.9661865,0.04089456797,693.9661865,0.03595611081,693.9661865,0.03618757427,
692.9570313,0.02275631949,692.9570313,0.01873920672,692.9570313,0.05598773807,692.9570313,0.04092403501,692.9570313,0.03625130653,692.9570313,0.0366249308,
691.9475098,0.02312009409,691.9475098,0.01813097671,691.9475098,0.05623343214,691.9475098,0.0414994359,691.9475098,0.03674174473,691.9475098,0.03659677133,
690.9376831,0.02325361781,690.9376831,0.01876715384,690.9376831,0.05738011003,690.9376831,0.04214254022,690.9376831,0.03760644794,690.9376831,0.03770262748,
690.0718384,0.02312312461,690.0718384,0.01873661205,690.0718384,0.05701187253,690.0718384,0.04234367982,690.0718384,0.0376710631,690.0718384,0.0378537029,
689.0614624,0.02321647853,689.0614624,0.01887812279,689.0614624,0.05791814253,689.0614624,0.04316463694,689.0614624,0.03785700724,689.0614624,0.03800553828,
688.0507202,0.02337789536,688.0507202,0.01877772249,688.0507202,0.05852108076,688.0507202,0.04381239042,688.0507202,0.03844266757,688.0507202,0.0386438556,
687.0396118,0.02340381965,687.0396118,0.01854470745,687.0396118,0.05880422518,687.0396118,0.04441225156,687.0396118,0.03901875392,687.0396118,0.0391543135,
686.0281982,0.02329458483,686.0281982,0.01895480417,686.0281982,0.05942671001,686.0281982,0.04471563548,686.0281982,0.03965983912,686.0281982,0.03958534077,
685.0164795,0.02326235734,685.0164795,0.01894788258,685.0164795,0.06006840244,685.0164795,0.04494389147,685.0164795,0.03966962546,685.0164795,0.04025467113,
684.0044556,0.02327336371,684.0044556,0.01849516481,684.0044556,0.06070005894,684.0044556,0.04589037597,684.0044556,0.04035115615,684.0044556,0.04050886631,
682.9920654,0.02315490507,682.9920654,0.01907136478,682.9920654,0.06137213483,682.9920654,0.04658376053,682.9920654,0.04074058309,682.9920654,0.04132052511,
681.9793701,0.02333956957,681.9793701,0.01899974793,681.9793701,0.06211714074,681.9793701,0.04710427672,681.9793701,0.04163058475,681.9793701,0.04186078906,
680.9663696,0.023583645,680.9663696,0.01910807192,680.9663696,0.06263891608,680.9663696,0.04779813439,680.9663696,0.04250517488,680.9663696,0.04263619706,
679.9530029,0.02295593359,679.9530029,0.01917367242,679.9530029,0.06288454682,679.9530029,0.0476199016,679.9530029,0.04243018478,679.9530029,0.04264821857,
678.9393921,0.02335669659,678.9393921,0.01941230521,678.9393921,0.06402176619,678.9393921,0.04873441532,678.9393921,0.04346068576,678.9393921,0.04386147112,
678.0702515,0.02359189838,678.0702515,0.01916666701,678.0702515,0.06422750652,678.0702515,0.04929277673,678.0702515,0.04380764067,678.0702515,0.04414449632,
677.0560303,0.02339409478,677.0560303,0.01901857182,677.0560303,0.06505036354,677.0560303,0.04985949025,677.0560303,0.04405435547,677.0560303,0.04462976381,
676.0414429,0.02342092246,676.0414429,0.01930739731,676.0414429,0.0654206425,676.0414429,0.05060706288,676.0414429,0.04439998046,676.0414429,0.04507172108,
675.0265503,0.02340641618,675.0265503,0.01936628856,675.0265503,0.06591530889,675.0265503,0.05090752989,675.0265503,0.04550854862,675.0265503,0.04575853795,
674.0113525,0.02359080501,674.0113525,0.01959787682,674.0113525,0.06674578786,674.0113525,0.05186524615,674.0113525,0.04641178623,674.0113525,0.04642670974,
672.9957886,0.02369207889,672.9957886,0.0194399152,672.9957886,0.0679930374,672.9957886,0.05304541439,672.9957886,0.04650305212,672.9957886,0.04717918113,
671.9799805,0.02388569713,671.9799805,0.0196742788,671.9799805,0.06871898472,671.9799805,0.05354588851,671.9799805,0.04766207561,671.9799805,0.04793275893,
670.9638062,0.02407332882,670.9638062,0.01994063891,670.9638062,0.0693429485,670.9638062,0.05443822592,670.9638062,0.04843278602,670.9638062,0.04866983742,
669.9473267,0.02405097522,669.9473267,0.0200701803,669.9473267,0.07009577006,669.9473267,0.05463530868,669.9473267,0.04886724427,669.9473267,0.04942337051,
668.930542,0.02410605364,668.930542,0.01973303221,668.930542,0.07095379382,668.930542,0.05562965572,668.930542,0.0499002859,668.930542,0.04997779429,
668.0587158,0.02377669699,668.0587158,0.01934994198,668.0587158,0.0711665377,668.0587158,0.05600962043,668.0587158,0.04979097471,668.0587158,0.05050579831,
667.0413208,0.02373803593,667.0413208,0.01944600791,667.0413208,0.07158523053,667.0413208,0.05685681477,667.0413208,0.05081990361,667.0413208,0.0509705469,
666.0236206,0.02396387048,666.0236206,0.01951983757,666.0236206,0.07322850823,666.0236206,0.05807976052,666.0236206,0.05189339444,666.0236206,0.05204406381,
665.0056152,0.02459482104,665.0056152,0.02033510245,665.0056152,0.07435943931,665.0056152,0.05904395506,665.0056152,0.0528706871,665.0056152,0.05356618017,
663.9873047,0.02384311706,663.9873047,0.01977220364,663.9873047,0.07438951731,663.9873047,0.05967287347,663.9873047,0.05322743952,663.9873047,0.05337110534,
662.968689,0.02433427051,662.968689,0.02042240463,662.968689,0.07632429153,662.968689,0.06095516309,662.968689,0.0544506982,662.968689,0.05493737012,
661.949707,0.02451415174,661.949707,0.02019501477,661.949707,0.07665007561,661.949707,0.06175566837,661.949707,0.05523158982,661.949707,0.05588227138,
660.9304199,0.02438056841,660.9304199,0.02024529316,660.9304199,0.0780672729,660.9304199,0.06254464388,660.9304199,0.05631337687,660.9304199,0.05661885068,
660.0565186,0.02421289496,660.0565186,0.02030529082,660.0565186,0.07856903225,660.0565186,0.0635061115,660.0565186,0.0567574203,660.0565186,0.05709305033,
659.0366821,0.02460082062,659.0366821,0.02051957697,659.0366821,0.07942023128,659.0366821,0.06409379095,659.0366821,0.05756928027,659.0366821,0.05807857588,
658.0165405,0.02408172935,658.0165405,0.02027369104,658.0165405,0.08042874187,658.0165405,0.06485571712,658.0165405,0.05827270076,658.0165405,0.05876714736,
656.9960938,0.02448862605,656.9960938,0.02014967427,656.9960938,0.08123406023,656.9960938,0.06607688963,656.9960938,0.059455771,656.9960938,0.05955050141,
655.9752808,0.0245433785,655.9752808,0.02059196122,655.9752808,0.08245463669,655.9752808,0.06731992215,655.9752808,0.06056540459,655.9752808,0.06110790744,
654.9542236,0.02461632527,654.9542236,0.02062488534,654.9542236,0.08352123946,654.9542236,0.06837909669,654.9542236,0.06141677126,654.9542236,0.06191752851,
653.9328003,0.02429022267,653.9328003,0.02047653683,653.9328003,0.08450112492,653.9328003,0.06944925338,653.9328003,0.06231026724,653.9328003,0.06283281744,
653.0570679,0.02466999739,653.0570679,0.02044600993,653.0570679,0.08546692878,653.0570679,0.07043240964,653.0570679,0.06349693984,653.0570679,0.06372372061,
652.0350952,0.02483779378,652.0350952,0.02061739378,652.0350952,0.08657489717,652.0350952,0.07159466296,652.0350952,0.06440349668,652.0350952,0.06458076835,
651.0128174,0.02486361377,651.0128174,0.02093952894,651.0128174,0.08771462739,651.0128174,0.07261484861,651.0128174,0.06527534127,651.0128174,0.06540956348,
649.9902344,0.02477593534,649.9902344,0.02075832337,649.9902344,0.0890115276,649.9902344,0.07353008538,649.9902344,0.06653610617,649.9902344,0.06702326238,
648.9673462,0.02504846081,648.9673462,0.02073005773,648.9673462,0.09024478495,648.9673462,0.07478358597,648.9673462,0.06778731942,648.9673462,0.06800992787,
647.9441528,0.0251289811,647.9441528,0.02099907771,647.9441528,0.09127197415,647.9441528,0.07643941045,647.9441528,0.0688110292,647.9441528,0.0694205761,
647.0668945,0.02513465844,647.0668945,0.02117084339,647.0668945,0.09231716394,647.0668945,0.07732086629,647.0668945,0.06975495815,647.0668945,0.0699833259,
646.0430908,0.02547740005,646.0430908,0.02146230079,646.0430908,0.09366438538,646.0430908,0.07850529253,646.0430908,0.07120298594,646.0430908,0.07155006379,
645.019043,0.02491282113,645.019043,0.02138259262,645.019043,0.09471020103,645.019043,0.0794294253,645.019043,0.07202152163,645.019043,0.07255687565,
643.9946899,0.02547064796,643.9946899,0.02180109359,643.9946899,0.0965905264,643.9946899,0.08120023459,643.9946899,0.07383637875,643.9946899,0.07406892627,
642.9699707,0.0255161617,642.9699707,0.02182289772,642.9699707,0.09779854119,642.9699707,0.0827910006,642.9699707,0.07523317635,642.9699707,0.07543986291,
641.9450073,0.02522397414,641.9450073,0.02147698775,641.9450073,0.098950468,641.9450073,0.08392412961,641.9450073,0.07594510168,641.9450073,0.07673815638,
641.0662231,0.02552975155,641.0662231,0.02144065127,641.0662231,0.1002909914,641.0662231,0.08510703593,641.0662231,0.07735074311,641.0662231,0.07783412188,
640.0406494,0.02555047907,640.0406494,0.02160731331,640.0406494,0.1015076935,640.0406494,0.08701845258,640.0406494,0.07856496423,640.0406494,0.07945299149,
639.0148315,0.02556258626,639.0148315,0.02183299512,639.0148315,0.1029281914,639.0148315,0.08828824759,639.0148315,0.08030536026,639.0148315,0.0806119293,
637.9886475,0.02522734925,637.9886475,0.02196035162,637.9886475,0.1044512987,637.9886475,0.08978012949,637.9886475,0.08151257783,637.9886475,0.08213813603,
636.9622192,0.0256609153,636.9622192,0.02213421464,636.9622192,0.1059881523,636.9622192,0.0915543884,636.9622192,0.08332979679,636.9622192,0.08394236863,
635.9354248,0.02599992417,635.9354248,0.02205767855,635.9354248,0.1077115461,635.9354248,0.09305462986,635.9354248,0.0845644623,635.9354248,0.08539155126,
635.0551147,0.0257684961,635.0551147,0.02241127379,635.0551147,0.1092501432,635.0551147,0.09461323917,635.0551147,0.08625844866,635.0551147,0.08659240603,
634.027832,0.02559918538,634.027832,0.02204174548,634.027832,0.1105831265,634.027832,0.0962484777,634.027832,0.08741924912,634.027832,0.08803638816,
633.0002441,0.02592679672,633.0002441,0.02210926265,633.0002441,0.1117668971,633.0002441,0.09735262394,633.0002441,0.08889579028,633.0002441,0.08948273957,
631.97229,0.02589879744,631.97229,0.02259336039,631.97229,0.1138750389,631.97229,0.09962251037,631.97229,0.090876095,631.97229,0.0912899226,
630.9440918,0.02574921399,630.9440918,0.02251025476,630.9440918,0.115415439,630.9440918,0.1010337397,630.9440918,0.09233246744,630.9440918,0.09313318133,
630.062561,0.02606247924,630.062561,0.02284200862,630.062561,0.1176362261,630.062561,0.1031912714,630.062561,0.09412894398,630.062561,0.09485538304,
629.0338135,0.02640609257,629.0338135,0.02289027721,629.0338135,0.1192038879,629.0338135,0.1049222052,629.0338135,0.09611519426,629.0338135,0.09666606784,
628.0046997,0.02593726665,628.0046997,0.02276793867,628.0046997,0.1209527329,628.0046997,0.1068986878,628.0046997,0.09779491276,628.0046997,0.09840652347,
626.9754028,0.02617862634,626.9754028,0.02292970754,626.9754028,0.1225391924,626.9754028,0.1085876822,626.9754028,0.09950634837,626.9754028,0.1003177017,
625.9457397,0.02605085261,625.9457397,0.02312052995,625.9457397,0.1244667992,625.9457397,0.1103447378,625.9457397,0.1014363766,625.9457397,0.1018273756,
625.0629272,0.02603611909,625.0629272,0.02308449335,625.0629272,0.125798136,625.0629272,0.1122603193,625.0629272,0.1029973254,625.0629272,0.1037915647,
624.0327148,0.02630212158,624.0327148,0.023239417,624.0327148,0.1282389313,624.0327148,0.1144068092,624.0327148,0.1053588763,624.0327148,0.1057584435,
623.0022583,0.02674276382,623.0022583,0.02357673086,623.0022583,0.1303478628,623.0022583,0.1167196557,623.0022583,0.10758508,623.0022583,0.1082048342,
621.9714355,0.02647555806,621.9714355,0.02364566177,621.9714355,0.1322159618,621.9714355,0.118882224,621.9714355,0.1094054356,621.9714355,0.1104425341,
620.9403687,0.0264736861,620.9403687,0.02340496704,620.9403687,0.1342616081,620.9403687,0.1209632009,620.9403687,0.1112063378,620.9403687,0.1118711382,
620.0563354,0.02659253217,620.0563354,0.02370468155,620.0563354,0.1357617676,620.0563354,0.1225233674,620.0563354,0.1130096689,620.0563354,0.1140065119,
619.0247192,0.02695336565,619.0247192,0.02384177595,619.0247192,0.1377245337,619.0247192,0.1248033568,619.0247192,0.1151569411,619.0247192,0.1161455736,
617.9927979,0.02697903663,617.9927979,0.02386756614,617.9927979,0.1403435469,617.9927979,0.1276252568,617.9927979,0.1176478714,617.9927979,0.1184266061,
616.9606323,0.02682318725,616.9606323,0.02407716028,616.9606323,0.1426302046,616.9606323,0.1298606247,616.9606323,0.1202398539,616.9606323,0.1209461316,
615.9281006,0.02682170086,615.9281006,0.02444557473,615.9281006,0.1453559548,615.9281006,0.13262631,615.9281006,0.1226993129,615.9281006,0.1233002469,
615.0428467,0.02677998692,615.0428467,0.02404804714,615.0428467,0.1470756531,615.0428467,0.1346532106,615.0428467,0.1248468012,615.0428467,0.1255388111,
614.0098267,0.02690998651,614.0098267,0.02462775074,614.0098267,0.1491386294,614.0098267,0.1372484118,614.0098267,0.1269303411,614.0098267,0.1279807836,
612.9765015,0.02719713748,612.9765015,0.02458438464,612.9765015,0.1517242044,612.9765015,0.1396313459,612.9765015,0.129660964,612.9765015,0.1303788722,
611.9428711,0.027401397,611.9428711,0.02461336739,611.9428711,0.1543730646,611.9428711,0.1422134191,611.9428711,0.1320869327,611.9428711,0.1328132451,
611.0567017,0.0272888355,611.0567017,0.02464120276,611.0567017,0.1567395329,611.0567017,0.1450835317,611.0567017,0.1349044442,611.0567017,0.1356999874,
610.022522,0.0272315871,610.022522,0.02471422218,610.022522,0.1589623541,610.022522,0.1474498659,610.022522,0.1372424066,610.022522,0.1381716877,
608.9880981,0.02763055265,608.9880981,0.02493417636,608.9880981,0.1620190293,608.9880981,0.1505214125,608.9880981,0.1401053071,608.9880981,0.1409201771,
607.9533691,0.02764514647,607.9533691,0.02511002868,607.9533691,0.1645356566,607.9533691,0.153318271,607.9533691,0.142896384,607.9533691,0.1438542157,
607.0662231,0.02737269551,607.0662231,0.0249469243,607.0662231,0.1663609892,607.0662231,0.1551894397,607.0662231,0.1448720098,607.0662231,0.1459378451,
606.0309448,0.02764713205,606.0309448,0.0252012331,606.0309448,0.1693375856,606.0309448,0.1586603373,606.0309448,0.1477643549,606.0309448,0.14885813,
604.9954224,0.02768054232,604.9954224,0.0254003834,604.9954224,0.1717597693,604.9954224,0.1612678617,604.9954224,0.1509593576,604.9954224,0.1516391188,
603.9595947,0.02753158286,603.9595947,0.02526778914,603.9595947,0.1749661267,603.9595947,0.1645482033,603.9595947,0.1541214734,603.9595947,0.1548576355,
603.0714722,0.02799514867,603.0714722,0.02563762851,603.0714722,0.1774235219,603.0714722,0.1675007194,603.0714722,0.1569665372,603.0714722,0.1579833925,
602.0350952,0.0279121343,602.0350952,0.02543685958,602.0350952,0.1807282865,602.0350952,0.1707976609,602.0350952,0.1600823551,602.0350952,0.1611210555,
600.9984741,0.02785345167,600.9984741,0.02559858188,600.9984741,0.1832711846,600.9984741,0.1736750603,600.9984741,0.1629374176,600.9984741,0.1637891531,
599.9615479,0.02763248235,599.9615479,0.0255030673,599.9615479,0.1856522858,599.9615479,0.1768689901,599.9615479,0.1659837514,599.9615479,0.1668240726,
599.0725098,0.02788439393,599.0725098,0.02573221177,599.0725098,0.1890020221,599.0725098,0.1799117178,599.0725098,0.1691523343,599.0725098,0.1702369153,
598.0350342,0.02786038071,598.0350342,0.02584725432,598.0350342,0.1920499355,598.0350342,0.1835173219,598.0350342,0.1727389842,598.0350342,0.1736131161,
596.9973145,0.02810612693,596.9973145,0.02612842619,596.9973145,0.1950012296,596.9973145,0.1868341267,596.9973145,0.1758362204,596.9973145,0.1769457757,
595.9592896,0.02824207582,595.9592896,0.02642069943,595.9592896,0.1982003599,595.9592896,0.1902023703,595.9592896,0.1795350164,595.9592896,0.1802841723,
595.0693359,0.02814736031,595.0693359,0.0261389818,595.0693359,0.2006878853,595.0693359,0.1928826869,595.0693359,0.1821408421,595.0693359,0.1830308139,
594.0307617,0.02811035141,594.0307617,0.02629285306,594.0307617,0.2037758529,594.0307617,0.1963514835,594.0307617,0.1855410784,594.0307617,0.1864181608,
592.9919434,0.0284766499,592.9919434,0.02652651444,592.9919434,0.2072043866,592.9919434,0.2000947744,592.9919434,0.1894123405,592.9919434,0.1902572066,
591.9528809,0.02838254534,591.9528809,0.02670904063,591.9528809,0.2109941691,591.9528809,0.2043438554,591.9528809,0.1934210509,591.9528809,0.1945979148,
591.0619507,0.02863182314,591.0619507,0.02670711465,591.0619507,0.2137673795,591.0619507,0.2077526301,591.0619507,0.1966961622,591.0619507,0.1974419057,
590.0223389,0.02855360694,590.0223389,0.02697661333,590.0223389,0.2173915952,590.0223389,0.2114301473,590.0223389,0.2007611245,590.0223389,0.2016293257,
588.9824219,0.02863619104,588.9824219,0.02690960094,588.9824219,0.220852226,588.9824219,0.2158348411,588.9824219,0.2047250122,588.9824219,0.2057088464,
587.9422607,0.02875919826,587.9422607,0.02738215216,587.9422607,0.2244383842,587.9422607,0.2193959057,587.9422607,0.2087011486,587.9422607,0.2098326683,
587.0504761,0.02844798937,587.0504761,0.02727116831,587.0504761,0.2272141576,587.0504761,0.2223248184,587.0504761,0.2116177082,587.0504761,0.212478742,
586.0097656,0.02894316427,586.0097656,0.02747896314,586.0097656,0.2311604023,586.0097656,0.2269846499,586.0097656,0.2159450203,586.0097656,0.2171789855,
584.968811,0.02877963707,584.968811,0.02783962525,584.968811,0.2351662815,584.968811,0.231262058,584.968811,0.2206853777,584.968811,0.2219232023,
583.9275513,0.02913817018,583.9275513,0.02742439322,583.9275513,0.2388429642,583.9275513,0.2357214689,583.9275513,0.2247655392,583.9275513,0.2259168029,
583.03479,0.02918273956,583.03479,0.02812736295,583.03479,0.2425460666,583.03479,0.2394686639,583.03479,0.2288179398,583.03479,0.2300799787,
581.993042,0.0290060062,581.993042,0.02793703414,581.993042,0.2458032072,581.993042,0.2432097495,581.993042,0.2327585369,581.993042,0.2337266803,
580.9510498,0.02933722362,580.9510498,0.02818785049,580.9510498,0.2491893768,580.9510498,0.2472799569,580.9510498,0.2366652638,580.9510498,0.2378489971,
580.0576172,0.02956022508,580.0576172,0.02809726074,580.0576172,0.2527416348,580.0576172,0.2511804402,580.0576172,0.2407170683,580.0576172,0.2418240905,
579.0150757,0.02962834015,579.0150757,0.02846653387,579.0150757,0.2568598688,579.0150757,0.2561590075,579.0150757,0.2455075234,579.0150757,0.2466788292,
577.97229,0.02974622138,577.97229,0.02863030136,577.97229,0.2610196471,577.97229,0.2605857551,577.97229,0.2502322793,577.97229,0.2514576018,
576.9291992,0.02973377518,576.9291992,0.02881913632,576.9291992,0.2643351257,576.9291992,0.2650917768,576.9291992,0.2548011541,576.9291992,0.2558507919,
576.0348511,0.02973962389,576.0348511,0.02890979499,576.0348511,0.2676610053,576.0348511,0.2685926855,576.0348511,0.2581778169,576.0348511,0.2594676614,
574.991272,0.02970716543,574.991272,0.0289021302,574.991272,0.2711979449,574.991272,0.2727533579,574.991272,0.2625471354,574.991272,0.2638670206,
573.9473877,0.02952110209,573.9473877,0.0289469827,573.9473877,0.2752036154,573.9473877,0.2774990499,573.9473877,0.2675877213,573.9473877,0.2686010003,
573.0524292,0.02980890311,573.0524292,0.0293430388,573.0524292,0.2794881761,573.0524292,0.2822589278,573.0524292,0.2724224627,573.0524292,0.2735147178,
572.0080566,0.03029322624,572.0080566,0.02971916646,572.0080566,0.2833106518,572.0080566,0.2866678536,572.0080566,0.2767773271,572.0080566,0.2783108652,
570.9634399,0.03001686372,570.9634399,0.0294781588,570.9634399,0.2868073583,570.9634399,0.2912658751,570.9634399,0.2813011706,570.9634399,0.2825599909,
570.0678101,0.02988177165,570.0678101,0.02933273651,570.0678101,0.2900231183,570.0678101,0.2946337461,570.0678101,0.2853614092,570.0678101,0.2862674594,
569.022644,0.03028695285,569.022644,0.0298868455,569.022644,0.2946031988,569.022644,0.2999732196,569.022644,0.2904747128,569.022644,0.2918075025,
567.9772339,0.02997964062,567.9772339,0.02990514785,567.9772339,0.298348546,567.9772339,0.3045660853,567.9772339,0.2949536145,567.9772339,0.2961601913,
566.9315796,0.03048956208,566.9315796,0.03028490022,566.9315796,0.3025061786,566.9315796,0.3091194928,566.9315796,0.2999229729,566.9315796,0.3013709784,
566.0350952,0.03034063615,566.0350952,0.03031429462,566.0350952,0.3061001599,566.0350952,0.3136721849,566.0350952,0.3046685457,566.0350952,0.3057168126,
564.9888916,0.03065053746,564.9888916,0.03040456958,564.9888916,0.3104922473,564.9888916,0.3187201917,564.9888916,0.3098158836,564.9888916,0.3109008968,
563.9424438,0.03034696542,563.9424438,0.03050994501,563.9424438,0.3146891296,563.9424438,0.3239255846,563.9424438,0.3151887357,563.9424438,0.3161094785,
563.0452881,0.03057284839,563.0452881,0.0309019275,563.0452881,0.3177987337,563.0452881,0.3273671567,563.0452881,0.3187609911,563.0452881,0.3200613558,
561.9983521,0.03067203984,561.9983521,0.03071743436,561.9983521,0.3215532005,561.9983521,0.3316081762,561.9983521,0.3234393597,561.9983521,0.324737221,
560.9511719,0.03079451248,560.9511719,0.03083655797,560.9511719,0.3254052401,560.9511719,0.3368047774,560.9511719,0.3287439346,560.9511719,0.3300439715,
560.0533447,0.03100350127,560.0533447,0.03106500208,560.0533447,0.329626739,560.0533447,0.3414028287,560.0533447,0.3335639238,560.0533447,0.3351249099,
559.0056763,0.03085779026,559.0056763,0.03147173673,559.0056763,0.3334127963,559.0056763,0.346352607,559.0056763,0.3390606344,559.0056763,0.3402808905,
557.9577026,0.03062348254,557.9577026,0.03140344471,557.9577026,0.3373633325,557.9577026,0.3511615396,557.9577026,0.3439480066,557.9577026,0.3449430168,
557.0592041,0.03110298701,557.0592041,0.0315631181,557.0592041,0.3402559757,557.0592041,0.3544788659,557.0592041,0.3474190831,557.0592041,0.3485816717,
556.0108032,0.03118733503,556.0108032,0.03164777905,556.0108032,0.3440831602,556.0108032,0.3590869904,556.0108032,0.3522620201,556.0108032,0.3535120487,
554.9620972,0.03090579063,554.9620972,0.03141293302,554.9620972,0.3476520479,554.9620972,0.363493681,554.9620972,0.3574243784,554.9620972,0.3585014939,
554.0629883,0.03113107383,554.0629883,0.03181865439,554.0629883,0.3512583375,554.0629883,0.3684128225,554.0629883,0.3618876934,554.0629883,0.363437742,
553.0137939,0.03103472292,553.0137939,0.03210594878,553.0137939,0.3549773991,553.0137939,0.3725767136,553.0137939,0.3666974902,553.0137939,0.3680723011,
551.9642944,0.03104484454,551.9642944,0.03216930851,551.9642944,0.3583979607,551.9642944,0.3771383762,551.9642944,0.3712770641,551.9642944,0.3728221059,
551.0645752,0.0310772378,551.0645752,0.03209967911,551.0645752,0.3606749475,551.0645752,0.3802312016,551.0645752,0.3745234609,551.0645752,0.3759354055,
550.0146484,0.0312627703,550.0146484,0.03239786997,550.0146484,0.3642640412,550.0146484,0.3845466673,550.0146484,0.3793522418,550.0146484,0.3805084229,
548.9644165,0.03136042506,548.9644165,0.03271697462,548.9644165,0.3680429161,548.9644165,0.3893150091,548.9644165,0.3845182061,548.9644165,0.3855721653,
548.0640869,0.03141028807,548.0640869,0.03239457682,548.0640869,0.3705311418,548.0640869,0.392560333,548.0640869,0.3881835639,548.0640869,0.3894459009,
547.0133667,0.03121857159,547.0133667,0.03246662393,547.0133667,0.3732491434,547.0133667,0.3961919248,547.0133667,0.3920282722,547.0133667,0.3934080601,
545.9624634,0.03109731339,545.9624634,0.0325111486,545.9624634,0.3760091662,545.9624634,0.4000923634,545.9624634,0.3963095844,545.9624634,0.3972741663,
545.0614014,0.03128894791,545.0614014,0.03259716555,545.0614014,0.3782543838,545.0614014,0.4026967585,545.0614014,0.398942858,545.0614014,0.400454253,
544.0100098,0.03130572662,544.0100098,0.03310279548,544.0100098,0.381100595,544.0100098,0.4066739678,544.0100098,0.4032906592,544.0100098,0.4046831131,
542.958313,0.03133680299,542.958313,0.03303089365,542.958313,0.3835383058,542.958313,0.4098829925,542.958313,0.4069604874,542.958313,0.4082953036,
542.0567017,0.03123339638,542.0567017,0.0329942517,542.0567017,0.3852748275,542.0567017,0.4125809968,542.0567017,0.4098836482,542.0567017,0.4110974073,
541.0045776,0.03144643828,541.0045776,0.03305824101,541.0045776,0.3871739805,541.0045776,0.4149582684,541.0045776,0.412963748,541.0045776,0.4141354263,
539.9521484,0.03146775439,539.9521484,0.03330264241,539.9521484,0.3896462619,539.9521484,0.4183054864,539.9521484,0.4164126217,539.9521484,0.4178551137,
539.0498657,0.03128099442,539.0498657,0.03331236914,539.0498657,0.3906751573,539.0498657,0.4200417399,539.0498657,0.4184851646,539.0498657,0.4198139012,
537.9970093,0.03110529482,537.9970093,0.03328858316,537.9970093,0.3921627998,537.9970093,0.4222872555,537.9970093,0.4212575257,537.9970093,0.4224177003,
536.9438477,0.0312702544,536.9438477,0.03317800909,536.9438477,0.3935666978,536.9438477,0.4246376753,536.9438477,0.4238032699,536.9438477,0.4250227213,
536.0409546,0.03138616309,536.0409546,0.0332599096,536.0409546,0.3944807351,536.0409546,0.4261461496,536.0409546,0.4257896841,536.0409546,0.4271146655,
534.9873657,0.03123153374,534.9873657,0.03337699175,534.9873657,0.3957094252,534.9873657,0.4280290604,534.9873657,0.4281148612,534.9873657,0.429295212,
533.9335327,0.03150388226,533.9335327,0.03363628685,533.9335327,0.3967065513,533.9335327,0.4295814633,533.9335327,0.4298948348,533.9335327,0.4313077331,
533.0300293,0.03151161969,533.0300293,0.0335329771,533.0300293,0.3968495429,533.0300293,0.430187583,533.0300293,0.4308190346,533.0300293,0.4320601225,
531.975708,0.03128894791,531.975708,0.03346978128,531.975708,0.3969191909,531.975708,0.4309759438,531.975708,0.4318480492,531.975708,0.4332153201,
531.0717773,0.03141076118,531.0717773,0.03354771435,531.0717773,0.3971270621,531.0717773,0.4318237007,531.0717773,0.4329528213,531.0717773,0.4342286587,
530.0169678,0.03084408864,530.0169678,0.03319949657,530.0169678,0.3965220451,530.0169678,0.4317770302,530.0169678,0.4333052635,530.0169678,0.434565872,
528.9619751,0.03088975325,528.9619751,0.03299486637,528.9619751,0.3961903155,528.9619751,0.4314575791,528.9619751,0.433642894,528.9619751,0.4349562824,
528.0574341,0.03100903332,528.0574341,0.03321519867,528.0574341,0.3956765831,528.0574341,0.4315193295,528.0574341,0.4336348474,528.0574341,0.4349274039,
527.0019531,0.03079184517,527.0019531,0.03299402818,527.0019531,0.3949061632,527.0019531,0.431098789,527.0019531,0.4335832596,527.0019531,0.4347227812,
525.946167,0.03073293902,525.946167,0.03312095627,525.946167,0.3936077356,525.946167,0.4304271936,525.946167,0.4329079986,525.946167,0.4344280064,
525.0410767,0.03087113053,525.0410767,0.03298511729,525.0410767,0.3922587335,525.0410767,0.4292741418,525.0410767,0.4323552549,525.0410767,0.4331918657,
523.9848633,0.03069543093,523.9848633,0.03288472444,523.9848633,0.3902584314,523.9848633,0.427221179,523.9848633,0.4305789471,523.9848633,0.4318377376,
522.9283447,0.03054549173,522.9283447,0.03268063441,522.9283447,0.3886930048,522.9283447,0.4258068204,522.9283447,0.4293237329,522.9283447,0.430850327,
522.022644,0.03068201244,522.022644,0.03262194619,522.022644,0.386733979,522.022644,0.4242736697,522.022644,0.4278869033,522.022644,0.4291535616,
520.9656982,0.03050777875,520.9656982,0.03246352822,520.9656982,0.3845950663,520.9656982,0.4222543538,520.9656982,0.4262236357,520.9656982,0.4274614155,
520.0595703,0.03074046783,520.0595703,0.03263832629,520.0595703,0.3826172948,520.0595703,0.4200423062,520.0595703,0.4239307344,520.0595703,0.4252588153,
519.0021973,0.03063089959,519.0021973,0.03267122805,519.0021973,0.3796309829,519.0021973,0.4172556698,519.0021973,0.4216346443,519.0021973,0.4228108525,
517.9445801,0.03035781905,517.9445801,0.03222300112,517.9445801,0.3762459755,517.9445801,0.4137418866,517.9445801,0.418053776,517.9445801,0.4194041491,
517.0378418,0.03038294427,517.0378418,0.03209948167,517.0378418,0.3738793731,517.0378418,0.4109871387,517.0378418,0.4153824449,517.0378418,0.4166086614,
515.9797974,0.03036606498,515.9797974,0.03201473504,515.9797974,0.3706668615,515.9797974,0.4082367122,515.9797974,0.4122341871,515.9797974,0.4136261344,
515.0726929,0.03058806807,515.0726929,0.0321768634,515.0726929,0.3682717383,515.0726929,0.4049267769,515.0726929,0.4097358882,515.0726929,0.4110662639,
514.0141602,0.02991005778,514.0141602,0.03166807443,514.0141602,0.3643478751,514.0141602,0.4006752372,514.0141602,0.4056438208,514.0141602,0.4070394933,
512.9553833,0.02979146503,512.9553833,0.03131045401,512.9553833,0.3599678874,512.9553833,0.3959009647,512.9553833,0.4012733698,512.9553833,0.4023492634,
512.0476685,0.03004227392,512.0476685,0.0315650925,512.0476685,0.357165277,512.0476685,0.3927301466,512.0476685,0.3976658285,512.0476685,0.3989212513,
510.9884644,0.02984367311,510.9884644,0.03122393973,510.9884644,0.3526096344,510.9884644,0.3878077567,510.9884644,0.3928413391,510.9884644,0.394469887,
509.9289856,0.02968108281,509.9289856,0.03104423173,509.9289856,0.3490429819,509.9289856,0.3842613101,509.9289856,0.3889419734,509.9289856,0.3898980319,
509.0206909,0.02968950756,509.0206909,0.03095727041,509.0206909,0.3459220529,509.0206909,0.3808248639,509.0206909,0.3854655325,509.0206909,0.3869079947,
507.9607849,0.02938807383,507.9607849,0.03053105064,507.9607849,0.3412004411,507.9607849,0.3752091527,507.9607849,0.380107075,507.9607849,0.3810721338,
507.0520935,0.02938655019,507.0520935,0.0304308068,507.0520935,0.3368735313,507.0520935,0.371194303,507.0520935,0.3755600452,507.0520935,0.3767225444,
505.9917603,0.0292126406,505.9917603,0.03006959893,505.9917603,0.3325501084,505.9917603,0.3655382395,505.9917603,0.3702934086,505.9917603,0.3717238605,
504.9311523,0.02898544446,504.9311523,0.02996006049,504.9311523,0.328202486,504.9311523,0.3603962362,504.9311523,0.3654922247,504.9311523,0.3665272295,
504.0218811,0.02908939496,504.0218811,0.02986127883,504.0218811,0.3255437613,504.0218811,0.3573387265,504.0218811,0.3622604609,504.0218811,0.3631967902,
502.9608765,0.02902667969,502.9608765,0.02979662269,502.9608765,0.3212091029,502.9608765,0.3524293303,502.9608765,0.3570048809,502.9608765,0.3582507372,
502.0512085,0.02884646878,502.0512085,0.0296117682,502.0512085,0.3169343174,502.0512085,0.3478987217,502.0512085,0.3523906171,502.0512085,0.3534788787,
500.9897461,0.02847162075,500.9897461,0.0292870421,500.9897461,0.3124547303,500.9897461,0.342828244,500.9897461,0.3470315933,500.9897461,0.3478298485,
499.9280396,0.02873604745,499.9280396,0.0293132402,499.9280396,0.3087579906,499.9280396,0.3383500576,499.9280396,0.342153579,499.9280396,0.3437098861,
499.0177917,0.02855064906,499.0177917,0.02886760421,499.0177917,0.3052348495,499.0177917,0.3343957961,499.0177917,0.3385706246,499.0177917,0.3394116461,
497.955658,0.02820130251,497.955658,0.02863442153,497.955658,0.3013776839,497.955658,0.3300120234,497.955658,0.333771199,497.955658,0.3350349069,
497.0450439,0.0283575654,497.0450439,0.02854371071,497.0450439,0.297639668,497.0450439,0.326031208,497.0450439,0.3297406137,497.0450439,0.3306254148,
495.9824829,0.02806489728,495.9824829,0.02848024294,495.9824829,0.2936880291,495.9824829,0.3215724826,495.9824829,0.3248770535,495.9824829,0.3257634938,
495.0715027,0.0279992912,495.0715027,0.02822088823,495.0715027,0.2908032238,495.0715027,0.3175717592,495.0715027,0.321295768,495.0715027,0.3222514689,
494.0084839,0.0280467812,494.0084839,0.02833355404,494.0084839,0.2875882387,494.0084839,0.3137439191,494.0084839,0.3172521293,494.0084839,0.318293035,
492.9452209,0.02777879871,492.9452209,0.02800185792,492.9452209,0.2840652764,492.9452209,0.3098781109,492.9452209,0.3128215373,492.9452209,0.3138161004,
492.0336914,0.02782447264,492.0336914,0.02798134461,492.0336914,0.281352222,492.0336914,0.3071615398,492.0336914,0.3104737401,492.0336914,0.3113024533,
490.9700012,0.02789369598,490.9700012,0.02786109783,490.9700012,0.2779994607,490.9700012,0.3034690917,490.9700012,0.3065425754,490.9700012,0.3075984418,
490.058075,0.02757339738,490.058075,0.0276100561,490.058075,0.2755833566,490.058075,0.300015837,490.058075,0.303106308,490.058075,0.3039209843,
488.9939575,0.02723734826,488.9939575,0.02732480876,488.9939575,0.2724778652,488.9939575,0.296397835,488.9939575,0.2991708219,488.9939575,0.3001503944,
487.9296265,0.02741562389,487.9296265,0.02721838653,487.9296265,0.2697988749,487.9296265,0.2933053076,487.9296265,0.2960307002,487.9296265,0.2968283296,
487.0171509,0.02757160366,487.0171509,0.02721926756,487.0171509,0.2681604028,487.0171509,0.2916748226,487.0171509,0.2938883007,487.0171509,0.294705689,
485.9523621,0.0273568444,485.9523621,0.02710049972,485.9523621,0.265583545,485.9523621,0.2883128822,485.9523621,0.2907555997,485.9523621,0.2914758921,
485.0395203,0.02716999315,485.0395203,0.02708349936,485.0395203,0.2629084885,485.0395203,0.2855046093,485.0395203,0.2879993618,485.0395203,0.2888455391,
483.9743347,0.02727772854,483.9743347,0.02673995681,483.9743347,0.2609617114,483.9743347,0.2828570902,483.9743347,0.2850563526,483.9743347,0.2860645056,
483.0611267,0.02708016708,483.0611267,0.02679003589,483.0611267,0.2590837777,483.0611267,0.2811537087,483.0611267,0.2833049595,483.0611267,0.2840849459,
481.9954834,0.0273339618,481.9954834,0.02677153423,481.9954834,0.2578018308,481.9954834,0.2791128159,481.9954834,0.2812745571,481.9954834,0.2819462717,
480.929657,0.02728949673,480.929657,0.02675575949,480.929657,0.2555073798,480.929657,0.2765865624,480.929657,0.2784769535,480.929657,0.2793026268,
480.0158691,0.02724597417,480.0158691,0.02674303949,480.0158691,0.2542367578,480.0158691,0.2750700712,480.0158691,0.2767041326,480.0158691,0.2775986195,
478.9496155,0.02744179219,478.9496155,0.02658829279,478.9496155,0.2524658144,478.9496155,0.2730405629,478.9496155,0.2747364938,478.9496155,0.2753801942,
478.0354919,0.02740605734,478.0354919,0.02658221126,478.0354919,0.2509655952,478.0354919,0.2712158263,478.0354919,0.2731398344,478.0354919,0.2739082277,
476.9687805,0.02742546797,476.9687805,0.02664231881,476.9687805,0.2497245371,476.9687805,0.2696790099,476.9687805,0.2714605927,476.9687805,0.271823287,
476.0542908,0.02736707218,476.0542908,0.02651850693,476.0542908,0.2485117465,476.0542908,0.2684830129,476.0542908,0.2696975768,476.0542908,0.2706941962,
474.9871826,0.02732304484,474.9871826,0.02663656697,474.9871826,0.2473092824,474.9871826,0.2670178711,474.9871826,0.2683776021,474.9871826,0.2693420351,
474.0723572,0.02692582272,474.0723572,0.02601149306,474.0723572,0.2459489405,474.0723572,0.2649896145,474.0723572,0.2662291527,474.0723572,0.2672437727,
473.0048218,0.02716062404,473.0048218,0.02627583034,473.0048218,0.2450033426,473.0048218,0.2640843689,473.0048218,0.2654525042,473.0048218,0.2660144269,
471.9370728,0.02710526623,471.9370728,0.02600063756,471.9370728,0.2438872904,471.9370728,0.2627621293,471.9370728,0.2639946043,471.9370728,0.2646261156,
471.0216675,0.02715764754,471.0216675,0.02617334761,471.0216675,0.2431069762,471.0216675,0.2616380453,471.0216675,0.2627428472,471.0216675,0.2636307478,
469.9535217,0.02701407485,469.9535217,0.02623326145,469.9535217,0.2423888147,469.9535217,0.2605990171,469.9535217,0.2618000507,469.9535217,0.2627325058,
469.0377808,0.02714657038,469.0377808,0.02601099946,469.0377808,0.2416257709,469.0377808,0.2597726882,469.0377808,0.2606150508,469.0377808,0.2616112232,
467.9692078,0.02730275691,467.9692078,0.02604260668,467.9692078,0.241075024,467.9692078,0.2591164112,467.9692078,0.2600806355,467.9692078,0.2608053386,
467.0531006,0.02750207298,467.0531006,0.02621197887,467.0531006,0.2406446636,467.0531006,0.2586657703,467.0531006,0.2593925297,467.0531006,0.2601411045,
465.9841309,0.02707972564,465.9841309,0.02588571981,465.9841309,0.2398507744,465.9841309,0.2574923337,465.9841309,0.2581323981,465.9841309,0.259116739,
465.067688,0.02714064531,465.067688,0.0259408392,465.067688,0.2394343317,465.067688,0.2570826411,465.067688,0.257853657,465.067688,0.2586115897,
463.998291,0.02724415623,463.998291,0.02594408207,463.998291,0.2388493866,463.998291,0.2563394606,463.998291,0.2570899427,463.998291,0.2579818666,
462.9286804,0.02707644738,462.9286804,0.02606278099,462.9286804,0.238386482,462.9286804,0.2556405962,462.9286804,0.25637272,462.9286804,0.2570270896,
462.0116882,0.02727670781,462.0116882,0.02595584281,462.0116882,0.2381526828,462.0116882,0.2553026378,462.0116882,0.2558319271,462.0116882,0.2566464543,
460.9416809,0.02721728384,460.9416809,0.02600660175,460.9416809,0.237479642,460.9416809,0.2546741962,460.9416809,0.2552458942,460.9416809,0.256080538,
460.024353,0.02714811265,460.024353,0.02579308115,460.024353,0.2373365462,460.024353,0.2541061938,460.024353,0.2548757792,460.024353,0.2556323409,
458.9539185,0.02737327479,458.9539185,0.02578915283,458.9539185,0.2369406968,458.9539185,0.2537129223,458.9539185,0.2542634308,458.9539185,0.255111903,
458.0362549,0.02748599648,458.0362549,0.02589712106,458.0362549,0.2367124557,458.0362549,0.2535564899,458.0362549,0.253880918,458.0362549,0.2549011409,
456.9654236,0.02743550576,456.9654236,0.02590267174,456.9654236,0.2365883589,456.9654236,0.2533004582,456.9654236,0.2535405159,456.9654236,0.2543837726,
456.0473938,0.0275881812,456.0473938,0.02577635087,456.0473938,0.2363847047,456.0473938,0.2530342937,456.0473938,0.2532889247,456.0473938,0.254342556,
454.9761658,0.02736489289,454.9761658,0.02594935708,454.9761658,0.2363242507,454.9761658,0.2525942326,454.9761658,0.2528122365,454.9761658,0.2538290918,
454.0578308,0.02766172588,454.0578308,0.02606561221,454.0578308,0.2361804694,454.0578308,0.252483964,454.0578308,0.2528170347,454.0578308,0.2537929714,
452.9862061,0.02767673507,452.9862061,0.02605110034,452.9862061,0.2360164523,452.9862061,0.2524156272,452.9862061,0.252599746,452.9862061,0.2534412742,
452.0675049,0.02744159847,452.0675049,0.02589179203,452.0675049,0.2356469184,452.0675049,0.2523094118,452.0675049,0.2522049248,452.0675049,0.2531927824,
450.9954834,0.02757027932,450.9954834,0.02586689778,450.9954834,0.2356663793,450.9954834,0.2518446445,450.9954834,0.2520352006,450.9954834,0.2529993951,
450.076416,0.02768065222,450.076416,0.02601160295,450.076416,0.2357694507,450.076416,0.2519150674,450.076416,0.2520778775,450.076416,0.2528075874,
449.0040283,0.02788530476,449.0040283,0.02602218464,449.0040283,0.2358114123,449.0040283,0.2518235147,449.0040283,0.251870364,449.0040283,0.2529655695,
447.9313965,0.02782866731,447.9313965,0.02612724341,447.9313965,0.2357135862,447.9313965,0.2518241704,447.9313965,0.2519043982,447.9313965,0.2526675165,
447.0118408,0.02774838917,447.0118408,0.02610896155,447.0118408,0.2355023772,447.0118408,0.2514553964,447.0118408,0.2516656816,447.0118408,0.2525280714,
445.9388123,0.02759538032,445.9388123,0.02603290416,445.9388123,0.2356223762,445.9388123,0.2517183721,445.9388123,0.2518302798,445.9388123,0.2525719404,
445.0189209,0.02784831822,445.0189209,0.02606816962,445.0189209,0.2357935458,445.0189209,0.2515057921,445.0189209,0.2516100705,445.0189209,0.2526241243,
443.9454956,0.02803327888,443.9454956,0.02617953531,443.9454956,0.2358707637,443.9454956,0.2517382503,443.9454956,0.2519282997,443.9454956,0.2526662648,
443.0252686,0.02793148533,443.0252686,0.02614995092,443.0252686,0.2359046787,443.0252686,0.2519256175,443.0252686,0.2518075705,443.0252686,0.2526733875,
441.9514771,0.02769723348,441.9514771,0.02615767717,441.9514771,0.2359276712,441.9514771,0.2518405318,441.9514771,0.2518638372,441.9514771,0.2527900338,
441.0309143,0.02775252797,441.0309143,0.02605563402,441.0309143,0.2359102815,441.0309143,0.2519080043,441.0309143,0.2518977821,441.0309143,0.2525079846,
439.9567261,0.02808892168,439.9567261,0.0262538027,439.9567261,0.2362783998,439.9567261,0.2521445453,439.9567261,0.2520173192,439.9567261,0.2527840137,
439.0358276,0.02799064852,439.0358276,0.02619028464,439.0358276,0.2363513261,439.0358276,0.2521595955,439.0358276,0.2520291507,439.0358276,0.2530299425,
437.9612732,0.02795710415,437.9612732,0.02617538348,437.9612732,0.2366715521,437.9612732,0.2521772981,437.9612732,0.2521641552,437.9612732,0.253005743,
437.0400391,0.02833316661,437.0400391,0.02633281425,437.0400391,0.2367645055,437.0400391,0.2527393997,437.0400391,0.2524395585,437.0400391,0.2533608973,
435.9650879,0.02840271965,435.9650879,0.02651415952,435.9650879,0.2371892184,435.9650879,0.2527710795,435.9650879,0.2526313365,435.9650879,0.2535989881,
435.0435181,0.0281250719,435.0435181,0.02607787214,435.0435181,0.2369893789,435.0435181,0.2528078258,435.0435181,0.2525628507,435.0435181,0.2532980144,
433.9682007,0.02829987183,433.9682007,0.02635784447,433.9682007,0.2372786105,433.9682007,0.2530154884,433.9682007,0.252815485,433.9682007,0.2537274659,
433.0463257,0.02856734768,433.0463257,0.02660838328,433.0463257,0.2377828509,433.0463257,0.2533667982,433.0463257,0.2533252835,433.0463257,0.2542514503,
431.9706116,0.0283767432,431.9706116,0.02630264498,431.9706116,0.2378154695,431.9706116,0.2533826232,431.9706116,0.2532299757,431.9706116,0.2540452778,
431.0484009,0.02837757207,431.0484009,0.02634453215,431.0484009,0.2380246371,431.0484009,0.2537065446,431.0484009,0.2534489632,431.0484009,0.2543705106,
429.97229,0.02825652435,429.97229,0.02634565905,429.97229,0.2382273227,429.97229,0.2538119256,429.97229,0.2537515163,429.97229,0.2546112537,
429.0497742,0.02852552198,429.0497742,0.02670125104,429.0497742,0.2386613488,429.0497742,0.2545969784,429.0497742,0.2543481886,429.0497742,0.2549071014,
427.9732971,0.02856513672,427.9732971,0.02667532116,427.9732971,0.2389792502,427.9732971,0.254691422,427.9732971,0.254322201,427.9732971,0.255379051,
427.0504456,0.02854149975,427.0504456,0.02656592056,427.0504456,0.2390234917,427.0504456,0.2547003925,427.0504456,0.25454548,427.0504456,0.25536111,
425.9736023,0.02848624252,425.9736023,0.02664730139,425.9736023,0.2393354625,425.9736023,0.2550435662,425.9736023,0.2547444701,425.9736023,0.2556684315,
425.0504456,0.02846634015,425.0504456,0.02657092921,425.0504456,0.2395325452,425.0504456,0.2552706599,425.0504456,0.2550582886,425.0504456,0.256015569,
423.9732056,0.02867241576,423.9732056,0.02670469135,423.9732056,0.2399210185,423.9732056,0.2558103204,423.9732056,0.2554961145,423.9732056,0.2563691139,
423.0497131,0.02881072834,423.0497131,0.02669348754,423.0497131,0.2402657717,423.0497131,0.256187439,423.0497131,0.2557961047,423.0497131,0.2567344308,
421.9721375,0.02866240405,421.9721375,0.02672206238,421.9721375,0.2405645698,421.9721375,0.2565088272,421.9721375,0.2561024427,421.9721375,0.2569701374,
421.0483398,0.02893491834,421.0483398,0.02694887668,421.0483398,0.2410428822,421.0483398,0.2568546832,421.0483398,0.2565346658,421.0483398,0.2575075924,
419.9703674,0.02881800383,419.9703674,0.02686600573,419.9703674,0.2414174378,419.9703674,0.2572900057,419.9703674,0.2570539117,419.9703674,0.2579177022,
419.0462341,0.02891206369,419.0462341,0.02700264379,419.0462341,0.2416350842,419.0462341,0.2577355206,419.0462341,0.257376045,419.0462341,0.2584280968,
417.967926,0.02883415855,417.967926,0.02684835531,417.967926,0.2419733256,417.967926,0.2581362426,417.967926,0.2576570213,417.967926,0.2585635185,
417.0434875,0.02921964601,417.0434875,0.02712210082,417.0434875,0.242552042,417.0434875,0.2589172423,417.0434875,0.2583658695,417.0434875,0.2592233717,
415.9647827,0.02933766693,415.9647827,0.02718765847,415.9647827,0.2429816723,415.9647827,0.2590691149,415.9647827,0.258662492,415.9647827,0.2598036528,
415.0400391,0.02921460755,415.0400391,0.0270921234,415.0400391,0.2435191572,415.0400391,0.2596104741,415.0400391,0.2592214346,415.0400391,0.2600778341,
413.960968,0.02907325886,413.960968,0.0271066986,413.960968,0.2436260134,413.960968,0.2597747147,413.960968,0.2594649792,413.960968,0.2603107095,
413.0359192,0.02893303707,413.0359192,0.0270179864,413.0359192,0.2440645248,413.0359192,0.259988308,413.0359192,0.2596866786,413.0359192,0.2607017159,
411.9564819,0.02930083312,411.9564819,0.02725542895,411.9564819,0.2447033823,411.9564819,0.260674268,411.9564819,0.2603180707,411.9564819,0.261282891,
411.0311279,0.02920652181,411.0311279,0.02724150941,411.0311279,0.2451245934,411.0311279,0.261308074,411.0311279,0.2608984113,411.0311279,0.2619003057,
409.9513245,0.02912513167,409.9513245,0.02706677653,409.9513245,0.2453083843,409.9513245,0.2612741292,409.9513245,0.2611089349,409.9513245,0.2620050609,
409.0256653,0.02934796922,409.0256653,0.0273150783,409.0256653,0.2459817827,409.0256653,0.2621302903,409.0256653,0.2617850304,409.0256653,0.2627428472,
407.9455261,0.02933331765,407.9455261,0.02728748508,407.9455261,0.2462989688,407.9455261,0.2626250982,407.9455261,0.2623242736,407.9455261,0.2631487846,
407.0195313,0.02927062102,407.0195313,0.02728120051,407.0195313,0.2468208671,407.0195313,0.2631508708,407.0195313,0.2627546787,407.0195313,0.2636496425,
405.9390259,0.02980787866,405.9390259,0.02769577131,405.9390259,0.2476876378,405.9390259,0.2643164694,405.9390259,0.2640295029,405.9390259,0.2648689747,
405.0127258,0.02950106934,405.0127258,0.0276147183,405.0127258,0.2480515391,405.0127258,0.2645585537,405.0127258,0.2642208636,405.0127258,0.2648748457,
403.9318848,0.02938037366,403.9318848,0.02738898993,403.9318848,0.2483366728,403.9318848,0.2646604478,403.9318848,0.264146626,403.9318848,0.2652800977,
403.0052795,0.02968870476,403.0052795,0.02755817212,403.0052795,0.2488680631,403.0052795,0.2654545903,403.0052795,0.2649554908,403.0052795,0.2658238113,
401.9240723,0.02959117852,401.9240723,0.02753588557,401.9240723,0.2495632768,401.9240723,0.266169548,401.9240723,0.2657540441,401.9240723,0.2667658031,
400.9971619,0.02963931486,400.9971619,0.02760577947,400.9971619,0.2500747442,400.9971619,0.266593188,400.9971619,0.2664491832,400.9971619,0.2672689259,
400.0701294,0.0296567753,400.0701294,0.02774245664,400.0701294,0.2506508827,400.0701294,0.2672151029,400.0701294,0.2669187784,400.0701294,0.2677725554,

Direct 100x 48hr,
Direct 100x 48hr
Collection Time: 10/6/2015 1:43:18 PM
Operator Name  :
Scan Version 5.0.0.999
Parameter List :
Instrument  Cary 50
Instrument Version  3.00
Start (nm)  700.0
Stop (nm)  400.0
X Mode  Nanometers
Y Mode  Abs
UV-Vis Scan Rate (nm/min)  600.000
UV-Vis Data Interval (nm)  1.00
UV-Vis Ave. Time (sec)  0.1000
Beam Mode  Dual Beam
Baseline Correction  On
Baseline Type  Baseline correction
Baseline File Name
Baseline Std Ref File Name
Cycle Mode  Off
Method Log     :
Method Name    : C:\Users\heatherweltner\Documents\Au Standard.MSW
Date/Time stamp: 7/3/2015 11:24:50 AM
Method Modifications:
UVVIS SAT Changed: 7/1/2015 11:30:22 AM, Old:0.0125, New:0.1000
Common SAT Changed: 7/1/2015 11:30:22 AM, Old:0.0125, New:0.1000
X Start nm Changed: 7/1/2015 11:30:31 AM, Old:  800.0, New:  700.0
X Stop nm Changed: 7/1/2015 11:30:31 AM, Old:  200.0, New:  300.0
Common Interval nm Changed: 7/1/2015 11:30:31 AM, Old:     5.00, New:     1.00
Baseline Correction Changed: 7/1/2015 11:30:31 AM, Old:0, New:1
Saved as C:\Users\heatherweltner\Documents\Au Standard.MSWOpened C:\Users\heatherweltner\Documents\Au Standard.MSW
X Stop nm Changed: 7/3/2015 11:24:45 AM, Old:  300.0, New:  400.0
Saved as C:\Users\heatherweltner\Documents\Au Standard.MSW
Opened C:\Users\heatherweltner\Documents\Au Standard.MSW
End Method Modifications
<Current Wavelength> , 401.0

Direct 30x 48hr,
Direct 30x 48hr
Collection Time: 10/6/2015 1:44:49 PM
Operator Name  :
Scan Version 5.0.0.999
Parameter List :
Instrument  Cary 50
Instrument Version  3.00
Start (nm)  700.0
Stop (nm)  400.0
X Mode  Nanometers
Y Mode  Abs
UV-Vis Scan Rate (nm/min)  600.000
UV-Vis Data Interval (nm)  1.00
UV-Vis Ave. Time (sec)  0.1000
Beam Mode  Dual Beam
Baseline Correction  On
Baseline Type  Baseline correction
Baseline File Name
Baseline Std Ref File Name
Cycle Mode  Off
Method Log     :
Method Name    : C:\Users\heatherweltner\Documents\Au Standard.MSW
Date/Time stamp: 7/3/2015 11:24:50 AM
Method Modifications:
UVVIS SAT Changed: 7/1/2015 11:30:22 AM, Old:0.0125, New:0.1000
Common SAT Changed: 7/1/2015 11:30:22 AM, Old:0.0125, New:0.1000
X Start nm Changed: 7/1/2015 11:30:31 AM, Old:  800.0, New:  700.0
X Stop nm Changed: 7/1/2015 11:30:31 AM, Old:  200.0, New:  300.0
Common Interval nm Changed: 7/1/2015 11:30:31 AM, Old:     5.00, New:     1.00
Baseline Correction Changed: 7/1/2015 11:30:31 AM, Old:0, New:1
Saved as C:\Users\heatherweltner\Documents\Au Standard.MSWOpened C:\Users\heatherweltner\Documents\Au Standard.MSW
X Stop nm Changed: 7/3/2015 11:24:45 AM, Old:  300.0, New:  400.0
Saved as C:\Users\heatherweltner\Documents\Au Standard.MSW
Opened C:\Users\heatherweltner\Documents\Au Standard.MSW
End Method Modifications
<Current Wavelength> , 401.0

Direct 10x 48hr,
Direct 10x 48hr
Collection Time: 10/6/2015 1:46:56 PM
Operator Name  :
Scan Version 5.0.0.999
Parameter List :
Instrument  Cary 50
Instrument Version  3.00
Start (nm)  700.0
Stop (nm)  400.0
X Mode  Nanometers
Y Mode  Abs
UV-Vis Scan Rate (nm/min)  600.000
UV-Vis Data Interval (nm)  1.00
UV-Vis Ave. Time (sec)  0.1000
Beam Mode  Dual Beam
Baseline Correction  On
Baseline Type  Baseline correction
Baseline File Name
Baseline Std Ref File Name
Cycle Mode  Off
Method Log     :
Method Name    : C:\Users\heatherweltner\Documents\Au Standard.MSW
Date/Time stamp: 7/3/2015 11:24:50 AM
Method Modifications:
UVVIS SAT Changed: 7/1/2015 11:30:22 AM, Old:0.0125, New:0.1000
Common SAT Changed: 7/1/2015 11:30:22 AM, Old:0.0125, New:0.1000
X Start nm Changed: 7/1/2015 11:30:31 AM, Old:  800.0, New:  700.0
X Stop nm Changed: 7/1/2015 11:30:31 AM, Old:  200.0, New:  300.0
Common Interval nm Changed: 7/1/2015 11:30:31 AM, Old:     5.00, New:     1.00
Baseline Correction Changed: 7/1/2015 11:30:31 AM, Old:0, New:1
Saved as C:\Users\heatherweltner\Documents\Au Standard.MSWOpened C:\Users\heatherweltner\Documents\Au Standard.MSW
X Stop nm Changed: 7/3/2015 11:24:45 AM, Old:  300.0, New:  400.0
Saved as C:\Users\heatherweltner\Documents\Au Standard.MSW
Opened C:\Users\heatherweltner\Documents\Au Standard.MSW
End Method Modifications
<Current Wavelength> , 401.0

Direct 3x 48hr,
Direct 3x 48hr
Collection Time: 10/6/2015 1:48:00 PM
Operator Name  :
Scan Version 5.0.0.999
Parameter List :
Instrument  Cary 50
Instrument Version  3.00
Start (nm)  700.0
Stop (nm)  400.0
X Mode  Nanometers
Y Mode  Abs
UV-Vis Scan Rate (nm/min)  600.000
UV-Vis Data Interval (nm)  1.00
UV-Vis Ave. Time (sec)  0.1000
Beam Mode  Dual Beam
Baseline Correction  On
Baseline Type  Baseline correction
Baseline File Name
Baseline Std Ref File Name
Cycle Mode  Off
Method Log     :
Method Name    : C:\Users\heatherweltner\Documents\Au Standard.MSW
Date/Time stamp: 7/3/2015 11:24:50 AM
Method Modifications:
UVVIS SAT Changed: 7/1/2015 11:30:22 AM, Old:0.0125, New:0.1000
Common SAT Changed: 7/1/2015 11:30:22 AM, Old:0.0125, New:0.1000
X Start nm Changed: 7/1/2015 11:30:31 AM, Old:  800.0, New:  700.0
X Stop nm Changed: 7/1/2015 11:30:31 AM, Old:  200.0, New:  300.0
Common Interval nm Changed: 7/1/2015 11:30:31 AM, Old:     5.00, New:     1.00
Baseline Correction Changed: 7/1/2015 11:30:31 AM, Old:0, New:1
Saved as C:\Users\heatherweltner\Documents\Au Standard.MSWOpened C:\Users\heatherweltner\Documents\Au Standard.MSW
X Stop nm Changed: 7/3/2015 11:24:45 AM, Old:  300.0, New:  400.0
Saved as C:\Users\heatherweltner\Documents\Au Standard.MSW
Opened C:\Users\heatherweltner\Documents\Au Standard.MSW
End Method Modifications
<Current Wavelength> , 401.0

Direct 1x 48hr,
Direct 1x 48hr
Collection Time: 10/6/2015 1:49:16 PM
Operator Name  :
Scan Version 5.0.0.999
Parameter List :
Instrument  Cary 50
Instrument Version  3.00
Start (nm)  700.0
Stop (nm)  400.0
X Mode  Nanometers
Y Mode  Abs
UV-Vis Scan Rate (nm/min)  600.000
UV-Vis Data Interval (nm)  1.00
UV-Vis Ave. Time (sec)  0.1000
Beam Mode  Dual Beam
Baseline Correction  On
Baseline Type  Baseline correction
Baseline File Name
Baseline Std Ref File Name
Cycle Mode  Off
Method Log     :
Method Name    : C:\Users\heatherweltner\Documents\Au Standard.MSW
Date/Time stamp: 7/3/2015 11:24:50 AM
Method Modifications:
UVVIS SAT Changed: 7/1/2015 11:30:22 AM, Old:0.0125, New:0.1000
Common SAT Changed: 7/1/2015 11:30:22 AM, Old:0.0125, New:0.1000
X Start nm Changed: 7/1/2015 11:30:31 AM, Old:  800.0, New:  700.0
X Stop nm Changed: 7/1/2015 11:30:31 AM, Old:  200.0, New:  300.0
Common Interval nm Changed: 7/1/2015 11:30:31 AM, Old:     5.00, New:     1.00
Baseline Correction Changed: 7/1/2015 11:30:31 AM, Old:0, New:1
Saved as C:\Users\heatherweltner\Documents\Au Standard.MSWOpened C:\Users\heatherweltner\Documents\Au Standard.MSW
X Stop nm Changed: 7/3/2015 11:24:45 AM, Old:  300.0, New:  400.0
Saved as C:\Users\heatherweltner\Documents\Au Standard.MSW
Opened C:\Users\heatherweltner\Documents\Au Standard.MSW
End Method Modifications
<Current Wavelength> , 401.0

Direct 0x 48hr,
Direct 0x 48hr
Collection Time: 10/6/2015 1:49:58 PM
Operator Name  :
Scan Version 5.0.0.999
Parameter List :
Instrument  Cary 50
Instrument Version  3.00
Start (nm)  700.0
Stop (nm)  400.0
X Mode  Nanometers
Y Mode  Abs
UV-Vis Scan Rate (nm/min)  600.000
UV-Vis Data Interval (nm)  1.00
UV-Vis Ave. Time (sec)  0.1000
Beam Mode  Dual Beam
Baseline Correction  On
Baseline Type  Baseline correction
Baseline File Name
Baseline Std Ref File Name
Cycle Mode  Off
Method Log     :
Method Name    : C:\Users\heatherweltner\Documents\Au Standard.MSW
Date/Time stamp: 7/3/2015 11:24:50 AM
Method Modifications:
UVVIS SAT Changed: 7/1/2015 11:30:22 AM, Old:0.0125, New:0.1000
Common SAT Changed: 7/1/2015 11:30:22 AM, Old:0.0125, New:0.1000
X Start nm Changed: 7/1/2015 11:30:31 AM, Old:  800.0, New:  700.0
X Stop nm Changed: 7/1/2015 11:30:31 AM, Old:  200.0, New:  300.0
Common Interval nm Changed: 7/1/2015 11:30:31 AM, Old:     5.00, New:     1.00
Baseline Correction Changed: 7/1/2015 11:30:31 AM, Old:0, New:1
Saved as C:\Users\heatherweltner\Documents\Au Standard.MSWOpened C:\Users\heatherweltner\Documents\Au Standard.MSW
X Stop nm Changed: 7/3/2015 11:24:45 AM, Old:  300.0, New:  400.0
Saved as C:\Users\heatherweltner\Documents\Au Standard.MSW
Opened C:\Users\heatherweltner\Documents\Au Standard.MSW
End Method Modifications
<Current Wavelength> , 401.0

