Direct 100x 24hr,,Direct 30x 24hr,,Direct 10x 24hr,,Direct 3x 24hr,,Direct 1x 24hr,,Direct 1x 24hr1,,Direct 0x 24hr,,
Wavelength (nm),Abs,Wavelength (nm),Abs,Wavelength (nm),Abs,Wavelength (nm),Abs,Wavelength (nm),Abs,Wavelength (nm),Abs,Wavelength (nm),Abs,
700.0320435,0.04527669027,700.0320435,0.02643112652,700.0320435,0.1262920499,700.0320435,0.06937523186,700.0320435,0.06144733727,700.0320435,0.06153140962,700.0320435,0.06309606135,
699.0248413,0.04550104961,699.0248413,0.02652563341,699.0248413,0.1268084496,699.0248413,0.07014010102,699.0248413,0.06203907728,699.0248413,0.06208124012,699.0248413,0.06349586695,
698.017334,0.0457030572,698.017334,0.02669134177,698.017334,0.1269256622,698.017334,0.07083905488,698.017334,0.06263162196,698.017334,0.06282380968,698.017334,0.06429317594,
697.0094604,0.04616194218,697.0094604,0.02661983296,697.0094604,0.1270024329,697.0094604,0.07159239799,697.0094604,0.06355114281,697.0094604,0.06333197653,697.0094604,0.06500983238,
696.0012817,0.04633030295,696.0012817,0.02662231028,696.0012817,0.1273039281,696.0012817,0.07225771248,696.0012817,0.06404393166,696.0012817,0.06411086768,696.0012817,0.06551373005,
694.9927979,0.04674865678,694.9927979,0.02706955932,694.9927979,0.1281158775,694.9927979,0.07358506322,694.9927979,0.06532116234,694.9927979,0.06493955106,694.9927979,0.06656763703,
693.9839478,0.04710349813,693.9839478,0.02728561126,693.9839478,0.1286705285,693.9839478,0.07387172431,693.9839478,0.06577650458,693.9839478,0.06584505737,693.9839478,0.06727796793,
692.9747925,0.04706460983,692.9747925,0.02686311491,692.9747925,0.1287689209,692.9747925,0.07425390184,692.9747925,0.06599434465,692.9747925,0.06621067226,692.9747925,0.0674944818,
691.965271,0.04741985351,691.965271,0.02726132795,691.965271,0.1290481985,691.965271,0.07504498214,691.965271,0.06704714894,691.965271,0.0668592751,691.965271,0.06850767881,
690.9554443,0.04773008451,690.9554443,0.02754159458,690.9554443,0.1298413277,690.9554443,0.07596424967,690.9554443,0.06825531274,690.9554443,0.06829020381,690.9554443,0.06949587911,
689.9453125,0.04836510122,689.9453125,0.0275470838,689.9453125,0.130352065,689.9453125,0.07620885968,689.9453125,0.06847467273,689.9453125,0.06845285743,689.9453125,0.07006465644,
688.9348145,0.0481512621,688.9348145,0.02751484327,688.9348145,0.1303621233,688.9348145,0.07754430175,688.9348145,0.06944093108,688.9348145,0.06950092316,688.9348145,0.07077235729,
688.0684814,0.04882640019,688.0684814,0.02807514183,688.0684814,0.131191045,688.0684814,0.07799960673,688.0684814,0.06971529126,688.0684814,0.07017030567,688.0684814,0.07153779268,
687.057373,0.04902286455,687.057373,0.02812810987,687.057373,0.1321791857,687.057373,0.07940148562,687.057373,0.07152851671,687.057373,0.0717709139,687.057373,0.07284515351,
686.0459595,0.04961163178,686.0459595,0.02813109197,686.0459595,0.1323763132,686.0459595,0.08021950722,686.0459595,0.07236485183,686.0459595,0.07238154858,686.0459595,0.07370503992,
685.0342407,0.05007809401,685.0342407,0.028075004,685.0342407,0.1326345652,685.0342407,0.08099256456,685.0342407,0.0729790777,685.0342407,0.05736740679,685.0342407,0.07419460267,
684.0222168,0.0500025712,684.0222168,0.02800812572,684.0222168,0.1337283552,684.0222168,0.081286937,684.0222168,0.07361229509,684.0222168,-0.04494782537,684.0222168,0.07501446456,
683.0098267,0.05000829324,683.0098267,0.02840133756,683.0098267,0.133125633,683.0098267,0.08255214244,683.0098267,0.07434979826,683.0098267,-0.04502862319,683.0098267,0.07583861798,
681.9971313,0.05074102059,681.9971313,0.02842930518,681.9971313,0.1341292858,681.9971313,0.08366317302,681.9971313,0.07557292283,681.9971313,-0.04445977509,681.9971313,0.07666650414,
680.9841309,0.0513105318,680.9841309,0.02891375124,680.9841309,0.1355904639,680.9841309,0.08455046266,680.9841309,0.07645428926,680.9841309,-0.04440495372,680.9841309,0.07790408283,
679.9707642,0.05124755204,679.9707642,0.02854735963,679.9707642,0.1356456876,679.9707642,0.08535172045,679.9707642,0.07712138444,679.9707642,-0.04478235543,679.9707642,0.07842382044,
678.9571533,0.05187221617,678.9571533,0.02873856574,678.9571533,0.13645567,678.9571533,0.08637399226,678.9571533,0.07844468951,678.9571533,-0.04464410245,678.9571533,0.07948204875,
677.9431763,0.05256880075,677.9431763,0.02907198668,677.9431763,0.1374831051,677.9431763,0.08770261705,677.9431763,0.0795937553,677.9431763,-0.04448832944,677.9431763,0.08105766773,
676.928833,0.05264848471,676.928833,0.02903332189,676.928833,0.137757808,676.928833,0.08863449842,676.928833,0.08068174124,676.928833,-0.04452800006,676.928833,0.08193201572,
676.0592041,0.05334049091,676.0592041,0.02946674451,676.0592041,0.1388863027,676.0592041,0.08973588794,676.0592041,0.08151295781,676.0592041,-0.04424918443,676.0592041,0.08315537125,
675.0443115,0.0535758473,675.0443115,0.02947281115,675.0443115,0.1391997337,675.0443115,0.09050159156,675.0443115,0.08243595064,675.0443115,-0.04438723624,675.0443115,0.08379563689,
674.0291138,0.05445498228,674.0291138,0.02956715226,674.0291138,0.1398414671,674.0291138,0.09162604809,674.0291138,0.08372287452,674.0291138,-0.04460724443,674.0291138,0.08467420191,
673.0135498,0.05455030128,673.0135498,0.02968748473,673.0135498,0.1404058039,673.0135498,0.09285977483,673.0135498,0.08445373923,673.0135498,-0.04457136244,673.0135498,0.08615007252,
671.9977417,0.0551738888,671.9977417,0.02999533899,671.9977417,0.1420511603,671.9977417,0.09400971234,671.9977417,0.0858611837,671.9977417,-0.04427176714,671.9977417,0.08738961816,
670.9815674,0.05512518808,670.9815674,0.03002371639,670.9815674,0.1423252374,670.9815674,0.09486221522,670.9815674,0.08714309335,670.9815674,-0.04483535513,670.9815674,0.08823521435,
669.9650879,0.05538700894,669.9650879,0.03038338758,669.9650879,0.1433840394,669.9650879,0.09607999027,669.9650879,0.08764978498,669.9650879,-0.04458888248,669.9650879,0.08943118155,
668.9483032,0.0560159795,668.9483032,0.02987140045,668.9483032,0.1436994076,668.9483032,0.09705466777,668.9483032,0.08884372562,668.9483032,-0.04487308115,668.9483032,0.09020403028,
667.9311523,0.05621227622,667.9311523,0.03008249775,667.9311523,0.1446706057,667.9311523,0.09853492677,667.9311523,0.09044092149,667.9311523,-0.0446251817,667.9311523,0.09122853726,
667.059082,0.05682323873,667.059082,0.03034169041,667.059082,0.1453988999,667.059082,0.09932959825,667.059082,0.09163090587,667.059082,-0.04451211542,667.059082,0.09240534902,
666.0413818,0.05697450414,666.0413818,0.03096933477,666.0413818,0.1468145996,666.0413818,0.1008674055,666.0413818,0.09246741235,666.0413818,-0.044582434,666.0413818,0.09427837282,
665.0233765,0.05767362192,665.0233765,0.03065973334,665.0233765,0.1399607211,665.0233765,0.101997748,665.0233765,0.09402950853,665.0233765,-0.04479337484,665.0233765,0.09540114552,
664.0050659,0.05812420696,664.0050659,0.03109272569,664.0050659,0.1103565469,664.0050659,0.1033432931,664.0050659,0.09572082013,664.0050659,-0.04500706121,664.0050659,0.09657604247,
662.9864502,0.05838316306,662.9864502,0.03088247031,662.9864502,0.1109171435,662.9864502,0.1047595739,662.9864502,0.09686085582,662.9864502,-0.04504771158,662.9864502,0.09793818742,
661.9674683,0.05889223143,661.9674683,0.03121654131,661.9674683,0.1120146438,661.9674683,0.1057945713,661.9674683,0.09809876233,661.9674683,-0.04479230195,661.9674683,0.09943405539,
660.9481812,0.05932025611,660.9481812,0.03155103698,660.9481812,0.1126663238,660.9481812,0.1073257551,660.9481812,0.09935481846,660.9481812,-0.04501149431,660.9481812,0.1007818654,
659.9286499,0.05995486304,659.9286499,0.03143463656,659.9286499,0.1134514362,659.9286499,0.1084014475,659.9286499,0.1005996317,659.9286499,-0.04482984543,659.9286499,0.1016927287,
659.0544434,0.06041802838,659.0544434,0.03155011684,659.0544434,0.1142584085,659.0544434,0.1097796112,659.0544434,0.101711899,659.0544434,-0.04499231279,659.0544434,0.1029852554,
658.0343018,0.06082942337,658.0343018,0.0318720527,658.0343018,0.1155556962,658.0343018,0.1113622636,658.0343018,0.1035379842,658.0343018,-0.04479935393,658.0343018,0.1045998782,
657.013855,0.06113415956,657.013855,0.03179520369,657.013855,0.1161504388,657.013855,0.1126430407,657.013855,0.105247207,657.013855,-0.04492107779,657.013855,0.1057427898,
655.993042,0.06161534786,655.993042,0.03213931248,655.993042,0.1171858534,655.993042,0.1137799621,655.993042,0.1064708829,655.993042,-0.04483404756,655.993042,0.1072353199,
654.9719849,0.06231068447,654.9719849,0.03242944181,654.9719849,0.118422322,654.9719849,0.1157473549,654.9719849,0.1080167368,654.9719849,-0.04468815029,654.9719849,0.1095544249,
653.9505615,0.06282225996,653.9505615,0.03223880753,653.9505615,0.1192962006,653.9505615,0.1168660522,653.9505615,0.1095483303,653.9505615,-0.04508266971,653.9505615,0.110504128,
652.928833,0.06307334453,652.928833,0.03243231401,652.928833,0.120365724,652.928833,0.1185369566,652.928833,0.1110765785,652.928833,-0.04461943731,652.928833,0.1120906696,
652.0528564,0.0635150373,652.0528564,0.0325169526,652.0528564,0.1212722063,652.0528564,0.1199151725,652.0528564,0.1120717376,652.0528564,-0.04492467269,652.0528564,0.1132998243,
651.0305786,0.06441157311,651.0305786,0.03310223669,651.0305786,0.1225648001,651.0305786,0.1220329627,651.0305786,0.1143241823,651.0305786,-0.04439130425,651.0305786,0.1153821498,
650.0079956,0.06513065845,650.0079956,0.03317571804,650.0079956,0.1237648278,650.0079956,0.1231840774,650.0079956,0.1161672547,650.0079956,0.03477082402,650.0079956,0.117044732,
648.9851074,0.06525810063,648.9851074,0.03256142512,648.9851074,0.1245283112,648.9851074,0.1245460361,648.9851074,0.1172113493,648.9851074,0.1213538349,648.9851074,0.1180101261,
647.9619141,0.06620413065,647.9619141,0.03339085728,647.9619141,0.1262851655,647.9619141,0.1264469475,647.9619141,0.1194892824,647.9619141,0.1207627952,647.9619141,0.1204194129,
646.9384155,0.06643745303,646.9384155,0.03334906697,646.9384155,0.1267058551,646.9384155,0.1277902126,646.9384155,0.1205050871,646.9384155,0.1213484257,646.9384155,0.1215157807,
646.0608521,0.06686742604,646.0608521,0.03338096291,646.0608521,0.1279091984,646.0608521,0.1293224394,646.0608521,0.1218628362,646.0608521,0.1244056374,646.0608521,0.1231290475,
645.0368042,0.06759899855,645.0368042,0.03383206949,645.0368042,0.129472658,645.0368042,0.1316688508,645.0368042,0.1239928603,645.0368042,0.1265484691,645.0368042,0.1249033287,
644.0124512,0.06841712445,644.0124512,0.03392196074,644.0124512,0.1306151897,644.0124512,0.1335012913,644.0124512,0.1261901408,644.0124512,0.1276644766,644.0124512,0.1274573505,
642.9877319,0.06868805736,642.9877319,0.03387384862,642.9877319,0.1324327141,642.9877319,0.1349299401,642.9877319,0.1280523986,642.9877319,0.128889069,642.9877319,0.1294697225,
641.9627686,0.06936758012,641.9627686,0.0343002826,641.9627686,0.133299619,641.9627686,0.1372591704,641.9627686,0.1300412118,641.9627686,0.131531775,641.9627686,0.1314680725,
640.9375,0.06984569877,640.9375,0.03432165831,640.9375,0.1346988827,640.9375,0.13879475,640.9375,0.1320967823,640.9375,0.1332954764,640.9375,0.1331874281,
640.0584106,0.07035329193,640.0584106,0.03397973254,640.0584106,0.1350201219,640.0584106,0.1402326971,640.0584106,0.13353315,640.0584106,0.1348304898,640.0584106,0.1345677972,
639.0325928,0.07104229182,639.0325928,0.03468995541,639.0325928,0.1369168758,639.0325928,0.1422952116,639.0325928,0.1352365315,639.0325928,0.1368741542,639.0325928,0.1368155181,
638.0064087,0.07160003483,638.0064087,0.03476813436,638.0064087,0.1382146776,638.0064087,0.1441394091,638.0064087,0.137600258,638.0064087,0.1389433742,638.0064087,0.1385132372,
636.9799805,0.07217316329,636.9799805,0.03499857336,636.9799805,0.1397842914,636.9799805,0.1465116888,636.9799805,0.1399578601,636.9799805,0.1413975209,636.9799805,0.14108859,
635.953186,0.07311592251,635.953186,0.03538283333,635.953186,0.1411723793,635.953186,0.1486343741,635.953186,0.1423746496,635.953186,0.1435078382,635.953186,0.1435623318,
635.072876,0.0735290423,635.072876,0.03524988145,635.072876,0.1423472613,635.072876,0.1501972824,635.072876,0.1440179497,635.072876,0.1451883465,635.072876,0.1447100788,
634.0455933,0.07392045856,634.0455933,0.03520125896,634.0455933,0.1435673833,634.0455933,0.1520358771,634.0455933,0.1454774141,634.0455933,0.1470324695,634.0455933,0.1471368521,
633.0180054,0.07466610521,633.0180054,0.03524033353,633.0180054,0.1447692215,633.0180054,0.1543805003,633.0180054,0.1476246417,633.0180054,0.1487983316,633.0180054,0.1488330364,
631.9900513,0.07537790388,631.9900513,0.03592683747,631.9900513,0.1467778236,631.9900513,0.1571554095,631.9900513,0.1506842375,631.9900513,0.1517096013,631.9900513,0.1515693516,
630.961853,0.07658410817,630.961853,0.03620074317,630.961853,0.1486759037,630.961853,0.1591011584,630.961853,0.1530948281,630.961853,0.154339239,630.961853,0.1540525258,
629.9333496,0.07672867924,629.9333496,0.03587420285,629.9333496,0.149698168,629.9333496,0.1615713984,629.9333496,0.1554376632,629.9333496,0.1567898989,629.9333496,0.1566014141,
629.0515747,0.07732773572,629.0515747,0.03601415455,629.0515747,0.151332438,629.0515747,0.1631899476,629.0515747,0.1573895812,629.0515747,0.1587371826,629.0515747,0.1586856544,
628.0224609,0.07811508328,628.0224609,0.03626838699,628.0224609,0.1528397352,628.0224609,0.1657098681,628.0224609,0.1597258151,628.0224609,0.1613733172,628.0224609,0.1611562073,
626.9931641,0.07880481333,626.9931641,0.03643855825,626.9931641,0.1542305201,626.9931641,0.167878136,626.9931641,0.1619823128,626.9931641,0.1635941714,626.9931641,0.163085714,
625.963501,0.07941606641,625.963501,0.03628631309,625.963501,0.1557174325,625.963501,0.1698925495,625.963501,0.1644764096,625.963501,0.1659491509,625.963501,0.1653849632,
624.9335327,0.08000981808,624.9335327,0.03673484176,624.9335327,0.157421723,624.9335327,0.172576651,624.9335327,0.1670476347,624.9335327,0.1681236625,624.9335327,0.1684905589,
624.0504761,0.08074265718,624.0504761,0.0369476378,624.0504761,0.1586319804,624.0504761,0.1749694496,624.0504761,0.1696595997,624.0504761,0.1710213125,624.0504761,0.1709883809,
623.0200195,0.0812337175,623.0200195,0.03714517504,623.0200195,0.1604100764,623.0200195,0.1772548407,623.0200195,0.1722575128,623.0200195,0.1737133265,623.0200195,0.1738143861,
621.9891968,0.08206242323,621.9891968,0.03719491512,621.9891968,0.1622114331,621.9891968,0.1801291853,621.9891968,0.1742630303,621.9891968,0.1759352237,621.9891968,0.1758556217,
620.9581299,0.08288923651,620.9581299,0.03691553697,620.9581299,0.1636074781,620.9581299,0.1824997216,620.9581299,0.1772019714,620.9581299,0.1787477285,620.9581299,0.1785231829,
619.9267578,0.08348955214,619.9267578,0.03715704381,619.9267578,0.1654470265,619.9267578,0.1847474575,619.9267578,0.1800223142,619.9267578,0.181504786,619.9267578,0.1812737882,
619.0424805,0.08430101722,619.0424805,0.03802122176,619.0424805,0.1665752679,619.0424805,0.1869880706,619.0424805,0.1822077781,619.0424805,0.1837838888,619.0424805,0.1835731268,
618.0105591,0.08523030579,618.0105591,0.03782817349,618.0105591,0.1684577018,618.0105591,0.189834103,618.0105591,0.185112074,618.0105591,0.1867787689,618.0105591,0.186864689,
616.9783936,0.0857309252,616.9783936,0.03795920685,616.9783936,0.170148775,616.9783936,0.1925773025,616.9783936,0.1878506094,616.9783936,0.1900450438,616.9783936,0.189631924,
615.9458618,0.08647222072,615.9458618,0.03849804774,615.9458618,0.172496438,615.9458618,0.1955354959,615.9458618,0.1915349811,615.9458618,0.1929151714,615.9458618,0.192849502,
615.0606079,0.08715637773,615.0606079,0.03826102614,615.0606079,0.1740750372,615.0606079,0.1979920864,615.0606079,0.1936248094,615.0606079,0.1952983737,615.0606079,0.1951606572,
614.0275879,0.08787878603,614.0275879,0.03839379922,614.0275879,0.1753614843,614.0275879,0.2008354366,614.0275879,0.1965412349,614.0275879,0.1984155178,614.0275879,0.1980387121,
612.9942627,0.08893546462,612.9942627,0.03899321333,612.9942627,0.1774895936,612.9942627,0.2037478387,612.9942627,0.199732691,612.9942627,0.2012083381,612.9942627,0.2014521658,
611.9606323,0.08958546072,611.9606323,0.03873432428,611.9606323,0.1792989522,611.9606323,0.2063751668,611.9606323,0.2029472589,611.9606323,0.2046426982,611.9606323,0.204561308,
610.9267578,0.09037085623,610.9267578,0.03912955523,610.9267578,0.181264475,610.9267578,0.2098246962,610.9267578,0.2060360312,610.9267578,0.2079151571,610.9267578,0.2078466117,
610.0402832,0.0913444832,610.0402832,0.03925358504,610.0402832,0.1828262061,610.0402832,0.2121431977,610.0402832,0.2087478191,610.0402832,0.2107328027,610.0402832,0.2108262628,
609.0058594,0.09241056442,609.0058594,0.03958094493,609.0058594,0.1846963316,609.0058594,0.2155269831,609.0058594,0.2120788246,609.0058594,0.2141867429,609.0058594,0.2140950114,
607.9711304,0.09282111377,607.9711304,0.03953626007,607.9711304,0.1868965328,607.9711304,0.2184538394,607.9711304,0.2155862898,607.9711304,0.2176594734,607.9711304,0.2175233066,
606.9360962,0.09348998964,606.9360962,0.03965442255,606.9360962,0.1886148304,606.9360962,0.2216008157,606.9360962,0.2185807526,606.9360962,0.2208951861,606.9360962,0.2205321789,
606.0487061,0.09439594299,606.0487061,0.04003763199,606.0487061,0.1903217584,606.0487061,0.2239833027,606.0487061,0.2212677598,606.0487061,0.2235264927,606.0487061,0.2234545946,
605.0131836,0.09525513649,605.0131836,0.04015207291,605.0131836,0.1922326088,605.0131836,0.227352038,605.0131836,0.2248607576,605.0131836,0.2269854695,605.0131836,0.2267373949,
603.977356,0.09592542052,603.977356,0.04009071738,603.977356,0.1940559,603.977356,0.2304636836,603.977356,0.2284182459,603.977356,0.2304932624,603.977356,0.230309695,
602.9412231,0.09672451019,602.9412231,0.04015630111,602.9412231,0.1962849647,602.9412231,0.2337266356,602.9412231,0.2317759991,602.9412231,0.2340567261,602.9412231,0.2339779288,
602.0528564,0.09793325514,602.0528564,0.04075164348,602.0528564,0.1984589398,602.0528564,0.2371446043,602.0528564,0.2353501767,602.0528564,0.2374838442,602.0528564,0.2375336289,
601.0162354,0.09850060195,601.0162354,0.04078138247,601.0162354,0.2001467198,601.0162354,0.2399355918,601.0162354,0.2386191934,601.0162354,0.2408345938,601.0162354,0.2408638,
599.9793091,0.09886649996,599.9793091,0.04077040777,599.9793091,0.2018429041,599.9793091,0.242987752,599.9793091,0.2416342199,599.9793091,0.2440087646,599.9793091,0.2438910604,
598.9420776,0.1002960801,598.9420776,0.04123176262,598.9420776,0.2043006867,598.9420776,0.2469597608,598.9420776,0.245333299,598.9420776,0.2482316196,598.9420776,0.2479311675,
598.0527954,0.1009023786,598.0527954,0.0412074849,598.0527954,0.2062090933,598.0527954,0.2499986142,598.0527954,0.2491461039,598.0527954,0.2518729568,598.0527954,0.2514685988,
597.0150757,0.1019017622,597.0150757,0.04125749692,597.0150757,0.2081491947,597.0150757,0.2534959614,597.0150757,0.2527965605,597.0150757,0.255286783,597.0150757,0.2552120984,
595.9770508,0.1027054116,595.9770508,0.04136263207,595.9770508,0.2104147524,595.9770508,0.2568559945,595.9770508,0.2565864027,595.9770508,0.2590947747,595.9770508,0.2589841485,
594.9387207,0.1035731733,594.9387207,0.04168172926,594.9387207,0.2127176523,594.9387207,0.2605811357,594.9387207,0.2602543533,594.9387207,0.2630154788,594.9387207,0.2629860342,
594.0485229,0.1040859595,594.0485229,0.04150727019,594.0485229,0.2142867446,594.0485229,0.2629731894,594.0485229,0.2628419995,594.0485229,0.2659243047,594.0485229,0.2656612396,
593.0097046,0.1049309075,593.0097046,0.04166001827,593.0097046,0.2162804008,593.0097046,0.2667639256,593.0097046,0.267280668,593.0097046,0.2701472044,593.0097046,0.269810915,
591.9706421,0.1062701121,591.9706421,0.04230624065,591.9706421,0.2191411555,591.9706421,0.271222502,591.9706421,0.2714534402,591.9706421,0.2745577395,591.9706421,0.2743349969,
590.9312134,0.1072048023,590.9312134,0.04263431206,590.9312134,0.2217881233,590.9312134,0.2749243379,590.9312134,0.2760447264,590.9312134,0.279319942,590.9312134,0.2788010538,
590.0401001,0.1076509431,590.0401001,0.04275823757,590.0401001,0.2234770805,590.0401001,0.2777897418,590.0401001,0.2791733742,590.0401001,0.2823442519,590.0401001,0.2822344899,
589.0001831,0.1085340977,589.0001831,0.04268049076,589.0001831,0.2259517312,589.0001831,0.2821053863,589.0001831,0.2834493816,589.0001831,0.2866717875,589.0001831,0.2866596282,
587.960022,0.1092738807,587.960022,0.04280999675,587.960022,0.2283443063,587.960022,0.2857922316,587.960022,0.2874087095,587.960022,0.2906821966,587.960022,0.2907809913,
587.0682373,0.1103289798,587.0682373,0.04312935844,587.0682373,0.2304386497,587.0682373,0.289237529,587.0682373,0.2907979786,587.0682373,0.2946867943,587.0682373,0.2942653298,
586.0275269,0.1109790057,586.0275269,0.04292416945,586.0275269,0.2323891521,586.0275269,0.2928992808,586.0275269,0.2949048579,586.0275269,0.2986406684,586.0275269,0.2984217107,
584.9865723,0.1119582281,584.9865723,0.04347026721,584.9865723,0.2350684255,584.9865723,0.2969962358,584.9865723,0.2997808158,584.9865723,0.3033204377,584.9865723,0.3029658496,
583.9453125,0.1126845777,583.9453125,0.04311154783,583.9453125,0.23746261,583.9453125,0.301269412,583.9453125,0.3041937947,583.9453125,0.3076407015,583.9453125,0.307623595,
583.0525513,0.1136483178,583.0525513,0.04381559789,583.0525513,0.2399287075,583.0525513,0.305174619,583.0525513,0.3081578314,583.0525513,0.3119472861,583.0525513,0.3120110929,
582.0108032,0.1145939827,582.0108032,0.04348237067,582.0108032,0.2419342846,582.0108032,0.3084481359,582.0108032,0.3119110167,582.0108032,0.3160243034,582.0108032,0.3157062829,
580.968811,0.115245834,580.968811,0.04387776926,580.968811,0.2444559783,580.968811,0.3123031259,580.968811,0.3161007464,580.968811,0.3200988173,580.968811,0.3200891912,
579.9264526,0.1160715744,579.9264526,0.04412174597,579.9264526,0.2468813807,579.9264526,0.3162224889,579.9264526,0.3203946948,579.9264526,0.3245502412,579.9264526,0.3245776594,
579.0328369,0.1169864386,579.0328369,0.04432535172,579.0328369,0.2494254261,579.0328369,0.320718497,579.0328369,0.3252704442,0,0,579.0328369,0.3292058408,
577.9900513,0.1180533022,577.9900513,0.04460440576,577.9900513,0.2519308329,577.9900513,0.3249104619,577.9900513,0.329998225,0,0,577.9900513,0.3342770934,
576.9469604,0.118685402,576.9469604,0.04456344247,576.9469604,0.2542059422,576.9469604,0.3289584816,576.9469604,0.3341248631,0,0,576.9469604,0.3384976089,
576.0526123,0.1193916425,576.0526123,0.04445956647,576.0526123,0.2560240924,576.0526123,0.3324264884,576.0526123,0.3375964165,0,0,576.0526123,0.3418940604,
575.0090332,0.1202191636,575.0090332,0.04476280883,575.0090332,0.2584028244,575.0090332,0.336460799,575.0090332,0.3421201706,0,0,575.0090332,0.3467566073,
573.9651489,0.1210432649,573.9651489,0.04478826374,573.9651489,0.2610706389,573.9651489,0.3408131301,573.9651489,0.3469347358,0,0,573.9651489,0.3514797688,
573.0701904,0.1219658032,573.0701904,0.04512180388,573.0701904,0.2636944056,573.0701904,0.3451128602,573.0701904,0.351467371,0,0,573.0701904,0.3566063046,
572.0258179,0.1223410815,572.0258179,0.04516577721,572.0258179,0.2658857703,572.0258179,0.3489056826,572.0258179,0.3559139967,0,0,572.0258179,0.3609473705,
570.9812012,0.1235417277,570.9812012,0.04563197494,570.9812012,0.2687954903,570.9812012,0.3535161614,570.9812012,0.360668242,0,0,570.9812012,0.3656331301,
569.9362793,0.124422498,569.9362793,0.04569118097,569.9362793,0.2714713216,569.9362793,0.3581228852,569.9362793,0.3654783964,0,0,569.9362793,0.3708352745,
569.0404053,0.1248895898,569.0404053,0.04576475173,569.0404053,0.2731238306,569.0404053,0.3613393903,569.0404053,0.3691913188,0,0,569.0404053,0.3742322922,
567.9949951,0.1257942617,567.9949951,0.0458833836,567.9949951,0.2757734358,567.9949951,0.3655718565,567.9949951,0.3737412691,0,0,567.9949951,0.3793514073,
566.9493408,0.126434654,566.9493408,0.04596432298,566.9493408,0.2779819965,566.9493408,0.3694889843,566.9493408,0.3783082068,0,0,566.9493408,0.3836841583,
566.0528564,0.1270397753,566.0528564,0.04596403614,566.0528564,0.2799371183,566.0528564,0.373413682,566.0528564,0.382409066,0,0,566.0528564,0.3884605765,
565.0066528,0.1280109137,565.0066528,0.04613554478,565.0066528,0.2827585042,565.0066528,0.3781767488,565.0066528,0.3877884448,0,0,565.0066528,0.3935387731,
563.9602051,0.1288534701,563.9602051,0.04644566402,563.9602051,0.285740912,563.9602051,0.3829870224,563.9602051,0.3928910494,0,0,563.9602051,0.3991353214,
563.0630493,0.1294416487,563.0630493,0.04672864825,563.0630493,0.2878025472,563.0630493,0.386179179,563.0630493,0.3965347409,0,0,563.0630493,0.403001219,
562.0161133,0.1298737228,562.0161133,0.04645295441,562.0161133,0.2900813222,562.0161133,0.3901292682,562.0161133,0.4011927843,0,0,562.0161133,0.40724352,
560.9689331,0.1311056167,560.9689331,0.047052145,560.9689331,0.2929381132,560.9689331,0.3951556683,560.9689331,0.4066354632,0,0,560.9689331,0.4127307236,
560.071106,0.1316860616,560.071106,0.04699064791,560.071106,0.2951592505,560.071106,0.3992476463,560.071106,0.4106636643,0,0,560.071106,0.4174988568,
559.0234375,0.1324144453,559.0234375,0.04714986682,559.0234375,0.2977772653,559.0234375,0.4037005007,559.0234375,0.4155159295,0,0,559.0234375,0.4222954214,
557.9754639,0.1331329495,557.9754639,0.04714161158,557.9754639,0.3000890911,557.9754639,0.4076781869,557.9754639,0.420370698,0,0,557.9754639,0.4270839095,
556.9272461,0.1334865987,556.9272461,0.04741419479,556.9272461,0.3020608425,556.9272461,0.4116145968,556.9272461,0.4244441092,0,0,556.9272461,0.4317038059,
556.0285645,0.1338272393,556.0285645,0.04707162082,556.0285645,0.3037758172,556.0285645,0.4147638679,556.0285645,0.4280466735,0,0,556.0285645,0.435451597,
554.9798584,0.134777084,554.9798584,0.04750191793,554.9798584,0.3063783646,554.9798584,0.4190693796,554.9798584,0.4331839681,0,0,554.9798584,0.4404244423,
553.9308472,0.1353824586,553.9308472,0.04778143018,553.9308472,0.3089348376,553.9308472,0.4235973358,553.9308472,0.4381211996,0,0,553.9308472,0.4458721578,
553.0315552,0.1358037293,553.0315552,0.04765135795,553.0315552,0.3102243841,553.0315552,0.4266694188,553.0315552,0.4413162172,0,0,553.0315552,0.4492024779,
551.9820557,0.1361646056,551.9820557,0.04783581942,551.9820557,0.3125757277,551.9820557,0.4303939939,551.9820557,0.4456347227,0,0,551.9820557,0.454035759,
550.932373,0.1366814524,550.932373,0.04777640477,550.932373,0.3146070838,550.932373,0.4340417683,550.932373,0.4495764673,0,0,550.932373,0.4577978551,
550.0324097,0.1372377574,550.0324097,0.04794206843,550.0324097,0.3162028193,550.0324097,0.4371956587,550.0324097,0.4530046582,0,0,550.0324097,0.4614416361,
548.9821777,0.1374489665,548.9821777,0.0478512235,548.9821777,0.3180540502,548.9821777,0.4410040975,548.9821777,0.4573752582,0,0,548.9821777,0.4660178125,
547.9317627,0.1378370225,547.9317627,0.0481608361,547.9317627,0.3202265203,547.9317627,0.4445924759,547.9317627,0.4615091681,0,0,547.9317627,0.4703667164,
547.0311279,0.1381883025,547.0311279,0.0481056273,547.0311279,0.3214246035,547.0311279,0.447365284,547.0311279,0.4645289481,0,0,547.0311279,0.4734256864,
545.9802246,0.1383737028,545.9802246,0.04799531773,545.9802246,0.3230228722,545.9802246,0.4503105283,545.9802246,0.467741847,0,0,545.9802246,0.47724244,
544.9290161,0.1388746947,544.9290161,0.04823089018,544.9290161,0.3247797489,544.9290161,0.4536400437,544.9290161,0.4718233645,0,0,544.9290161,0.4810866714,
544.027771,0.1392436177,544.027771,0.04814276099,544.027771,0.3259570301,544.027771,0.4558727741,544.027771,0.4743119776,0,0,544.027771,0.4837621152,
542.9760742,0.1392357349,542.9760742,0.04819117486,542.9760742,0.3272875845,542.9760742,0.4585724175,542.9760742,0.4774839878,0,0,542.9760742,0.4874149263,
542.0744629,0.1396918595,542.0744629,0.04860382527,542.0744629,0.3286423981,542.0744629,0.4610966146,542.0744629,0.4803915918,0,0,542.0744629,0.4902136922,
541.0223389,0.1398023218,541.0223389,0.04852997512,541.0223389,0.3294084966,541.0223389,0.4631565213,541.0223389,0.4824818075,0,0,541.0223389,0.4926561117,
539.9699097,0.1398887336,539.9699097,0.0483417213,539.9699097,0.3304629326,539.9699097,0.4653531313,539.9699097,0.4852528572,0,0,539.9699097,0.4956397116,
539.067627,0.1399368495,539.067627,0.04821894318,539.067627,0.3310346901,539.067627,0.4669764638,539.067627,0.4870555997,0,0,539.067627,0.4977158904,
538.0147705,0.1398802251,538.0147705,0.04818402976,538.0147705,0.3319244087,538.0147705,0.4686272144,538.0147705,0.489351064,0,0,538.0147705,0.4999144673,
536.9616089,0.1399283409,536.9616089,0.04825293273,536.9616089,0.3325355947,536.9616089,0.4703998864,536.9616089,0.4912739694,0,0,536.9616089,0.5021838546,
536.0587158,0.1398260742,536.0587158,0.04834947363,536.0587158,0.3330400884,536.0587158,0.4717972577,536.0587158,0.4930685163,0,0,536.0587158,0.5039715767,
535.005127,0.139670372,535.005127,0.04847631231,535.005127,0.3332689703,535.005127,0.4730153382,535.005127,0.4947861433,0,0,535.005127,0.5057576895,
533.9512939,0.1393748224,533.9512939,0.04836692289,533.9512939,0.3334717751,533.9512939,0.4737325311,533.9512939,0.4955446422,0,0,533.9512939,0.5069415569,
533.0477905,0.1392742842,533.0477905,0.04832899198,533.0477905,0.3334755599,533.0477905,0.474047482,533.0477905,0.496201396,0,0,533.0477905,0.5076556206,
531.9934692,0.1390063316,531.9934692,0.04800361767,531.9934692,0.3331651986,531.9934692,0.4742871523,531.9934692,0.4969651699,0,0,531.9934692,0.508349061,
530.9389038,0.1387151927,530.9389038,0.04815178365,530.9389038,0.332980454,530.9389038,0.4744825065,530.9389038,0.4974059165,0,0,530.9389038,0.5091607571,
530.034729,0.1380871534,530.034729,0.04773453623,530.034729,0.3322295547,530.034729,0.4739329517,530.034729,0.4969880879,0,0,530.034729,0.5087692142,
528.9797363,0.1383015513,528.9797363,0.04812641814,528.9797363,0.3320484161,528.9797363,0.4741883874,528.9797363,0.4973090589,0,0,528.9797363,0.5093106627,
528.0751953,0.1375037432,528.0751953,0.04764867201,528.0751953,0.3309001625,528.0751953,0.4732713699,528.0751953,0.4963486195,0,0,528.0751953,0.5083702803,
527.0197144,0.1373554021,527.0197144,0.04793368652,527.0197144,0.3302401304,527.0197144,0.4723880291,527.0197144,0.4959831834,0,0,527.0197144,0.5080215931,
525.9639282,0.1365815699,525.9639282,0.04783818871,525.9639282,0.3291575015,525.9639282,0.4710873067,525.9639282,0.4947708845,0,0,525.9639282,0.5073114038,
525.0588379,0.1361312419,525.0588379,0.04769229516,525.0588379,0.328107059,525.0588379,0.4700715542,525.0588379,0.4934189022,0,0,525.0588379,0.5059088469,
524.0026245,0.135101229,524.0026245,0.04717066884,524.0026245,0.3260602057,524.0026245,0.4672565162,524.0026245,0.4912104309,0,0,524.0026245,0.5032660365,
522.946106,0.1347919405,522.946106,0.04736358672,522.946106,0.3245900273,522.946106,0.4655445516,522.946106,0.4893878698,0,0,522.946106,0.5020548701,
522.0404053,0.1337777078,522.0404053,0.04710820317,522.0404053,0.3231523633,522.0404053,0.4635292888,522.0404053,0.4873341024,0,0,522.0404053,0.4995039403,
520.9834595,0.1332187802,520.9834595,0.04691782221,520.9834595,0.3214205801,520.9834595,0.4611078203,520.9834595,0.4849886596,0,0,520.9834595,0.497674346,
519.9263306,0.1324364692,519.9263306,0.04671642557,519.9263306,0.319111526,519.9263306,0.458393842,519.9263306,0.4817588329,0,0,519.9263306,0.4947449565,
519.0199585,0.1315067261,519.0199585,0.04654736817,519.0199585,0.3170942068,519.0199585,0.4554679692,519.0199585,0.4788367152,0,0,519.0199585,0.4912792742,
517.9623413,0.130337283,517.9623413,0.04612040147,517.9623413,0.3142442405,517.9623413,0.4513259828,517.9623413,0.4747424722,0,0,517.9623413,0.4875387847,
517.055603,0.1294261068,517.055603,0.04587279633,517.055603,0.3121145964,517.055603,0.4481396377,517.055603,0.4714262187,0,0,517.055603,0.4842450023,
515.9975586,0.1285867095,515.9975586,0.04590234533,515.9975586,0.3097800016,515.9975586,0.4449314475,515.9975586,0.4680843949,0,0,515.9975586,0.4803688824,
514.939209,0.1276501566,514.939209,0.04551154003,514.939209,0.3071592152,514.939209,0.4410385787,514.939209,0.464045167,0,0,514.939209,0.4764090478,
514.0319214,0.126696527,514.0319214,0.04548411816,514.0319214,0.3046975136,514.0319214,0.4374452531,514.0319214,0.4607153535,0,0,514.0319214,0.4729071856,
512.9731445,0.1255646944,512.9731445,0.04504512995,512.9731445,0.3014684021,512.9731445,0.432651937,512.9731445,0.4554999173,0,0,512.9731445,0.4678143561,
512.0654297,0.1243090257,512.0654297,0.04489015415,512.0654297,0.298653543,512.0654297,0.428527236,512.0654297,0.4510798752,0,0,512.0654297,0.4634747803,
511.0062256,0.1232336462,511.0062256,0.04452110827,511.0062256,0.2954127789,511.0062256,0.4237984717,511.0062256,0.4455153346,0,0,511.0062256,0.4580348432,
509.9467468,0.122314699,509.9467468,0.04458435252,509.9467468,0.2932168245,509.9467468,0.4196473956,509.9467468,0.4411382973,0,0,509.9467468,0.4539046288,
509.0384521,0.1214731112,509.0384521,0.04421665892,509.0384521,0.2904979587,509.0384521,0.415745616,509.0384521,0.4372172952,0,0,509.0384521,0.4495054781,
507.9785461,0.1202594861,507.9785461,0.04395572841,507.9785461,0.2867428362,507.9785461,0.4098440707,507.9785461,0.4313101768,0,0,507.9785461,0.4437488317,
507.0698547,0.1190248951,507.0698547,0.04375234991,507.0698547,0.2838006914,507.0698547,0.4051488638,507.0698547,0.4263228476,0,0,507.0698547,0.43832165,
506.0095215,0.1178139001,506.0095215,0.04353965446,506.0095215,0.2801644504,506.0095215,0.3999450803,506.0095215,0.4207883179,0,0,506.0095215,0.4327379763,
504.9489136,0.116363205,504.9489136,0.04323066026,504.9489136,0.2767444253,504.9489136,0.3943532109,504.9489136,0.4150785506,0,0,504.9489136,0.4268869758,
504.0396423,0.1156562939,504.0396423,0.04295649007,504.0396423,0.2749682963,504.0396423,0.3913345933,504.0396423,0.410864979,0,0,504.0396423,0.4228656292,
502.9786377,0.1146547496,502.9786377,0.04271036386,502.9786377,0.271394223,502.9786377,0.3861960769,502.9786377,0.4056180716,0,0,502.9786377,0.4173009992,
502.0689697,0.113537021,502.0689697,0.04229317233,502.0689697,0.2680795193,502.0689697,0.3810561001,502.0689697,0.4001565278,0,0,502.0689697,0.4118960202,
501.0075073,0.1124031767,501.0075073,0.04219097644,501.0075073,0.2647212148,501.0075073,0.3758270741,501.0075073,0.3948608041,0,0,501.0075073,0.4060306251,
499.9458008,0.1112665683,499.9458008,0.04198452085,499.9458008,0.2614924312,499.9458008,0.3708832562,499.9458008,0.3895065188,0,0,499.9458008,0.4005386531,
499.035553,0.1102199033,499.035553,0.04186059162,499.035553,0.2591509521,499.035553,0.3675093651,499.035553,0.3857513368,0,0,499.035553,0.3964290619,
497.9734192,0.1093994752,497.9734192,0.04158075899,497.9734192,0.2564224601,497.9734192,0.3627347946,497.9734192,0.380687952,0,0,497.9734192,0.3915373385,
497.0628052,0.1083459631,497.0628052,0.0414579697,497.0628052,0.2536970377,497.0628052,0.3587395251,497.0628052,0.3763509393,0,0,497.0628052,0.3868589401,
496.0002441,0.1071570888,496.0002441,0.04107265174,496.0002441,0.2504557669,496.0002441,0.3535215259,496.0002441,0.3707656264,0,0,496.0002441,0.3816503584,
494.9374084,0.1058711037,494.9374084,0.04066785797,494.9374084,0.2478177994,494.9374084,0.3492058814,494.9374084,0.3660805523,0,0,494.9374084,0.3763326406,
494.0262451,0.1053745151,494.0262451,0.04056115821,494.0262451,0.2457744926,494.0262451,0.3455118239,494.0262451,0.3622146249,0,0,494.0262451,0.3724239171,
492.9629822,0.1044694707,492.9629822,0.04053722695,492.9629822,0.2432482243,492.9629822,0.3418394029,492.9629822,0.3581216931,0,0,492.9629822,0.3685117066,
492.0514526,0.1040684208,492.0514526,0.04065003619,492.0514526,0.2415534854,492.0514526,0.3391192257,492.0514526,0.3548930585,0,0,492.0514526,0.3652053177,
490.9877625,0.1030601412,490.9877625,0.04004569352,490.9877625,0.2386979461,490.9877625,0.3352067173,490.9877625,0.3505046964,0,0,490.9877625,0.360332638,
490.0758362,0.1024155915,490.0758362,0.04001285508,490.0758362,0.2368286848,490.0758362,0.3318158984,490.0758362,0.3470447361,0,0,490.0758362,0.3571447134,
489.0117188,0.1015663296,489.0117188,0.0399595499,489.0117188,0.2347267121,489.0117188,0.328289777,489.0117188,0.3432743251,0,0,489.0117188,0.3531035483,
487.9473877,0.1009302661,487.9473877,0.03980402276,487.9473877,0.2325666547,487.9473877,0.3251550198,487.9473877,0.3400612175,0,0,487.9473877,0.3493411839,
487.0349121,0.1004857197,487.0349121,0.03967493027,487.0349121,0.231308043,487.0349121,0.3228580058,487.0349121,0.33771348,0,0,487.0349121,0.3471857607,
485.9701233,0.09984677285,485.9701233,0.03950113058,485.9701233,0.2293480784,485.9701233,0.319938153,485.9701233,0.3339609504,0,0,485.9701233,0.3437348902,
485.0572815,0.09955563396,485.0572815,0.03950949386,485.0572815,0.227978006,485.0572815,0.3174376786,485.0572815,0.3311796784,0,0,485.0572815,0.3406780362,
483.9920959,0.09865875542,483.9920959,0.03928812593,483.9920959,0.2258166522,483.9920959,0.3144778013,483.9920959,0.3282342851,0,0,483.9920959,0.337349087,
482.9266663,0.09843126684,482.9266663,0.03915318102,482.9266663,0.2247612029,482.9266663,0.3124847412,482.9266663,0.326081574,0,0,482.9266663,0.334680289,
482.0132446,0.09809924662,482.0132446,0.03921255842,482.0132446,0.2233643681,482.0132446,0.3102584779,482.0132446,0.3236355484,0,0,482.0132446,0.3326049745,
480.9474182,0.09738099575,480.9474182,0.03911615536,480.9474182,0.2220101207,480.9474182,0.3081122041,480.9474182,0.3211621642,0,0,480.9474182,0.3301657438,
480.0336304,0.09742768109,480.0336304,0.03933678567,480.0336304,0.2214504033,480.0336304,0.3065118194,480.0336304,0.3195341527,0,0,480.0336304,0.3284341693,
478.9673767,0.09674349427,478.9673767,0.03916847706,478.9673767,0.2200233489,478.9673767,0.3045233786,478.9673767,0.3172653019,0,0,478.9673767,0.3259731233,
478.0532532,0.0964967683,478.0532532,0.03914278373,478.0532532,0.2191164941,478.0532532,0.3030228317,478.0532532,0.3158732355,0,0,478.0532532,0.3242406249,
476.9865417,0.09604717791,476.9865417,0.03892287612,476.9865417,0.2180143893,476.9865417,0.3011940718,476.9865417,0.3137975931,0,0,476.9865417,0.3222055733,
476.072052,0.09579581767,476.072052,0.03891891241,476.072052,0.2173411697,476.072052,0.3001016676,476.072052,0.3124173284,0,0,476.072052,0.3211764395,
475.0049438,0.09540285915,475.0049438,0.03890277445,475.0049438,0.2161539942,475.0049438,0.2986388206,475.0049438,0.3108908236,0,0,475.0049438,0.319385618,
473.9376221,0.09494657069,473.9376221,0.03871394694,473.9376221,0.2153701037,473.9376221,0.2966339588,473.9376221,0.3088129759,0,0,473.9376221,0.3173259497,
473.022583,0.09499666095,473.022583,0.03884055093,473.022583,0.2147186995,473.022583,0.2959312499,473.022583,0.3078501523,0,0,473.022583,0.3160817623,
471.954834,0.09484343976,471.954834,0.03885238245,471.954834,0.2142662704,471.954834,0.2948220372,471.954834,0.3065564036,0,0,471.954834,0.3147807121,
471.0394287,0.09471622109,471.0394287,0.03883483261,471.0394287,0.2135986984,471.0394287,0.293674916,471.0394287,0.3052377999,0,0,471.0394287,0.3136756122,
469.971283,0.09455070645,469.971283,0.03877332434,469.971283,0.2128698975,469.971283,0.2928126454,469.971283,0.3042447269,0,0,469.971283,0.3126683533,
469.055542,0.09433227777,469.055542,0.03864142299,469.055542,0.2123228759,469.055542,0.2917694449,469.055542,0.3032604456,0,0,469.055542,0.3116154373,
467.986969,0.09428142756,467.986969,0.03871737421,467.986969,0.2120855302,467.986969,0.2910770774,467.986969,0.3024615049,0,0,467.986969,0.3107505143,
467.0708618,0.09431195259,467.0708618,0.03880035505,467.0708618,0.2115359604,467.0708618,0.2902055383,467.0708618,0.3015637696,0,0,467.0708618,0.3098812997,
466.0018921,0.09407328814,466.0018921,0.0387706086,466.0018921,0.2111718506,466.0018921,0.2896406353,466.0018921,0.3010925651,0,0,466.0018921,0.309181422,
464.9326782,0.09422948956,464.9326782,0.03893782571,464.9326782,0.2109310478,464.9326782,0.2893324494,464.9326782,0.3005027175,0,0,464.9326782,0.3084980547,
464.0160522,0.09410235286,464.0160522,0.03892743587,464.0160522,0.2108196914,464.0160522,0.2886489034,464.0160522,0.2997955978,0,0,464.0160522,0.3077687919,
462.9464417,0.0938116014,462.9464417,0.03883768991,462.9464417,0.210256815,462.9464417,0.2881429791,462.9464417,0.2988847494,0,0,462.9464417,0.3071194887,
462.0294495,0.09376832843,462.0294495,0.03891158104,462.0294495,0.2101044804,462.0294495,0.2875214219,462.0294495,0.2983716428,0,0,462.0294495,0.3064781427,
460.9594421,0.09389317781,460.9594421,0.03910887614,460.9594421,0.2099462897,460.9594421,0.2872039974,460.9594421,0.298114121,0,0,460.9594421,0.3060294688,
460.0421143,0.09387807548,460.0421143,0.03889748082,460.0421143,0.209596172,460.0421143,0.286890775,460.0421143,0.2975591719,0,0,460.0421143,0.3055226505,
458.9716797,0.09374734759,458.9716797,0.03872450441,458.9716797,0.2091724128,458.9716797,0.2862370908,458.9716797,0.2972005904,0,0,458.9716797,0.3050966859,
458.0540161,0.09379322082,458.0540161,0.03911006823,458.0540161,0.2094394118,458.0540161,0.2865973711,458.0540161,0.2969841957,0,0,458.0540161,0.3049836159,
456.9831848,0.09398441762,456.9831848,0.03916856274,456.9831848,0.2094641924,456.9831848,0.2859994173,456.9831848,0.2967780232,0,0,456.9831848,0.3045920432,
456.065155,0.09384121746,456.065155,0.03904846311,456.065155,0.2092697769,456.065155,0.2857644856,456.065155,0.2962082028,0,0,456.065155,0.3042854071,
454.993927,0.09380054474,454.993927,0.0390859358,454.993927,0.2090564072,454.993927,0.2855863869,454.993927,0.2959395349,0,0,454.993927,0.3038884401,
454.0755615,0.09386304021,454.0755615,0.03919884562,454.0755615,0.2091714591,454.0755615,0.2856471837,454.0755615,0.2960207462,0,0,454.0755615,0.3039527237,
453.0039673,0.09391236305,453.0039673,0.03921664134,453.0039673,0.209213689,453.0039673,0.2855283916,453.0039673,0.2959013283,0,0,453.0039673,0.3037396967,
451.9321289,0.09372811019,451.9321289,0.03909295797,451.9321289,0.2090957016,451.9321289,0.285295099,451.9321289,0.2954230607,0,0,451.9321289,0.3033316135,
451.0132446,0.09387643635,451.0132446,0.03914368898,451.0132446,0.2090257406,451.0132446,0.2852035463,451.0132446,0.2956477702,0,0,451.0132446,0.3032098711,
449.9410095,0.09395487607,449.9410095,0.03926795349,449.9410095,0.209090516,449.9410095,0.2851755321,449.9410095,0.295622617,0,0,449.9410095,0.3034267128,
449.0217896,0.09416732937,449.0217896,0.03929169849,449.0217896,0.2091085166,449.0217896,0.2852480114,449.0217896,0.2953626812,0,0,449.0217896,0.3032957613,
447.9491577,0.09415645897,447.9491577,0.03943258524,447.9491577,0.2092190981,447.9491577,0.2852618992,447.9491577,0.2954120636,0,0,447.9491577,0.3032070696,
447.0296021,0.09419494867,447.0296021,0.03956053033,447.0296021,0.2093438357,447.0296021,0.2853628099,447.0296021,0.2954277992,0,0,447.0296021,0.3030774891,
445.9565735,0.09431181848,445.9565735,0.03945914656,445.9565735,0.2094315439,445.9565735,0.2853138745,445.9565735,0.2956552804,0,0,445.9565735,0.3031989038,
445.0366821,0.09443000704,445.0366821,0.03966085985,445.0366821,0.2094921619,445.0366821,0.2853296995,445.0366821,0.2957431972,0,0,445.0366821,0.303398639,
443.9632568,0.09430998564,443.9632568,0.03943879157,443.9632568,0.2094703615,443.9632568,0.2855325341,443.9632568,0.2955848873,0,0,443.9632568,0.3033978343,
443.0430298,0.09448239207,443.0430298,0.0395504646,443.0430298,0.2096704245,443.0430298,0.2856008708,443.0430298,0.2958112955,0,0,443.0430298,0.3035565913,
441.9692383,0.09452418983,441.9692383,0.03962992132,441.9692383,0.2096835971,441.9692383,0.285795778,441.9692383,0.2958993316,0,0,441.9692383,0.3036375344,
441.0486755,0.09468190372,441.0486755,0.03969160467,441.0486755,0.2099411637,441.0486755,0.2859126329,441.0486755,0.2960725129,0,0,441.0486755,0.3035459816,
439.9744873,0.09462067485,439.9744873,0.03968650103,439.9744873,0.2099264264,439.9744873,0.2860749662,439.9744873,0.2960810065,0,0,439.9744873,0.3038083911,
439.0535889,0.09488736838,439.0535889,0.03979798034,439.0535889,0.210348025,439.0535889,0.2863797843,439.0535889,0.2966090441,0,0,439.0535889,0.3042444885,
437.9790344,0.09513894469,437.9790344,0.03989496082,437.9790344,0.2103444189,437.9790344,0.2866741419,437.9790344,0.2966055572,0,0,437.9790344,0.3044576943,
437.0578003,0.09521435946,437.0578003,0.03993730247,437.0578003,0.2108639479,437.0578003,0.2867896557,437.0578003,0.2970969379,0,0,437.0578003,0.3045894504,
435.9828491,0.09519221634,435.9828491,0.04018373042,435.9828491,0.2106926143,435.9828491,0.287058562,435.9828491,0.2970761061,0,0,435.9828491,0.3048176467,
435.0612793,0.09521958232,435.0612793,0.04018955305,435.0612793,0.2108199447,435.0612793,0.2873225808,435.0612793,0.2971730232,0,0,435.0612793,0.305015564,
433.9859619,0.09549944103,433.9859619,0.04019159824,433.9859619,0.2110201269,433.9859619,0.287642777,433.9859619,0.2976837456,0,0,433.9859619,0.305249691,
433.0640869,0.09584507346,433.0640869,0.04033649713,433.0640869,0.2114182711,433.0640869,0.2880803943,433.0640869,0.2978360653,0,0,433.0640869,0.30549559,
431.9883728,0.095991157,431.9883728,0.04035149515,431.9883728,0.2117213011,431.9883728,0.2881433666,431.9883728,0.2983084619,0,0,431.9883728,0.3058845699,
431.0661621,0.09598421305,431.0661621,0.04044840112,431.0661621,0.2118854523,431.0661621,0.2883076966,431.0661621,0.2985746861,0,0,431.0661621,0.3063850105,
429.9900513,0.09594288468,429.9900513,0.04025063664,429.9900513,0.2119145542,429.9900513,0.28889817,429.9900513,0.2988124192,0,0,429.9900513,0.3064514995,
429.0675354,0.09622683376,429.0675354,0.04063647613,429.0675354,0.2124157101,429.0675354,0.2892896831,429.0675354,0.2993019819,0,0,429.0675354,0.3069384992,
427.9910583,0.09626924992,427.9910583,0.04072360694,427.9910583,0.2125499696,427.9910583,0.2897078097,427.9910583,0.2996512353,0,0,427.9910583,0.3074526191,
427.0682068,0.09642184526,427.0682068,0.0407596305,427.0682068,0.2129837573,427.0682068,0.2899218798,427.0682068,0.3000508547,0,0,427.0682068,0.3077165186,
425.9913635,0.09651380777,425.9913635,0.04073694348,425.9913635,0.2132473588,425.9913635,0.2902525663,425.9913635,0.3004315197,0,0,425.9913635,0.3081727922,
425.0682068,0.09664618224,425.0682068,0.04084030539,425.0682068,0.2134928852,425.0682068,0.290674448,425.0682068,0.3007153869,0,0,425.0682068,0.3085058331,
423.9909668,0.09683332592,423.9909668,0.04093356431,423.9909668,0.2138405591,423.9909668,0.2910992503,423.9909668,0.3010956049,0,0,423.9909668,0.3089103103,
423.0674744,0.09688709676,423.0674744,0.04077094793,423.0674744,0.2140380591,423.0674744,0.2916125655,423.0674744,0.3014746308,0,0,423.0674744,0.3093262911,
421.9898987,0.09696204215,421.9898987,0.04095381498,421.9898987,0.21429196,421.9898987,0.2919521034,421.9898987,0.3019821346,0,0,421.9898987,0.3098580539,
421.0661011,0.09718940407,421.0661011,0.04090984166,421.0661011,0.2144887,421.0661011,0.2922438085,421.0661011,0.3024171293,0,0,421.0661011,0.3100760579,
419.9881287,0.09758774191,419.9881287,0.04107259214,419.9881287,0.2149028927,419.9881287,0.2928342521,419.9881287,0.303029716,0,0,419.9881287,0.3106416762,
419.0639954,0.09764371812,419.0639954,0.0411157608,419.0639954,0.2152596563,419.0639954,0.2934193313,419.0639954,0.303542763,0,0,419.0639954,0.3112293184,
417.9856873,0.09785570949,417.9856873,0.04129279405,417.9856873,0.215639919,417.9856873,0.2939388752,417.9856873,0.3040145636,0,0,417.9856873,0.311792016,
417.0612488,0.0982458666,417.0612488,0.04130347073,417.0612488,0.2163120955,417.0612488,0.2944537103,417.0612488,0.3046777844,0,0,417.0612488,0.3125215173,
415.9825439,0.09828095138,415.9825439,0.04136303067,415.9825439,0.2165284902,415.9825439,0.2950319052,415.9825439,0.3049817979,0,0,415.9825439,0.3128723204,
415.0578003,0.09829484671,415.0578003,0.04152885824,415.0578003,0.2165315598,415.0578003,0.2952757776,415.0578003,0.3054848015,0,0,415.0578003,0.3133250475,
413.9787292,0.09862412512,413.9787292,0.04167705402,413.9787292,0.2172769606,413.9787292,0.2959317565,413.9787292,0.3063766062,0,0,413.9787292,0.3139530718,
413.0536804,0.09858540446,413.0536804,0.04146036133,413.0536804,0.2173705101,413.0536804,0.2962130904,413.0536804,0.3067303002,0,0,413.0536804,0.3143158555,
411.9742432,0.09880205244,411.9742432,0.04166255146,411.9742432,0.2178086638,411.9742432,0.2969078124,411.9742432,0.3073171675,0,0,411.9742432,0.3149746656,
411.0488892,0.09923602641,411.0488892,0.04194038361,411.0488892,0.2184101045,411.0488892,0.2977422774,411.0488892,0.3081659079,0,0,411.0488892,0.3158819675,
409.9690857,0.09906829894,409.9690857,0.04197514057,409.9690857,0.2183738053,409.9690857,0.2979669571,409.9690857,0.3082846403,0,0,409.9690857,0.3160340488,
409.0434265,0.09930343926,409.0434265,0.04185055569,409.0434265,0.2188280523,409.0434265,0.298494786,409.0434265,0.3090166152,0,0,409.0434265,0.3168692887,
407.9632874,0.09969199449,407.9632874,0.04216405004,407.9632874,0.2194211632,407.9632874,0.2993349433,407.9632874,0.3097339869,0,0,407.9632874,0.3176772296,
407.0372925,0.09968629479,407.0372925,0.04226347059,407.0372925,0.219692573,407.0372925,0.2997614741,407.0372925,0.3101970553,0,0,407.0372925,0.318145752,
405.9567871,0.09986625612,405.9567871,0.0422277227,405.9567871,0.2201675922,405.9567871,0.3006790578,405.9567871,0.3110798895,0,0,405.9567871,0.3190159202,
405.0304871,0.100493975,405.0304871,0.04277345911,405.0304871,0.2209911197,405.0304871,0.3015705347,405.0304871,0.3118113577,0,0,405.0304871,0.3200172186,
403.949646,0.1001977697,403.949646,0.04240278527,403.949646,0.2207047045,403.949646,0.3016214967,403.949646,0.3122225404,0,0,403.949646,0.3201360703,
403.0230408,0.1005796939,403.0230408,0.04231711477,403.0230408,0.2214492857,403.0230408,0.3024179339,403.0230408,0.3130885661,0,0,403.0230408,0.3209939897,
401.9418335,0.1006077901,401.9418335,0.04243763536,401.9418335,0.2218571901,401.9418335,0.303216368,401.9418335,0.3137657046,0,0,401.9418335,0.3215847611,
401.0149231,0.1007398814,401.0149231,0.04250014946,401.0149231,0.2221223861,401.0149231,0.3036626279,401.0149231,0.3144284189,0,0,401.0149231,0.3222584128,
399.9333801,0.1012037694,399.9333801,0.04291408136,399.9333801,0.222749114,399.9333801,0.3046067655,399.9333801,0.3151192665,0,0,399.9333801,0.3232830465,

Direct 100x 24hr,
Direct 100x 24hr
Collection Time: 9/27/2015 1:36:42 PM
Operator Name  :
Scan Version 5.0.0.999
Parameter List :
Instrument  Cary 50
Instrument Version  3.00
Start (nm)  700.0
Stop (nm)  400.0
X Mode  Nanometers
Y Mode  Abs
UV-Vis Scan Rate (nm/min)  600.000
UV-Vis Data Interval (nm)  1.00
UV-Vis Ave. Time (sec)  0.1000
Beam Mode  Dual Beam
Baseline Correction  On
Baseline Type  Baseline correction
Baseline File Name
Baseline Std Ref File Name
Cycle Mode  Off
Method Log     :
Method Name    : C:\Users\heatherweltner\Documents\Au Standard.MSW
Date/Time stamp: 7/3/2015 11:24:50 AM
Method Modifications:
UVVIS SAT Changed: 7/1/2015 11:30:22 AM, Old:0.0125, New:0.1000
Common SAT Changed: 7/1/2015 11:30:22 AM, Old:0.0125, New:0.1000
X Start nm Changed: 7/1/2015 11:30:31 AM, Old:  800.0, New:  700.0
X Stop nm Changed: 7/1/2015 11:30:31 AM, Old:  200.0, New:  300.0
Common Interval nm Changed: 7/1/2015 11:30:31 AM, Old:     5.00, New:     1.00
Baseline Correction Changed: 7/1/2015 11:30:31 AM, Old:0, New:1
Saved as C:\Users\heatherweltner\Documents\Au Standard.MSWOpened C:\Users\heatherweltner\Documents\Au Standard.MSW
X Stop nm Changed: 7/3/2015 11:24:45 AM, Old:  300.0, New:  400.0
Saved as C:\Users\heatherweltner\Documents\Au Standard.MSW
Opened C:\Users\heatherweltner\Documents\Au Standard.MSW
End Method Modifications
<Current Wavelength> , 401.0

Direct 30x 24hr,
Direct 30x 24hr
Collection Time: 9/27/2015 1:38:40 PM
Operator Name  :
Scan Version 5.0.0.999
Parameter List :
Instrument  Cary 50
Instrument Version  3.00
Start (nm)  700.0
Stop (nm)  400.0
X Mode  Nanometers
Y Mode  Abs
UV-Vis Scan Rate (nm/min)  600.000
UV-Vis Data Interval (nm)  1.00
UV-Vis Ave. Time (sec)  0.1000
Beam Mode  Dual Beam
Baseline Correction  On
Baseline Type  Baseline correction
Baseline File Name
Baseline Std Ref File Name
Cycle Mode  Off
Method Log     :
Method Name    : C:\Users\heatherweltner\Documents\Au Standard.MSW
Date/Time stamp: 7/3/2015 11:24:50 AM
Method Modifications:
UVVIS SAT Changed: 7/1/2015 11:30:22 AM, Old:0.0125, New:0.1000
Common SAT Changed: 7/1/2015 11:30:22 AM, Old:0.0125, New:0.1000
X Start nm Changed: 7/1/2015 11:30:31 AM, Old:  800.0, New:  700.0
X Stop nm Changed: 7/1/2015 11:30:31 AM, Old:  200.0, New:  300.0
Common Interval nm Changed: 7/1/2015 11:30:31 AM, Old:     5.00, New:     1.00
Baseline Correction Changed: 7/1/2015 11:30:31 AM, Old:0, New:1
Saved as C:\Users\heatherweltner\Documents\Au Standard.MSWOpened C:\Users\heatherweltner\Documents\Au Standard.MSW
X Stop nm Changed: 7/3/2015 11:24:45 AM, Old:  300.0, New:  400.0
Saved as C:\Users\heatherweltner\Documents\Au Standard.MSW
Opened C:\Users\heatherweltner\Documents\Au Standard.MSW
End Method Modifications
<Current Wavelength> , 401.0

Direct 10x 24hr,
Direct 10x 24hr
Collection Time: 9/27/2015 1:39:51 PM
Operator Name  :
Scan Version 5.0.0.999
Parameter List :
Instrument  Cary 50
Instrument Version  3.00
Start (nm)  700.0
Stop (nm)  400.0
X Mode  Nanometers
Y Mode  Abs
UV-Vis Scan Rate (nm/min)  600.000
UV-Vis Data Interval (nm)  1.00
UV-Vis Ave. Time (sec)  0.1000
Beam Mode  Dual Beam
Baseline Correction  On
Baseline Type  Baseline correction
Baseline File Name
Baseline Std Ref File Name
Cycle Mode  Off
Method Log     :
Method Name    : C:\Users\heatherweltner\Documents\Au Standard.MSW
Date/Time stamp: 7/3/2015 11:24:50 AM
Method Modifications:
UVVIS SAT Changed: 7/1/2015 11:30:22 AM, Old:0.0125, New:0.1000
Common SAT Changed: 7/1/2015 11:30:22 AM, Old:0.0125, New:0.1000
X Start nm Changed: 7/1/2015 11:30:31 AM, Old:  800.0, New:  700.0
X Stop nm Changed: 7/1/2015 11:30:31 AM, Old:  200.0, New:  300.0
Common Interval nm Changed: 7/1/2015 11:30:31 AM, Old:     5.00, New:     1.00
Baseline Correction Changed: 7/1/2015 11:30:31 AM, Old:0, New:1
Saved as C:\Users\heatherweltner\Documents\Au Standard.MSWOpened C:\Users\heatherweltner\Documents\Au Standard.MSW
X Stop nm Changed: 7/3/2015 11:24:45 AM, Old:  300.0, New:  400.0
Saved as C:\Users\heatherweltner\Documents\Au Standard.MSW
Opened C:\Users\heatherweltner\Documents\Au Standard.MSW
End Method Modifications
<Current Wavelength> , 401.0

Direct 3x 24hr,
Direct 3x 24hr
Collection Time: 9/27/2015 1:40:52 PM
Operator Name  :
Scan Version 5.0.0.999
Parameter List :
Instrument  Cary 50
Instrument Version  3.00
Start (nm)  700.0
Stop (nm)  400.0
X Mode  Nanometers
Y Mode  Abs
UV-Vis Scan Rate (nm/min)  600.000
UV-Vis Data Interval (nm)  1.00
UV-Vis Ave. Time (sec)  0.1000
Beam Mode  Dual Beam
Baseline Correction  On
Baseline Type  Baseline correction
Baseline File Name
Baseline Std Ref File Name
Cycle Mode  Off
Method Log     :
Method Name    : C:\Users\heatherweltner\Documents\Au Standard.MSW
Date/Time stamp: 7/3/2015 11:24:50 AM
Method Modifications:
UVVIS SAT Changed: 7/1/2015 11:30:22 AM, Old:0.0125, New:0.1000
Common SAT Changed: 7/1/2015 11:30:22 AM, Old:0.0125, New:0.1000
X Start nm Changed: 7/1/2015 11:30:31 AM, Old:  800.0, New:  700.0
X Stop nm Changed: 7/1/2015 11:30:31 AM, Old:  200.0, New:  300.0
Common Interval nm Changed: 7/1/2015 11:30:31 AM, Old:     5.00, New:     1.00
Baseline Correction Changed: 7/1/2015 11:30:31 AM, Old:0, New:1
Saved as C:\Users\heatherweltner\Documents\Au Standard.MSWOpened C:\Users\heatherweltner\Documents\Au Standard.MSW
X Stop nm Changed: 7/3/2015 11:24:45 AM, Old:  300.0, New:  400.0
Saved as C:\Users\heatherweltner\Documents\Au Standard.MSW
Opened C:\Users\heatherweltner\Documents\Au Standard.MSW
End Method Modifications
<Current Wavelength> , 401.0

Direct 1x 24hr,
Direct 1x 24hr
Collection Time: 9/27/2015 1:41:49 PM
Operator Name  :
Scan Version 5.0.0.999
Parameter List :
Instrument  Cary 50
Instrument Version  3.00
Start (nm)  700.0
Stop (nm)  400.0
X Mode  Nanometers
Y Mode  Abs
UV-Vis Scan Rate (nm/min)  600.000
UV-Vis Data Interval (nm)  1.00
UV-Vis Ave. Time (sec)  0.1000
Beam Mode  Dual Beam
Baseline Correction  On
Baseline Type  Baseline correction
Baseline File Name
Baseline Std Ref File Name
Cycle Mode  Off
Method Log     :
Method Name    : C:\Users\heatherweltner\Documents\Au Standard.MSW
Date/Time stamp: 7/3/2015 11:24:50 AM
Method Modifications:
UVVIS SAT Changed: 7/1/2015 11:30:22 AM, Old:0.0125, New:0.1000
Common SAT Changed: 7/1/2015 11:30:22 AM, Old:0.0125, New:0.1000
X Start nm Changed: 7/1/2015 11:30:31 AM, Old:  800.0, New:  700.0
X Stop nm Changed: 7/1/2015 11:30:31 AM, Old:  200.0, New:  300.0
Common Interval nm Changed: 7/1/2015 11:30:31 AM, Old:     5.00, New:     1.00
Baseline Correction Changed: 7/1/2015 11:30:31 AM, Old:0, New:1
Saved as C:\Users\heatherweltner\Documents\Au Standard.MSWOpened C:\Users\heatherweltner\Documents\Au Standard.MSW
X Stop nm Changed: 7/3/2015 11:24:45 AM, Old:  300.0, New:  400.0
Saved as C:\Users\heatherweltner\Documents\Au Standard.MSW
Opened C:\Users\heatherweltner\Documents\Au Standard.MSW
End Method Modifications
<Current Wavelength> , 401.0

Direct 1x 24hr1,
Direct 1x 24hr1
Collection Time: 9/27/2015 1:42:23 PM
Operator Name  :
Scan Version 5.0.0.999
Parameter List :
Instrument  Cary 50
Instrument Version  3.00
Start (nm)  700.0
Stop (nm)  400.0
X Mode  Nanometers
Y Mode  Abs
UV-Vis Scan Rate (nm/min)  600.000
UV-Vis Data Interval (nm)  1.00
UV-Vis Ave. Time (sec)  0.1000
Beam Mode  Dual Beam
Baseline Correction  On
Baseline Type  Baseline correction
Baseline File Name
Baseline Std Ref File Name
Cycle Mode  Off
Method Log     :
Method Name    : C:\Users\heatherweltner\Documents\Au Standard.MSW
Date/Time stamp: 7/3/2015 11:24:50 AM
Method Modifications:
UVVIS SAT Changed: 7/1/2015 11:30:22 AM, Old:0.0125, New:0.1000
Common SAT Changed: 7/1/2015 11:30:22 AM, Old:0.0125, New:0.1000
X Start nm Changed: 7/1/2015 11:30:31 AM, Old:  800.0, New:  700.0
X Stop nm Changed: 7/1/2015 11:30:31 AM, Old:  200.0, New:  300.0
Common Interval nm Changed: 7/1/2015 11:30:31 AM, Old:     5.00, New:     1.00
Baseline Correction Changed: 7/1/2015 11:30:31 AM, Old:0, New:1
Saved as C:\Users\heatherweltner\Documents\Au Standard.MSWOpened C:\Users\heatherweltner\Documents\Au Standard.MSW
X Stop nm Changed: 7/3/2015 11:24:45 AM, Old:  300.0, New:  400.0
Saved as C:\Users\heatherweltner\Documents\Au Standard.MSW
Opened C:\Users\heatherweltner\Documents\Au Standard.MSW
End Method Modifications
<Current Wavelength> , 579.9

Direct 0x 24hr,
Direct 0x 24hr
Collection Time: 9/27/2015 1:42:44 PM
Operator Name  :
Scan Version 5.0.0.999
Parameter List :
Instrument  Cary 50
Instrument Version  3.00
Start (nm)  700.0
Stop (nm)  400.0
X Mode  Nanometers
Y Mode  Abs
UV-Vis Scan Rate (nm/min)  600.000
UV-Vis Data Interval (nm)  1.00
UV-Vis Ave. Time (sec)  0.1000
Beam Mode  Dual Beam
Baseline Correction  On
Baseline Type  Baseline correction
Baseline File Name
Baseline Std Ref File Name
Cycle Mode  Off
Method Log     :
Method Name    : C:\Users\heatherweltner\Documents\Au Standard.MSW
Date/Time stamp: 7/3/2015 11:24:50 AM
Method Modifications:
UVVIS SAT Changed: 7/1/2015 11:30:22 AM, Old:0.0125, New:0.1000
Common SAT Changed: 7/1/2015 11:30:22 AM, Old:0.0125, New:0.1000
X Start nm Changed: 7/1/2015 11:30:31 AM, Old:  800.0, New:  700.0
X Stop nm Changed: 7/1/2015 11:30:31 AM, Old:  200.0, New:  300.0
Common Interval nm Changed: 7/1/2015 11:30:31 AM, Old:     5.00, New:     1.00
Baseline Correction Changed: 7/1/2015 11:30:31 AM, Old:0, New:1
Saved as C:\Users\heatherweltner\Documents\Au Standard.MSWOpened C:\Users\heatherweltner\Documents\Au Standard.MSW
X Stop nm Changed: 7/3/2015 11:24:45 AM, Old:  300.0, New:  400.0
Saved as C:\Users\heatherweltner\Documents\Au Standard.MSW
Opened C:\Users\heatherweltner\Documents\Au Standard.MSW
End Method Modifications
<Current Wavelength> , 401.0

