H2 100x 24hr,,H2 30x 24hr,,H2 10x 24hr,,H2 3x 24hr,,H2 1x 24hr,,H2 0x 24hr,,
Wavelength (nm),Abs,Wavelength (nm),Abs,Wavelength (nm),Abs,Wavelength (nm),Abs,Wavelength (nm),Abs,Wavelength (nm),Abs,
700.0320435,0.03905627877,700.0320435,0.06406061351,700.0320435,0.02795072831,700.0320435,0.02844580449,700.0320435,0.02057410032,700.0320435,0.02269527316,
699.0248413,0.03910315409,699.0248413,0.06441235542,699.0248413,0.02826815471,699.0248413,0.02849807218,699.0248413,0.0209178254,699.0248413,0.022722058,
698.017334,0.0393303819,698.017334,0.06437525153,698.017334,0.0286159236,698.017334,0.02906343341,698.017334,0.0211997088,698.017334,0.02292509563,
697.0094604,0.03972246498,697.0094604,0.06485427171,697.0094604,0.02924888581,697.0094604,0.02916419134,697.0094604,0.02133114822,697.0094604,0.02315744385,
696.0012817,0.03984408453,696.0012817,0.06527984887,696.0012817,0.02934201434,696.0012817,0.02955992147,696.0012817,0.02156340517,696.0012817,0.02344308048,
694.9927979,0.03963482752,694.9927979,0.06527972966,694.9927979,0.0293098893,694.9927979,0.0295656845,694.9927979,0.0215583723,694.9927979,0.02378503606,
693.9839478,0.04035513103,693.9839478,0.06581243128,693.9839478,0.0297832042,693.9839478,0.03022373095,693.9839478,0.02219054848,693.9839478,0.02399874851,
692.9747925,0.04042538628,692.9747925,0.0660328567,692.9747925,0.03026344627,692.9747925,0.0305784028,692.9747925,0.02236711979,692.9747925,0.02418692037,
691.965271,0.04088196903,691.965271,0.06619240344,691.965271,0.03028842434,691.965271,0.03051555343,691.965271,0.0225087814,691.965271,0.02427541278,
690.9554443,0.04100525007,690.9554443,0.0668835789,690.9554443,0.0309155751,690.9554443,0.03095540777,690.9554443,0.02274813503,690.9554443,0.0246181339,
689.9453125,0.04096451029,689.9453125,0.0672127828,689.9453125,0.03126124293,689.9453125,0.03131190315,689.9453125,0.02334924042,689.9453125,0.02508869208,
688.9348145,0.04133404791,688.9348145,0.06731998175,688.9348145,0.03157620132,688.9348145,0.03141437843,688.9348145,0.02360438928,688.9348145,0.02532722056,
688.0684814,0.04181840643,688.0684814,0.0677138567,688.0684814,0.03202395886,688.0684814,0.03216570988,688.0684814,0.02401001938,688.0684814,0.02565935068,
687.057373,0.04173244908,687.057373,0.06792768091,687.057373,0.03240648657,687.057373,0.03205138072,687.057373,0.02422942594,687.057373,0.02588478476,
686.0459595,0.04221596941,686.0459595,0.06842876226,686.0459595,0.03280507028,686.0459595,0.03262766823,686.0459595,0.02436184138,686.0459595,0.02610822022,
685.0342407,0.04206219688,685.0342407,0.06839734316,685.0342407,0.03292443231,685.0342407,0.03299701586,685.0342407,0.02484925091,685.0342407,0.026668109,
684.0222168,0.04299261048,684.0222168,0.06958829612,684.0222168,0.03406195343,684.0222168,0.03377196565,684.0222168,0.02543408796,684.0222168,0.02751762792,
683.0098267,0.04276528955,683.0098267,0.06901201606,683.0098267,0.0338951759,683.0098267,0.03347252309,683.0098267,0.02538597398,683.0098267,0.02679738775,
681.9971313,0.04310334474,681.9971313,0.06992277503,681.9971313,0.03453537822,681.9971313,0.03393796831,681.9971313,0.02555561252,681.9971313,0.02705740929,
680.9841309,0.04360135645,680.9841309,0.07025647908,680.9841309,0.03480776027,680.9841309,0.0344514139,680.9841309,0.0261654295,680.9841309,0.02791230008,
679.9707642,0.0435940586,679.9707642,0.07066082954,679.9707642,0.03515031189,679.9707642,0.03482097015,679.9707642,0.02644818276,679.9707642,0.02829666808,
678.9571533,0.04378244281,678.9571533,0.0709579736,678.9571533,0.0359917134,678.9571533,0.03485639393,678.9571533,0.02687702142,678.9571533,0.02864802629,
677.9431763,0.04454726726,677.9431763,0.0719088465,677.9431763,0.03613915667,677.9431763,0.03583492711,677.9431763,0.02765595913,677.9431763,0.02878290042,
676.928833,0.04460122064,676.928833,0.07209867984,676.928833,0.03673579916,676.928833,0.03600577265,676.928833,0.02769980021,676.928833,0.02928366512,
676.0592041,0.0448473841,676.0592041,0.07261063159,676.0592041,0.0370256342,676.0592041,0.03665273264,676.0592041,0.0282269381,676.0592041,0.02993989736,
675.0443115,0.04524428397,675.0443115,0.0729663372,675.0443115,0.03764037788,675.0443115,0.0369249247,675.0443115,0.02857951261,675.0443115,0.03009889461,
674.0291138,0.04575393721,674.0291138,0.07316938043,674.0291138,0.03825850785,674.0291138,0.03775624558,674.0291138,0.02900982462,674.0291138,0.0308039058,
673.0135498,0.04572761804,673.0135498,0.07341646403,673.0135498,0.03850359097,673.0135498,0.03750534728,673.0135498,0.02885410376,673.0135498,0.03082733229,
671.9977417,0.04640386626,671.9977417,0.07424195111,671.9977417,0.03940347582,671.9977417,0.03841950744,671.9977417,0.03027188219,671.9977417,0.03149639443,
670.9815674,0.04649196193,670.9815674,0.07452109456,670.9815674,0.03948261961,670.9815674,0.03872461617,670.9815674,0.03016473539,670.9815674,0.0316417627,
669.9650879,0.0467364043,669.9650879,0.07510206103,669.9650879,0.0401199609,669.9650879,0.03905189037,669.9650879,0.03086454421,669.9650879,0.03210310638,
668.9483032,0.04705168307,668.9483032,0.07531034946,668.9483032,0.04121739045,668.9483032,0.0399267152,668.9483032,0.03120574914,668.9483032,0.03277143091,
667.9311523,0.04732750356,667.9311523,0.07609753311,667.9311523,0.04183385149,667.9311523,0.04038473219,667.9311523,0.03196393698,667.9311523,0.03357262909,
667.059082,0.04754249379,667.059082,0.07677408308,667.059082,0.04224261642,667.059082,0.04092397913,667.059082,0.03232831508,667.059082,0.03354312852,
666.0413818,0.04802628234,666.0413818,0.07684476674,666.0413818,0.04257500544,666.0413818,0.04167785496,666.0413818,0.03273944184,666.0413818,0.03455670923,
665.0233765,0.04842830077,665.0233765,0.07766240835,665.0233765,0.04352397472,665.0233765,0.04198948294,665.0233765,0.0333484523,665.0233765,0.03460164368,
664.0050659,0.04860423133,664.0050659,0.07792461663,664.0050659,0.04372999072,664.0050659,0.0424323827,664.0050659,0.0336582996,664.0050659,0.03521082923,
662.9864502,0.04877096415,662.9864502,0.07832959294,662.9864502,0.04459553957,662.9864502,0.04272516072,662.9864502,0.03400178999,662.9864502,0.03588466346,
661.9674683,0.04921663553,661.9674683,0.07884903997,661.9674683,0.04529519379,661.9674683,0.04372724518,661.9674683,0.03471165895,661.9674683,0.03620431572,
660.9481812,0.04973033443,660.9481812,0.07951618731,660.9481812,0.04578502849,660.9481812,0.04408108816,660.9481812,0.03544939682,660.9481812,0.03689626232,
659.9286499,0.04991323873,659.9286499,0.08006674051,659.9286499,0.04622778669,659.9286499,0.04447857663,659.9286499,0.03593749553,659.9286499,0.03737583384,
659.0544434,0.05051437765,659.0544434,0.08082683384,659.0544434,0.04684616253,659.0544434,0.04526692256,659.0544434,0.03662439808,659.0544434,0.037966609,
658.0343018,0.05074395984,658.0343018,0.08128722012,658.0343018,0.0479622446,658.0343018,0.04609441012,658.0343018,0.03727899119,658.0343018,0.03855054826,
657.013855,0.0510978885,657.013855,0.08164248616,657.013855,0.04862351343,657.013855,0.0468490161,657.013855,0.03781605884,657.013855,0.03945101053,
655.993042,0.05146111548,655.993042,0.08266858011,655.993042,0.04932937026,655.993042,0.04724625126,655.993042,0.03868061304,655.993042,0.03976260498,
654.9719849,0.05168679357,654.9719849,0.08302432299,654.9719849,0.04973523691,654.9719849,0.04779440537,654.9719849,0.03904803842,654.9719849,0.040595036,
653.9505615,0.05197272077,653.9505615,0.08337169886,653.9505615,0.05088415742,653.9505615,0.04865863174,653.9505615,0.0398154296,653.9505615,0.04116721079,
652.928833,0.05220388994,652.928833,0.08414307237,652.928833,0.05169551075,652.928833,0.04897873104,652.928833,0.04028818384,652.928833,0.04131149873,
652.0528564,0.05253587663,652.0528564,0.0846792683,652.0528564,0.05230826512,652.0528564,0.04942180216,652.0528564,0.04091427848,652.0528564,0.04237321764,
651.0305786,0.05309113115,651.0305786,0.08515968919,651.0305786,0.05319639295,651.0305786,0.05060371757,651.0305786,0.04180161655,651.0305786,0.04296734929,
650.0079956,0.05354679748,650.0079956,0.0860190317,650.0079956,0.05403600633,650.0079956,0.05125687644,650.0079956,0.04239054024,650.0079956,0.04385680333,
648.9851074,0.05387532711,648.9851074,0.08648198098,648.9851074,0.05510182306,648.9851074,0.05200638995,648.9851074,0.04352039844,648.9851074,0.0442141667,
647.9619141,0.05373231322,647.9619141,0.08673344553,647.9619141,0.05542121083,647.9619141,0.0526576601,647.9619141,0.04394418374,647.9619141,0.04443613812,
646.9384155,0.0548979789,646.9384155,0.08770303428,646.9384155,0.05668326095,646.9384155,0.05401780084,646.9384155,0.04518740624,646.9384155,0.04579664767,
646.0608521,0.05491727963,646.0608521,0.08805654943,646.0608521,0.05704366416,646.0608521,0.0542742908,646.0608521,0.04510313645,646.0608521,0.04621580988,
645.0368042,0.05533087254,645.0368042,0.08923101425,645.0368042,0.05816525593,645.0368042,0.05504446104,645.0368042,0.04587429389,645.0368042,0.04717773944,
644.0124512,0.05585971847,644.0124512,0.08995427191,644.0124512,0.05940198526,644.0124512,0.0559206605,644.0124512,0.04720457643,644.0124512,0.04793822393,
642.9877319,0.05609579757,642.9877319,0.09045064449,642.9877319,0.06009295583,642.9877319,0.05672296509,642.9877319,0.04784659669,642.9877319,0.04869048297,
641.9627686,0.05683707446,641.9627686,0.09106358141,641.9627686,0.06142368913,641.9627686,0.05784100667,641.9627686,0.04910552129,641.9627686,0.0496365577,
640.9375,0.05710002035,640.9375,0.09169286489,640.9375,0.0622622557,640.9375,0.05835731328,640.9375,0.04960144684,640.9375,0.05046567321,
640.0584106,0.05734241381,640.0584106,0.09213799983,640.0584106,0.06300112605,640.0584106,0.05903816968,640.0584106,0.05019887164,640.0584106,0.05096847937,
639.0325928,0.05762629583,639.0325928,0.0930602774,639.0325928,0.06381701678,639.0325928,0.06046744436,639.0325928,0.05120170861,639.0325928,0.05251381919,
638.0064087,0.0584885627,638.0064087,0.09442000091,638.0064087,0.06573683769,638.0064087,0.06167176366,638.0064087,0.05263767019,638.0064087,0.05353282765,
636.9799805,0.0585247241,636.9799805,0.09462730587,636.9799805,0.06632214785,636.9799805,0.06218332797,636.9799805,0.05345837027,636.9799805,0.05384391174,
635.953186,0.05906690657,635.953186,0.09563092142,635.953186,0.06780828536,635.953186,0.06358116865,635.953186,0.05475894734,635.953186,0.0552896224,
635.072876,0.05963275209,635.072876,0.09678503126,635.072876,0.06906799972,635.072876,0.06446667761,635.072876,0.05572832376,635.072876,0.05646620318,
634.0455933,0.05981129035,634.0455933,0.09689166397,634.0455933,0.0700635612,634.0455933,0.06508957595,634.0455933,0.05622273684,634.0455933,0.05675081164,
633.0180054,0.06040642411,633.0180054,0.09766008705,633.0180054,0.071145989,633.0180054,0.06605148315,633.0180054,0.05724228546,633.0180054,0.0581054464,
631.9900513,0.06069145352,631.9900513,0.09870235622,631.9900513,0.07267142832,631.9900513,0.067500256,631.9900513,0.05872856081,631.9900513,0.05918567255,
630.961853,0.06098763272,630.961853,0.09960599989,630.961853,0.07373648882,630.961853,0.06843679398,630.961853,0.05955448002,630.961853,0.05965006351,
629.9333496,0.06189502031,629.9333496,0.1006628126,629.9333496,0.0753486827,629.9333496,0.07043204457,629.9333496,0.06121256575,629.9333496,0.06158056483,
629.0515747,0.0622485429,629.0515747,0.1010986194,629.0515747,0.07642752677,629.0515747,0.07126264274,629.0515747,0.06204519793,629.0515747,0.06257881969,
628.0224609,0.06282585114,628.0224609,0.1021420509,628.0224609,0.07786660641,628.0224609,0.07227315754,628.0224609,0.06330633909,628.0224609,0.06362301111,
626.9931641,0.06310902536,626.9931641,0.1030210853,626.9931641,0.07911422849,626.9931641,0.07358206064,626.9931641,0.06433060765,626.9931641,0.06476054341,
625.963501,0.06361135095,625.963501,0.1037690192,625.963501,0.08072310686,625.963501,0.07454954833,625.963501,0.06556915492,625.963501,0.06614392996,
624.9335327,0.06433922052,624.9335327,0.1053077057,624.9335327,0.08223694563,624.9335327,0.0764773488,624.9335327,0.06724526733,624.9335327,0.06750962883,
624.0504761,0.06429269165,624.0504761,0.105864495,624.0504761,0.08359654248,624.0504761,0.07757178694,624.0504761,0.0684267655,624.0504761,0.06841961294,
623.0200195,0.06486049294,623.0200195,0.1069370955,623.0200195,0.08543932438,623.0200195,0.0789539665,623.0200195,0.06975319982,623.0200195,0.07013811916,
621.9891968,0.06568820029,621.9891968,0.1076562852,621.9891968,0.08680460602,621.9891968,0.08018018305,621.9891968,0.07085852325,621.9891968,0.07108680159,
620.9581299,0.06600670516,620.9581299,0.1083515435,620.9581299,0.08824501187,620.9581299,0.08170393854,620.9581299,0.07220430672,620.9581299,0.0726698041,
619.9267578,0.06654214114,619.9267578,0.1092957556,619.9267578,0.08993019909,619.9267578,0.08301927894,619.9267578,0.0739448294,619.9267578,0.07404498011,
619.0424805,0.06699154526,619.0424805,0.1105661988,619.0424805,0.09136039764,619.0424805,0.08438645303,619.0424805,0.07556916773,619.0424805,0.07529625297,
618.0105591,0.06733406335,618.0105591,0.1116348878,618.0105591,0.0929479748,618.0105591,0.08589055389,618.0105591,0.07664105296,618.0105591,0.07672734559,
616.9783936,0.06833946705,616.9783936,0.112568289,616.9783936,0.09539625049,616.9783936,0.08791523427,616.9783936,0.07861174643,616.9783936,0.07856242359,
615.9458618,0.06877402961,615.9458618,0.1137958765,615.9458618,0.09694605321,615.9458618,0.08950611949,615.9458618,0.08023816347,615.9458618,0.08020188659,
615.0606079,0.06886705011,615.0606079,0.1142769605,615.0606079,0.09836097062,615.0606079,0.09053500742,615.0606079,0.08159188181,615.0606079,0.0815532729,
614.0275879,0.07002431899,614.0275879,0.1158656403,614.0275879,0.1007765755,614.0275879,0.0927400887,614.0275879,0.08330803365,614.0275879,0.08343932778,
612.9942627,0.07027558982,612.9942627,0.116709359,612.9942627,0.1025455147,612.9942627,0.09443181008,612.9942627,0.08520510793,612.9942627,0.08507788181,
611.9606323,0.07061559707,611.9606323,0.1176363677,611.9606323,0.104559727,611.9606323,0.09612029791,611.9606323,0.08673237264,611.9606323,0.08668117225,
610.9267578,0.07169036567,610.9267578,0.1192456484,610.9267578,0.1067500114,610.9267578,0.09829695523,610.9267578,0.08898486942,610.9267578,0.08872342855,
610.0402832,0.0717850551,610.0402832,0.1200226843,610.0402832,0.1085063145,610.0402832,0.09970203042,610.0402832,0.090338476,610.0402832,0.09021980315,
609.0058594,0.07238744944,609.0058594,0.1213426739,609.0058594,0.1107487828,609.0058594,0.1016838253,609.0058594,0.09254944324,609.0058594,0.09202843159,
607.9711304,0.0731202364,607.9711304,0.1226509288,607.9711304,0.1133177355,607.9711304,0.1037149802,607.9711304,0.09474825114,607.9711304,0.09456013888,
606.9360962,0.07356914878,606.9360962,0.123506777,606.9360962,0.1155310422,606.9360962,0.1061352715,606.9360962,0.09666056931,606.9360962,0.09620725363,
606.0487061,0.07396293432,606.0487061,0.1243959218,606.0487061,0.1171478182,606.0487061,0.1075704843,606.0487061,0.09835285693,606.0487061,0.09776333719,
605.0131836,0.07480828464,605.0131836,0.1259089559,605.0131836,0.1196426228,605.0131836,0.1100018844,605.0131836,0.1005194932,605.0131836,0.09997716546,
603.977356,0.07562677562,603.977356,0.1276271045,603.977356,0.1225286201,603.977356,0.1124730334,603.977356,0.1031503379,603.977356,0.1026151776,
602.9412231,0.0758965686,602.9412231,0.1285255253,602.9412231,0.1248131916,602.9412231,0.1146894023,602.9412231,0.1053701267,602.9412231,0.1047263667,
602.0528564,0.07664868236,602.0528564,0.1297412515,602.0528564,0.1273328066,602.0528564,0.1169989482,602.0528564,0.10772717,602.0528564,0.1067931429,
601.0162354,0.07700453699,601.0162354,0.1308472753,601.0162354,0.1295969784,601.0162354,0.119074434,601.0162354,0.1098500788,601.0162354,0.1088231429,
599.9793091,0.07762517035,599.9793091,0.1319705844,599.9793091,0.1323637068,599.9793091,0.1210828498,599.9793091,0.1121531948,599.9793091,0.1110106558,
598.9420776,0.07864984125,598.9420776,0.1331956983,598.9420776,0.1351235211,598.9420776,0.1242206693,598.9420776,0.1148905307,598.9420776,0.1137434319,
598.0527954,0.07889644057,598.0527954,0.1345632821,598.0527954,0.137735486,598.0527954,0.1266450733,598.0527954,0.117372565,598.0527954,0.1161443889,
597.0150757,0.07942961156,597.0150757,0.1359131038,597.0150757,0.1406425089,597.0150757,0.1290985495,597.0150757,0.1200902313,597.0150757,0.1186407357,
595.9770508,0.08030302823,595.9770508,0.1372777075,595.9770508,0.1433855146,595.9770508,0.1319752932,595.9770508,0.1225199699,595.9770508,0.1212874651,
594.9387207,0.08063080907,594.9387207,0.1382680535,594.9387207,0.1464487612,594.9387207,0.1344769448,594.9387207,0.1252336651,594.9387207,0.1238013804,
594.0485229,0.08152247965,594.0485229,0.1397158653,594.0485229,0.1487276703,594.0485229,0.1369948238,594.0485229,0.1275137216,594.0485229,0.1260013282,
593.0097046,0.08183246851,593.0097046,0.1406772882,593.0097046,0.1516942978,593.0097046,0.1398359388,593.0097046,0.130296737,593.0097046,0.1286368072,
591.9706421,0.08280873299,591.9706421,0.1421164274,591.9706421,0.1555291563,591.9706421,0.1431095004,591.9706421,0.133633554,591.9706421,0.132063657,
590.9312134,0.08321371675,590.9312134,0.1439104974,590.9312134,0.1586452574,590.9312134,0.1465004385,590.9312134,0.1370664388,590.9312134,0.1352450252,
590.0401001,0.0837924704,590.0401001,0.1450186819,590.0401001,0.1616633087,590.0401001,0.1490404457,590.0401001,0.1397282183,590.0401001,0.1380705088,
589.0001831,0.08447942883,589.0001831,0.1468306035,589.0001831,0.1653082669,589.0001831,0.1525700688,589.0001831,0.1433109343,589.0001831,0.1413071901,
587.960022,0.08571824431,587.960022,0.1479701102,587.960022,0.1688939333,587.960022,0.156114012,587.960022,0.1466623992,587.960022,0.1443096697,
587.0682373,0.08584635705,587.0682373,0.148924917,587.0682373,0.1716166288,587.0682373,0.1584645063,587.0682373,0.1489514261,587.0682373,0.1469108313,
586.0275269,0.0865457058,586.0275269,0.150526315,586.0275269,0.1753485054,586.0275269,0.1622347087,586.0275269,0.1526218653,586.0275269,0.1506798416,
584.9865723,0.08714277297,584.9865723,0.1519552916,584.9865723,0.1795302331,584.9865723,0.1659398675,584.9865723,0.1564224362,584.9865723,0.1545465887,
583.9453125,0.08770448714,583.9453125,0.1530317813,583.9453125,0.1830808371,583.9453125,0.1696562022,583.9453125,0.1602027267,583.9453125,0.1579254419,
583.0525513,0.08835435659,583.0525513,0.1543191522,583.0525513,0.1868330836,583.0525513,0.1730837375,583.0525513,0.1635427475,583.0525513,0.161035344,
582.0108032,0.08916120976,582.0108032,0.1559478045,582.0108032,0.190477699,582.0108032,0.176353842,582.0108032,0.1672902405,582.0108032,0.1647293568,
580.968811,0.08951716125,580.968811,0.1571237743,580.968811,0.1939287633,580.968811,0.1799159944,580.968811,0.1706111282,580.968811,0.1681763083,
579.9264526,0.09007653594,579.9264526,0.1585468352,579.9264526,0.1982328445,579.9264526,0.1840555817,579.9264526,0.1744102985,579.9264526,0.1718252748,
579.0328369,0.09104203433,579.0328369,0.1601749808,579.0328369,0.2025686502,579.0328369,0.1880690008,579.0328369,0.1787656546,579.0328369,0.175932616,
577.9900513,0.0911886543,577.9900513,0.1610071808,577.9900513,0.2064853013,577.9900513,0.1920813173,577.9900513,0.1825948507,577.9900513,0.1798857599,
576.9469604,0.09226375818,576.9469604,0.1629513502,576.9469604,0.2105703503,576.9469604,0.1965974867,576.9469604,0.187018916,576.9469604,0.1840288043,
576.0526123,0.09272470325,576.0526123,0.1640753895,576.0526123,0.2140351832,576.0526123,0.1997558177,576.0526123,0.1901550889,576.0526123,0.1872544289,
575.0090332,0.09333890676,575.0090332,0.1652465612,575.0090332,0.2184372842,575.0090332,0.2038383931,575.0090332,0.1944338828,575.0090332,0.191484496,
573.9651489,0.09401871264,573.9651489,0.1666043699,573.9651489,0.2228013873,573.9651489,0.2082919776,573.9651489,0.1990634948,573.9651489,0.1958404332,
573.0701904,0.09453953803,573.0701904,0.1679144055,573.0701904,0.2269564867,573.0701904,0.2127757072,573.0701904,0.2035486251,573.0701904,0.2001232058,
572.0258179,0.09503718466,572.0258179,0.1694085449,572.0258179,0.2312520146,572.0258179,0.2170246392,572.0258179,0.2075144649,572.0258179,0.2042079568,
570.9812012,0.09563231468,570.9812012,0.170526132,570.9812012,0.2359925658,570.9812012,0.2215208858,570.9812012,0.2121314704,570.9812012,0.2086878866,
569.9362793,0.09628766775,569.9362793,0.1718072891,569.9362793,0.2406375408,569.9362793,0.2264559418,569.9362793,0.2173784822,569.9362793,0.2133170664,
569.0404053,0.09679492563,569.0404053,0.172802344,569.0404053,0.2443172038,569.0404053,0.2300483286,569.0404053,0.2207695544,569.0404053,0.2168966979,
567.9949951,0.09727780521,567.9949951,0.1740065664,567.9949951,0.248887524,567.9949951,0.2348208874,567.9949951,0.2255786508,567.9949951,0.2215135098,
566.9493408,0.09757141024,566.9493408,0.1751584858,566.9493408,0.2532890439,566.9493408,0.2390612066,566.9493408,0.2299059927,566.9493408,0.2259980738,
566.0528564,0.09812027216,566.0528564,0.1766219288,566.0528564,0.2574253082,566.0528564,0.2437708378,566.0528564,0.2344263345,566.0528564,0.2305130213,
565.0066528,0.09879288822,565.0066528,0.1776852161,565.0066528,0.2624606788,565.0066528,0.2485191226,565.0066528,0.2395174503,565.0066528,0.2352133542,
563.9602051,0.09939552844,563.9602051,0.1788340658,563.9602051,0.2675418854,563.9602051,0.2537488639,563.9602051,0.2451137602,563.9602051,0.2407873273,
563.0630493,0.09975901991,563.0630493,0.1798015535,563.0630493,0.2709713578,563.0630493,0.2577980161,563.0630493,0.2488285303,563.0630493,0.2442676425,
562.0161133,0.1002513766,562.0161133,0.1807641238,562.0161133,0.2756564021,562.0161133,0.2624877393,562.0161133,0.2536071837,562.0161133,0.2491879612,
560.9689331,0.10061647,560.9689331,0.1818518937,560.9689331,0.2805980742,560.9689331,0.2675430477,560.9689331,0.2585752606,560.9689331,0.2541880906,
560.071106,0.1008791253,560.071106,0.1829185784,560.071106,0.2853246033,560.071106,0.2726325691,560.071106,0.2636333108,560.071106,0.2589404881,
559.0234375,0.1015732959,559.0234375,0.1838923246,559.0234375,0.2900532782,559.0234375,0.2778447866,559.0234375,0.2690780163,559.0234375,0.264365375,
557.9754639,0.1020539925,557.9754639,0.1851150095,557.9754639,0.2947120667,557.9754639,0.2828138173,557.9754639,0.2741390765,557.9754639,0.2691600025,
556.9272461,0.1021980569,556.9272461,0.1857931018,556.9272461,0.2986715138,556.9272461,0.2870016992,556.9272461,0.2784768641,556.9272461,0.2735810578,
556.0285645,0.1027066931,556.0285645,0.1865844429,556.0285645,0.3024104536,556.0285645,0.2910838723,556.0285645,0.2824659646,556.0285645,0.2775756717,
554.9798584,0.103106156,554.9798584,0.1873084158,554.9798584,0.3069713116,554.9798584,0.2963584661,554.9798584,0.2876200974,554.9798584,0.2826629579,
553.9308472,0.1035632789,553.9308472,0.1883923113,553.9308472,0.3119650185,553.9308472,0.3017086089,553.9308472,0.2931518853,553.9308472,0.288021028,
553.0315552,0.1032718718,553.0315552,0.1887906194,553.0315552,0.3152024746,553.0315552,0.3054563701,553.0315552,0.2968350053,553.0315552,0.2916526198,
551.9820557,0.1039474532,551.9820557,0.1895514131,551.9820557,0.319594413,551.9820557,0.3105235398,551.9820557,0.301952213,551.9820557,0.2965897322,
550.932373,0.1040861234,550.932373,0.1904125214,550.932373,0.3234812915,550.932373,0.3147755861,550.932373,0.3064323068,550.932373,0.3006867766,
550.0324097,0.1041762009,550.0324097,0.1905397177,550.0324097,0.3265986145,550.0324097,0.3185651302,550.0324097,0.3099038005,550.0324097,0.3046773672,
548.9821777,0.1046929583,548.9821777,0.1913895309,548.9821777,0.3310838938,548.9821777,0.323576659,548.9821777,0.3150868118,548.9821777,0.3096962273,
547.9317627,0.1044879407,547.9317627,0.1915427595,547.9317627,0.3345243037,547.9317627,0.3274122477,547.9317627,0.3192532659,547.9317627,0.3138169646,
547.0311279,0.1045063138,547.0311279,0.1919432431,547.0311279,0.3374434114,547.0311279,0.3309007585,547.0311279,0.3229131401,547.0311279,0.3171508908,
545.9802246,0.1045947075,545.9802246,0.1923049092,545.9802246,0.3408276141,545.9802246,0.3350198269,545.9802246,0.3269627988,545.9802246,0.3215374947,
544.9290161,0.1048001051,544.9290161,0.1925472617,544.9290161,0.3442665637,544.9290161,0.3391523361,544.9290161,0.33112064,544.9290161,0.3252314329,
544.027771,0.1047875807,544.027771,0.1927907169,544.027771,0.3466457725,544.027771,0.3420066833,544.027771,0.3338718116,544.027771,0.3282405138,
542.9760742,0.1047431678,542.9760742,0.1928755343,542.9760742,0.3495908678,542.9760742,0.345536381,542.9760742,0.3376724422,542.9760742,0.3318752348,
542.0744629,0.1047701538,542.0744629,0.1929951757,542.0744629,0.3519772589,542.0744629,0.3486476839,542.0744629,0.3406402767,542.0744629,0.3349620104,
541.0223389,0.1050165147,541.0223389,0.193462193,541.0223389,0.3543555439,541.0223389,0.3516898751,541.0223389,0.3439388573,541.0223389,0.3381122351,
539.9699097,0.1049441844,539.9699097,0.1935211122,539.9699097,0.3570899963,539.9699097,0.3550601602,539.9699097,0.3472090364,539.9699097,0.341358304,
539.067627,0.1046707258,539.067627,0.1930795163,539.067627,0.3585188389,539.067627,0.3568920195,539.067627,0.3491728902,539.067627,0.3434048295,
538.0147705,0.1045188308,538.0147705,0.1928473711,538.0147705,0.3604550064,538.0147705,0.3596076965,538.0147705,0.3519614935,538.0147705,0.3460936248,
536.9616089,0.1046600491,536.9616089,0.1930502802,536.9616089,0.3622094691,536.9616089,0.3624158502,536.9616089,0.3546312451,536.9616089,0.3487136662,
536.0587158,0.1041143462,536.0587158,0.1923451424,536.0587158,0.3633190095,536.0587158,0.3641247451,536.0587158,0.3565459847,536.0587158,0.3507599533,
535.005127,0.1038561016,535.005127,0.1919616014,535.005127,0.364851743,535.005127,0.3663240075,535.005127,0.3588686585,535.005127,0.3529906571,
533.9512939,0.1036219373,533.9512939,0.1917766184,533.9512939,0.3659063578,533.9512939,0.3680496216,533.9512939,0.3605971932,533.9512939,0.3546695709,
533.0477905,0.1033667773,533.0477905,0.1916541457,533.0477905,0.3664726019,533.0477905,0.3691240251,533.0477905,0.3616731465,533.0477905,0.3557225168,
531.9934692,0.1032906249,531.9934692,0.1911552548,531.9934692,0.3669392169,531.9934692,0.370597899,531.9934692,0.362962395,531.9934692,0.3570682704,
530.9389038,0.1028367355,530.9389038,0.1903361231,530.9389038,0.3671368957,530.9389038,0.3716306388,530.9389038,0.3638889194,530.9389038,0.3579779267,
530.034729,0.1024907455,530.034729,0.1895986795,530.034729,0.3671688735,530.034729,0.3721344769,530.034729,0.3645438254,530.034729,0.3587136269,
528.9797363,0.1021577343,528.9797363,0.1894665062,528.9797363,0.3672625721,528.9797363,0.3728630543,528.9797363,0.3653132021,528.9797363,0.3591896594,
528.0751953,0.1017390862,528.0751953,0.1885472536,528.0751953,0.3665729165,528.0751953,0.3725946546,528.0751953,0.3650340736,528.0751953,0.3593528569,
527.0197144,0.1014866009,527.0197144,0.1878727078,527.0197144,0.365875423,527.0197144,0.3728975654,527.0197144,0.3650905192,527.0197144,0.359234333,
525.9639282,0.1008444205,525.9639282,0.1869831681,525.9639282,0.3651293516,525.9639282,0.372394383,525.9639282,0.3645882905,525.9639282,0.3588464856,
525.0588379,0.1003614739,525.0588379,0.1862354428,525.0588379,0.3639786243,525.0588379,0.3720771372,525.0588379,0.363984704,525.0588379,0.3585833609,
524.0026245,0.09965708852,524.0026245,0.1849719584,524.0026245,0.3619974852,524.0026245,0.3703817427,524.0026245,0.3626921475,524.0026245,0.357260108,
522.946106,0.09909851104,522.946106,0.1838845313,522.946106,0.3603681326,522.946106,0.3694874346,522.946106,0.3615717292,522.946106,0.35630247,
522.0404053,0.09862194955,522.0404053,0.1828071177,522.0404053,0.3585195243,522.0404053,0.3682360649,522.0404053,0.3603153229,522.0404053,0.3545832038,
520.9834595,0.09831146896,520.9834595,0.1819026172,520.9834595,0.3569583595,520.9834595,0.3668631017,520.9834595,0.3586350083,520.9834595,0.3535399139,
519.9263306,0.0973643139,519.9263306,0.1802523434,519.9263306,0.3543597758,519.9263306,0.3647781312,519.9263306,0.3566042185,519.9263306,0.3512210846,
519.0199585,0.09678173065,519.0199585,0.1795107424,519.0199585,0.3517147601,519.0199585,0.3624267876,519.0199585,0.3543025553,519.0199585,0.3489958346,
517.9623413,0.09605738521,517.9623413,0.1779752374,517.9623413,0.3487021625,517.9623413,0.3597984016,517.9623413,0.3515197933,517.9623413,0.3466485739,
517.055603,0.09535165876,517.055603,0.1768967211,517.055603,0.3460392654,517.055603,0.3574643433,517.055603,0.3492416739,517.055603,0.3440454006,
515.9975586,0.09474075586,515.9975586,0.1756617725,515.9975586,0.3432465196,515.9975586,0.3549589515,515.9975586,0.3463777006,515.9975586,0.3414834738,
514.939209,0.09396123886,514.939209,0.1742645353,514.939209,0.3396556675,514.939209,0.3521409333,514.939209,0.3432374895,514.939209,0.3385227323,
514.0319214,0.09341022372,514.0319214,0.1731342971,514.0319214,0.3368653059,514.0319214,0.3493606448,514.0319214,0.3406570852,514.0319214,0.3360562325,
512.9731445,0.09246078134,512.9731445,0.1712442338,512.9731445,0.3328381181,512.9731445,0.3453824818,512.9731445,0.3364006579,512.9731445,0.3316253126,
512.0654297,0.09178619832,512.0654297,0.170126304,512.0654297,0.3294396698,512.0654297,0.3428623676,512.0654297,0.3332934678,512.0654297,0.328579694,
511.0062256,0.09090383351,511.0062256,0.1685818285,511.0062256,0.3251758516,511.0062256,0.3386454582,511.0062256,0.3291380107,511.0062256,0.3247571588,
509.9467468,0.09016767889,509.9467468,0.1671578139,509.9467468,0.3216880858,509.9467468,0.3350866735,509.9467468,0.3255651593,509.9467468,0.3211574852,
509.0384521,0.08976510167,509.0384521,0.1659262031,509.0384521,0.3187666833,509.0384521,0.331949532,509.0384521,0.3222608268,509.0384521,0.3183130622,
507.9785461,0.08875845373,507.9785461,0.1642456353,507.9785461,0.313770324,507.9785461,0.3275358379,507.9785461,0.3177526593,507.9785461,0.3137573302,
507.0698547,0.08780340105,507.0698547,0.1626701504,507.0698547,0.3096936047,507.0698547,0.3234563768,507.0698547,0.3137224615,507.0698547,0.3097395897,
506.0095215,0.0870680213,506.0095215,0.1610764414,506.0095215,0.3051556051,506.0095215,0.3189382553,506.0095215,0.3091802597,506.0095215,0.3052129447,
504.9489136,0.08609414101,504.9489136,0.1593472958,504.9489136,0.3007431328,504.9489136,0.3144652247,504.9489136,0.3046610653,504.9489136,0.3008815348,
504.0396423,0.08560621738,504.0396423,0.1584809572,504.0396423,0.2981577218,504.0396423,0.311961323,504.0396423,0.3015973866,504.0396423,0.2979175746,
502.9786377,0.0849782303,502.9786377,0.1567081958,502.9786377,0.2938149571,502.9786377,0.3076830506,502.9786377,0.2974908352,502.9786377,0.2940038145,
502.0689697,0.0841550082,502.0689697,0.1553851515,502.0689697,0.2899260819,502.0689697,0.3034721315,502.0689697,0.2930977046,502.0689697,0.2893291712,
501.0075073,0.08328012377,501.0075073,0.1537975669,501.0075073,0.2852073312,501.0075073,0.2992462516,501.0075073,0.288508445,501.0075073,0.2849689722,
499.9458008,0.08268107474,499.9458008,0.1522954404,499.9458008,0.2814896107,499.9458008,0.2954958975,499.9458008,0.2843322754,499.9458008,0.2811475694,
499.035553,0.08205451816,499.035553,0.1512024701,499.035553,0.2781246006,499.035553,0.2922234535,499.035553,0.2809948027,499.035553,0.277980566,
497.9734192,0.08132632822,497.9734192,0.149912551,497.9734192,0.2744655311,497.9734192,0.2883209884,497.9734192,0.2770708799,497.9734192,0.2741864324,
497.0628052,0.08061236143,497.0628052,0.1485001594,497.0628052,0.2708346248,497.0628052,0.2848365903,497.0628052,0.2735153139,497.0628052,0.2704368532,
496.0002441,0.07997126132,496.0002441,0.1472265869,496.0002441,0.2672290206,496.0002441,0.2807597816,496.0002441,0.2690612078,496.0002441,0.266708225,
494.9374084,0.07911196351,494.9374084,0.1457465887,494.9374084,0.2632707059,494.9374084,0.2771880031,494.9374084,0.2652973533,494.9374084,0.2623765171,
494.0262451,0.0787705183,494.0262451,0.1449299008,494.0262451,0.2603593767,494.0262451,0.2743456066,494.0262451,0.2621632516,494.0262451,0.2594416142,
492.9629822,0.07792665809,492.9629822,0.1436882615,492.9629822,0.256967634,492.9629822,0.2707082033,492.9629822,0.2591570616,492.9629822,0.2558679581,
492.0514526,0.07761836797,492.0514526,0.1428870261,492.0514526,0.2543953061,492.0514526,0.2687416971,492.0514526,0.2564704418,492.0514526,0.253670305,
490.9877625,0.07698156685,490.9877625,0.1417586952,490.9877625,0.2513993382,490.9877625,0.2653566301,490.9877625,0.253226161,490.9877625,0.2505401671,
490.0758362,0.07636545599,490.0758362,0.1405143738,490.0758362,0.2487687171,490.0758362,0.2622173429,490.0758362,0.2500202358,490.0758362,0.2474130988,
489.0117188,0.07582178712,489.0117188,0.1396503448,489.0117188,0.2459101826,489.0117188,0.2595613897,489.0117188,0.2471315414,489.0117188,0.2446303964,
487.9473877,0.07546188682,487.9473877,0.1388587207,487.9473877,0.2429861575,487.9473877,0.2567158341,487.9473877,0.2442246228,487.9473877,0.2419074923,
487.0349121,0.07504704595,487.0349121,0.1383125782,487.0349121,0.2413270473,487.0349121,0.25515607,487.0349121,0.2423669249,487.0349121,0.2399394214,
485.9701233,0.07462165505,485.9701233,0.1372511834,485.9701233,0.238776207,485.9701233,0.252471447,485.9701233,0.2390953153,485.9701233,0.2372693568,
485.0572815,0.07421001792,485.0572815,0.136600405,485.0572815,0.2365282774,485.0572815,0.2502803802,485.0572815,0.2370736897,485.0572815,0.2346470654,
483.9920959,0.07372375578,483.9920959,0.1360761374,483.9920959,0.2342923731,483.9920959,0.248148337,483.9920959,0.2351080924,483.9920959,0.2327002287,
482.9266663,0.0734128207,482.9266663,0.1355166137,482.9266663,0.2325930595,482.9266663,0.2459915429,482.9266663,0.2328921705,482.9266663,0.23035492,
482.0132446,0.07319385558,482.0132446,0.1351156086,482.0132446,0.2310885191,482.0132446,0.2446701825,482.0132446,0.2311622947,482.0132446,0.2293148935,
480.9474182,0.07288131118,480.9474182,0.1341191232,480.9474182,0.2289227247,480.9474182,0.2425301522,480.9474182,0.2289803475,480.9474182,0.2270765454,
480.0336304,0.07291076332,480.0336304,0.1341774017,480.0336304,0.2278231382,480.0336304,0.2412243187,480.0336304,0.2277415693,480.0336304,0.2254579067,
478.9673767,0.07265147567,478.9673767,0.1336137354,478.9673767,0.2258953899,478.9673767,0.2396645546,478.9673767,0.2263259739,478.9673767,0.2237834334,
478.0532532,0.07246473432,478.0532532,0.1330146044,478.0532532,0.2247454375,478.0532532,0.2381027043,478.0532532,0.2243871838,478.0532532,0.2223990262,
476.9865417,0.07191315293,476.9865417,0.1325888187,476.9865417,0.2230225652,476.9865417,0.2364699543,476.9865417,0.2227941602,476.9865417,0.2207109332,
476.072052,0.07189082354,476.072052,0.1322673857,476.072052,0.2221280038,476.072052,0.2357664257,476.072052,0.2217666358,476.072052,0.2198511809,
475.0049438,0.0715514347,475.0049438,0.1319858134,475.0049438,0.2209669203,475.0049438,0.2346001565,475.0049438,0.2207142115,475.0049438,0.2184782028,
473.9376221,0.07148896158,473.9376221,0.1315249056,473.9376221,0.2197263539,473.9376221,0.2332800925,473.9376221,0.2189470083,473.9376221,0.217009753,
473.022583,0.07128106803,473.022583,0.1311433613,473.022583,0.2187661529,473.022583,0.2325418591,473.022583,0.2179255337,473.022583,0.2163016051,
471.954834,0.07132990658,471.954834,0.1309566945,471.954834,0.2179271579,471.954834,0.2314673811,471.954834,0.2171168476,471.954834,0.2150855064,
471.0394287,0.07091450691,471.0394287,0.130686596,471.0394287,0.2167867124,471.0394287,0.2306089848,471.0394287,0.2158632725,471.0394287,0.2141431719,
469.971283,0.07080900669,469.971283,0.1305031329,469.971283,0.2160379887,469.971283,0.2296199203,469.971283,0.2149519771,469.971283,0.2131200582,
469.055542,0.07065690309,469.055542,0.1302508265,469.055542,0.2151168585,469.055542,0.2288985252,469.055542,0.2140917927,469.055542,0.2121895254,
467.986969,0.07086669654,467.986969,0.1302168667,467.986969,0.214581266,467.986969,0.2282395661,467.986969,0.2134812772,467.986969,0.2115765363,
467.0708618,0.0707706511,467.0708618,0.1301162243,467.0708618,0.2140782326,467.0708618,0.2278565019,467.0708618,0.2127935737,467.0708618,0.2108707577,
466.0018921,0.07060249895,466.0018921,0.130066663,466.0018921,0.2135251313,466.0018921,0.2270726711,466.0018921,0.2121479213,466.0018921,0.2101929337,
464.9326782,0.07072424889,464.9326782,0.1301218122,464.9326782,0.2130695432,464.9326782,0.2267651111,464.9326782,0.2114537358,464.9326782,0.2099463791,
464.0160522,0.07041359693,464.0160522,0.1299787015,464.0160522,0.2123702019,464.0160522,0.2260272652,464.0160522,0.2110431939,464.0160522,0.2090337873,
462.9464417,0.07057515532,462.9464417,0.1298078448,462.9464417,0.2119909674,462.9464417,0.2259368449,462.9464417,0.2103676945,462.9464417,0.2087707669,
462.0294495,0.07038255036,462.0294495,0.1296583414,462.0294495,0.211372152,462.0294495,0.2252794057,462.0294495,0.209806025,462.0294495,0.2081848979,
460.9594421,0.0703176558,460.9594421,0.1295799464,460.9594421,0.211240679,460.9594421,0.2251028568,460.9594421,0.2093528956,460.9594421,0.2077187896,
460.0421143,0.07039713115,460.0421143,0.1296203882,460.0421143,0.2108843476,460.0421143,0.2249005139,460.0421143,0.2090926915,460.0421143,0.2075255662,
458.9716797,0.07034657151,458.9716797,0.1296588331,458.9716797,0.2106057853,458.9716797,0.2245550752,458.9716797,0.2087632716,458.9716797,0.2070496082,
458.0540161,0.07020615041,458.0540161,0.1296138912,458.0540161,0.2103174329,458.0540161,0.2241313905,458.0540161,0.2083794326,458.0540161,0.2067138702,
456.9831848,0.070315063,456.9831848,0.1296165437,456.9831848,0.2098369449,456.9831848,0.2240949571,456.9831848,0.2079655081,456.9831848,0.2063750029,
456.065155,0.07043929398,456.065155,0.1294561923,456.065155,0.2098913789,456.065155,0.2238555104,456.065155,0.2078164816,456.065155,0.2061785907,
454.993927,0.0703760013,454.993927,0.1295935959,454.993927,0.2095641792,454.993927,0.2237902433,454.993927,0.2076185346,454.993927,0.2058343589,
454.0755615,0.07012668252,454.0755615,0.1295715421,454.0755615,0.2092560679,454.0755615,0.2236303985,454.0755615,0.2072457224,454.0755615,0.2054748386,
453.0039673,0.07042470574,453.0039673,0.1297657937,453.0039673,0.2091783732,453.0039673,0.2236209959,453.0039673,0.2070305645,453.0039673,0.2055329978,
451.9321289,0.07059857249,451.9321289,0.1299563199,451.9321289,0.2092107683,451.9321289,0.2235216349,451.9321289,0.2070276439,451.9321289,0.2055335045,
451.0132446,0.07040014118,451.0132446,0.1298867315,451.0132446,0.2091256976,451.0132446,0.2235709727,451.0132446,0.2069724798,451.0132446,0.2051897049,
449.9410095,0.07051288337,449.9410095,0.129936561,449.9410095,0.209083885,449.9410095,0.2235215455,449.9410095,0.2066555023,449.9410095,0.2052002549,
449.0217896,0.07024595141,449.0217896,0.1298335344,449.0217896,0.2088719159,449.0217896,0.2233531028,449.0217896,0.2064768523,449.0217896,0.2048611194,
447.9491577,0.07038497925,447.9491577,0.1300328672,447.9491577,0.2089676559,447.9491577,0.2234621346,447.9491577,0.2065815181,447.9491577,0.2048821896,
447.0296021,0.07028304785,447.0296021,0.129915297,447.0296021,0.2088343203,447.0296021,0.2234354615,447.0296021,0.206539318,447.0296021,0.2048657238,
445.9565735,0.07056592405,445.9565735,0.1302195936,445.9565735,0.2087802738,445.9565735,0.2236237377,445.9565735,0.2063589394,445.9565735,0.2049464285,
445.0366821,0.0707077086,445.0366821,0.1304822266,445.0366821,0.2090271711,445.0366821,0.2239668816,445.0366821,0.2065223306,445.0366821,0.2050392181,
443.9632568,0.07070566714,443.9632568,0.1303723007,443.9632568,0.2091049999,443.9632568,0.2238373458,443.9632568,0.2065100819,443.9632568,0.2049001604,
443.0430298,0.0706108436,443.0430298,0.1302810162,443.0430298,0.2089261413,443.0430298,0.223942861,443.0430298,0.2063616365,443.0430298,0.2046732605,
441.9692383,0.07077412307,441.9692383,0.130670622,441.9692383,0.2091519684,441.9692383,0.2241369039,441.9692383,0.2065680176,441.9692383,0.2048773468,
441.0486755,0.07078262419,441.0486755,0.1308625191,441.0486755,0.2091961354,441.0486755,0.22421588,441.0486755,0.2065200806,441.0486755,0.2049261332,
439.9744873,0.0708989948,439.9744873,0.1308169365,439.9744873,0.2092902213,439.9744873,0.2245560735,439.9744873,0.2067569941,439.9744873,0.2051377296,
439.0535889,0.07091853023,439.0535889,0.1311101764,439.0535889,0.2096464187,439.0535889,0.2248946875,439.0535889,0.2068735957,439.0535889,0.2051631808,
437.9790344,0.07120719552,437.9790344,0.1312829107,437.9790344,0.2097400278,437.9790344,0.225103423,437.9790344,0.2068040371,437.9790344,0.2054405957,
437.0578003,0.07080419362,437.0578003,0.1311682165,437.0578003,0.2098276317,437.0578003,0.2252644449,437.0578003,0.2069113255,437.0578003,0.2053801566,
435.9828491,0.07087031752,435.9828491,0.1313348413,435.9828491,0.2100173235,435.9828491,0.2254763544,435.9828491,0.2073262483,435.9828491,0.2057130486,
435.0612793,0.07114434242,435.0612793,0.1315460801,435.0612793,0.2100744992,435.0612793,0.2257784307,435.0612793,0.2073703408,435.0612793,0.2057573646,
433.9859619,0.07133969665,433.9859619,0.1316454709,433.9859619,0.2102266997,433.9859619,0.2259625345,433.9859619,0.207544893,433.9859619,0.2058838457,
433.0640869,0.07135742158,433.0640869,0.1318399757,433.0640869,0.2104338706,433.0640869,0.2263801098,433.0640869,0.2075250149,433.0640869,0.2060726434,
431.9883728,0.07160613686,431.9883728,0.1318919212,431.9883728,0.2108599991,431.9883728,0.2267082483,431.9883728,0.207928583,431.9883728,0.2063901275,
431.0661621,0.07154466212,431.0661621,0.1321033835,431.0661621,0.2111140192,431.0661621,0.2270384729,431.0661621,0.2079619169,431.0661621,0.2064991295,
429.9900513,0.07156514376,429.9900513,0.1319173127,429.9900513,0.2111870944,429.9900513,0.2271421403,429.9900513,0.2078451812,429.9900513,0.2064631134,
429.0675354,0.07158855349,429.0675354,0.1323312074,429.0675354,0.2116111815,429.0675354,0.2277074605,429.0675354,0.2084475756,429.0675354,0.2070640028,
427.9910583,0.07167959213,427.9910583,0.1326148957,427.9910583,0.211776346,427.9910583,0.22796987,427.9910583,0.2086826116,427.9910583,0.2071886212,
427.0682068,0.07186751813,427.0682068,0.1327962726,427.0682068,0.2120379061,427.0682068,0.2283827662,427.0682068,0.208919242,427.0682068,0.207305342,
425.9913635,0.07212361693,425.9913635,0.1330373585,425.9913635,0.2123046964,425.9913635,0.228846252,425.9913635,0.209343791,425.9913635,0.2078098953,
425.0682068,0.07200746238,425.0682068,0.1330031455,425.0682068,0.2125217617,425.0682068,0.2289988995,425.0682068,0.2092204392,425.0682068,0.2077844143,
423.9909668,0.07210604101,423.9909668,0.1331884563,423.9909668,0.2127732188,423.9909668,0.2294991016,423.9909668,0.2097219378,423.9909668,0.2079733312,
423.0674744,0.07226958126,423.0674744,0.1334487349,423.0674744,0.2132723629,423.0674744,0.2300259918,423.0674744,0.2101057917,423.0674744,0.2084185034,
421.9898987,0.07227782905,421.9898987,0.133486852,421.9898987,0.2133787572,421.9898987,0.2304882854,421.9898987,0.2101881355,421.9898987,0.2086610049,
421.0661011,0.07225371152,421.0661011,0.1336632818,421.0661011,0.2135831565,421.0661011,0.2307416797,421.0661011,0.2104115933,421.0661011,0.2088394314,
419.9881287,0.07229917496,419.9881287,0.1339119673,419.9881287,0.2138403505,419.9881287,0.2312513888,419.9881287,0.2106886506,419.9881287,0.2092219889,
419.0639954,0.07248277962,419.0639954,0.1342924684,419.0639954,0.2146159261,419.0639954,0.2321546227,419.0639954,0.211252898,419.0639954,0.2096696198,
417.9856873,0.07277802378,417.9856873,0.1345124692,417.9856873,0.2149466723,417.9856873,0.2325480878,417.9856873,0.2117423713,417.9856873,0.210029915,
417.0612488,0.07313331962,417.0612488,0.1346732974,417.0612488,0.2151490599,417.0612488,0.2329982519,417.0612488,0.2121783942,417.0612488,0.2105636597,
415.9825439,0.07294909656,415.9825439,0.1346604079,415.9825439,0.2155961245,415.9825439,0.2335030437,415.9825439,0.2123667747,415.9825439,0.2107090503,
415.0578003,0.07289774716,415.0578003,0.1347666234,415.0578003,0.2158371806,415.0578003,0.2338815778,415.0578003,0.2125857472,415.0578003,0.2111914754,
413.9787292,0.07318687439,413.9787292,0.1352062821,413.9787292,0.2164565623,413.9787292,0.2345778495,413.9787292,0.2133223116,413.9787292,0.2116666734,
413.0536804,0.07316269726,413.0536804,0.1352722645,413.0536804,0.2168221027,413.0536804,0.2348661423,413.0536804,0.2134475559,413.0536804,0.2119605094,
411.9742432,0.07333748043,411.9742432,0.1355384737,411.9742432,0.2173923701,411.9742432,0.2354656011,411.9742432,0.2139348537,411.9742432,0.2123274356,
411.0488892,0.07354667038,411.0488892,0.1355983466,411.0488892,0.2175448835,411.0488892,0.2359552085,411.0488892,0.2142949253,411.0488892,0.2128458917,
409.9690857,0.07370173186,409.9690857,0.1359870881,409.9690857,0.2180178612,409.9690857,0.2365006208,409.9690857,0.2147705704,409.9690857,0.2131049633,
409.0434265,0.0736534223,409.0434265,0.136188373,409.0434265,0.2185718417,409.0434265,0.2370254844,409.0434265,0.2151488066,409.0434265,0.2136351913,
407.9632874,0.07390723377,407.9632874,0.1364273429,407.9632874,0.2191443145,407.9632874,0.2376715094,407.9632874,0.2158797383,407.9632874,0.2142229825,
407.0372925,0.07397352159,407.0372925,0.1366076618,407.0372925,0.2194396555,407.0372925,0.2381989658,407.0372925,0.2161497474,407.0372925,0.2145047635,
405.9567871,0.07414294779,405.9567871,0.1369251758,405.9567871,0.2202214897,405.9567871,0.2390258312,405.9567871,0.2167050093,405.9567871,0.2150464207,
405.0304871,0.07402874529,405.0304871,0.1371537298,405.0304871,0.2203557342,405.0304871,0.2394589931,405.0304871,0.2170979381,405.0304871,0.2155606896,
403.949646,0.07418658584,403.949646,0.1373564452,403.949646,0.2208462954,403.949646,0.2400889993,403.949646,0.2174322158,403.949646,0.2158111483,
403.0230408,0.07446808368,403.0230408,0.1375753433,403.0230408,0.2215330452,403.0230408,0.2408691645,403.0230408,0.2182530463,403.0230408,0.2165181339,
401.9418335,0.07460930198,401.9418335,0.1378376186,401.9418335,0.2220929116,401.9418335,0.2415231615,401.9418335,0.218681559,401.9418335,0.2170058191,
401.0149231,0.0748565644,401.0149231,0.138101697,401.0149231,0.2226028889,401.0149231,0.242190063,401.0149231,0.2193270475,401.0149231,0.2175524831,
399.9333801,0.07480730116,399.9333801,0.1382649541,399.9333801,0.2230417281,399.9333801,0.2427260727,399.9333801,0.219746232,399.9333801,0.2182469666,

H2 100x 24hr,
H2 100x 24hr
Collection Time: 9/27/2015 1:45:15 PM
Operator Name  :
Scan Version 5.0.0.999
Parameter List :
Instrument  Cary 50
Instrument Version  3.00
Start (nm)  700.0
Stop (nm)  400.0
X Mode  Nanometers
Y Mode  Abs
UV-Vis Scan Rate (nm/min)  600.000
UV-Vis Data Interval (nm)  1.00
UV-Vis Ave. Time (sec)  0.1000
Beam Mode  Dual Beam
Baseline Correction  On
Baseline Type  Baseline correction
Baseline File Name
Baseline Std Ref File Name
Cycle Mode  Off
Method Log     :
Method Name    : C:\Users\heatherweltner\Documents\Au Standard.MSW
Date/Time stamp: 7/3/2015 11:24:50 AM
Method Modifications:
UVVIS SAT Changed: 7/1/2015 11:30:22 AM, Old:0.0125, New:0.1000
Common SAT Changed: 7/1/2015 11:30:22 AM, Old:0.0125, New:0.1000
X Start nm Changed: 7/1/2015 11:30:31 AM, Old:  800.0, New:  700.0
X Stop nm Changed: 7/1/2015 11:30:31 AM, Old:  200.0, New:  300.0
Common Interval nm Changed: 7/1/2015 11:30:31 AM, Old:     5.00, New:     1.00
Baseline Correction Changed: 7/1/2015 11:30:31 AM, Old:0, New:1
Saved as C:\Users\heatherweltner\Documents\Au Standard.MSWOpened C:\Users\heatherweltner\Documents\Au Standard.MSW
X Stop nm Changed: 7/3/2015 11:24:45 AM, Old:  300.0, New:  400.0
Saved as C:\Users\heatherweltner\Documents\Au Standard.MSW
Opened C:\Users\heatherweltner\Documents\Au Standard.MSW
End Method Modifications
<Current Wavelength> , 401.0

H2 30x 24hr,
H2 30x 24hr
Collection Time: 9/27/2015 1:46:26 PM
Operator Name  :
Scan Version 5.0.0.999
Parameter List :
Instrument  Cary 50
Instrument Version  3.00
Start (nm)  700.0
Stop (nm)  400.0
X Mode  Nanometers
Y Mode  Abs
UV-Vis Scan Rate (nm/min)  600.000
UV-Vis Data Interval (nm)  1.00
UV-Vis Ave. Time (sec)  0.1000
Beam Mode  Dual Beam
Baseline Correction  On
Baseline Type  Baseline correction
Baseline File Name
Baseline Std Ref File Name
Cycle Mode  Off
Method Log     :
Method Name    : C:\Users\heatherweltner\Documents\Au Standard.MSW
Date/Time stamp: 7/3/2015 11:24:50 AM
Method Modifications:
UVVIS SAT Changed: 7/1/2015 11:30:22 AM, Old:0.0125, New:0.1000
Common SAT Changed: 7/1/2015 11:30:22 AM, Old:0.0125, New:0.1000
X Start nm Changed: 7/1/2015 11:30:31 AM, Old:  800.0, New:  700.0
X Stop nm Changed: 7/1/2015 11:30:31 AM, Old:  200.0, New:  300.0
Common Interval nm Changed: 7/1/2015 11:30:31 AM, Old:     5.00, New:     1.00
Baseline Correction Changed: 7/1/2015 11:30:31 AM, Old:0, New:1
Saved as C:\Users\heatherweltner\Documents\Au Standard.MSWOpened C:\Users\heatherweltner\Documents\Au Standard.MSW
X Stop nm Changed: 7/3/2015 11:24:45 AM, Old:  300.0, New:  400.0
Saved as C:\Users\heatherweltner\Documents\Au Standard.MSW
Opened C:\Users\heatherweltner\Documents\Au Standard.MSW
End Method Modifications
<Current Wavelength> , 401.0

H2 10x 24hr,
H2 10x 24hr
Collection Time: 9/27/2015 1:47:31 PM
Operator Name  :
Scan Version 5.0.0.999
Parameter List :
Instrument  Cary 50
Instrument Version  3.00
Start (nm)  700.0
Stop (nm)  400.0
X Mode  Nanometers
Y Mode  Abs
UV-Vis Scan Rate (nm/min)  600.000
UV-Vis Data Interval (nm)  1.00
UV-Vis Ave. Time (sec)  0.1000
Beam Mode  Dual Beam
Baseline Correction  On
Baseline Type  Baseline correction
Baseline File Name
Baseline Std Ref File Name
Cycle Mode  Off
Method Log     :
Method Name    : C:\Users\heatherweltner\Documents\Au Standard.MSW
Date/Time stamp: 7/3/2015 11:24:50 AM
Method Modifications:
UVVIS SAT Changed: 7/1/2015 11:30:22 AM, Old:0.0125, New:0.1000
Common SAT Changed: 7/1/2015 11:30:22 AM, Old:0.0125, New:0.1000
X Start nm Changed: 7/1/2015 11:30:31 AM, Old:  800.0, New:  700.0
X Stop nm Changed: 7/1/2015 11:30:31 AM, Old:  200.0, New:  300.0
Common Interval nm Changed: 7/1/2015 11:30:31 AM, Old:     5.00, New:     1.00
Baseline Correction Changed: 7/1/2015 11:30:31 AM, Old:0, New:1
Saved as C:\Users\heatherweltner\Documents\Au Standard.MSWOpened C:\Users\heatherweltner\Documents\Au Standard.MSW
X Stop nm Changed: 7/3/2015 11:24:45 AM, Old:  300.0, New:  400.0
Saved as C:\Users\heatherweltner\Documents\Au Standard.MSW
Opened C:\Users\heatherweltner\Documents\Au Standard.MSW
End Method Modifications
<Current Wavelength> , 401.0

H2 3x 24hr,
H2 3x 24hr
Collection Time: 9/27/2015 1:48:38 PM
Operator Name  :
Scan Version 5.0.0.999
Parameter List :
Instrument  Cary 50
Instrument Version  3.00
Start (nm)  700.0
Stop (nm)  400.0
X Mode  Nanometers
Y Mode  Abs
UV-Vis Scan Rate (nm/min)  600.000
UV-Vis Data Interval (nm)  1.00
UV-Vis Ave. Time (sec)  0.1000
Beam Mode  Dual Beam
Baseline Correction  On
Baseline Type  Baseline correction
Baseline File Name
Baseline Std Ref File Name
Cycle Mode  Off
Method Log     :
Method Name    : C:\Users\heatherweltner\Documents\Au Standard.MSW
Date/Time stamp: 7/3/2015 11:24:50 AM
Method Modifications:
UVVIS SAT Changed: 7/1/2015 11:30:22 AM, Old:0.0125, New:0.1000
Common SAT Changed: 7/1/2015 11:30:22 AM, Old:0.0125, New:0.1000
X Start nm Changed: 7/1/2015 11:30:31 AM, Old:  800.0, New:  700.0
X Stop nm Changed: 7/1/2015 11:30:31 AM, Old:  200.0, New:  300.0
Common Interval nm Changed: 7/1/2015 11:30:31 AM, Old:     5.00, New:     1.00
Baseline Correction Changed: 7/1/2015 11:30:31 AM, Old:0, New:1
Saved as C:\Users\heatherweltner\Documents\Au Standard.MSWOpened C:\Users\heatherweltner\Documents\Au Standard.MSW
X Stop nm Changed: 7/3/2015 11:24:45 AM, Old:  300.0, New:  400.0
Saved as C:\Users\heatherweltner\Documents\Au Standard.MSW
Opened C:\Users\heatherweltner\Documents\Au Standard.MSW
End Method Modifications
<Current Wavelength> , 401.0

H2 1x 24hr,
H2 1x 24hr
Collection Time: 9/27/2015 1:49:27 PM
Operator Name  :
Scan Version 5.0.0.999
Parameter List :
Instrument  Cary 50
Instrument Version  3.00
Start (nm)  700.0
Stop (nm)  400.0
X Mode  Nanometers
Y Mode  Abs
UV-Vis Scan Rate (nm/min)  600.000
UV-Vis Data Interval (nm)  1.00
UV-Vis Ave. Time (sec)  0.1000
Beam Mode  Dual Beam
Baseline Correction  On
Baseline Type  Baseline correction
Baseline File Name
Baseline Std Ref File Name
Cycle Mode  Off
Method Log     :
Method Name    : C:\Users\heatherweltner\Documents\Au Standard.MSW
Date/Time stamp: 7/3/2015 11:24:50 AM
Method Modifications:
UVVIS SAT Changed: 7/1/2015 11:30:22 AM, Old:0.0125, New:0.1000
Common SAT Changed: 7/1/2015 11:30:22 AM, Old:0.0125, New:0.1000
X Start nm Changed: 7/1/2015 11:30:31 AM, Old:  800.0, New:  700.0
X Stop nm Changed: 7/1/2015 11:30:31 AM, Old:  200.0, New:  300.0
Common Interval nm Changed: 7/1/2015 11:30:31 AM, Old:     5.00, New:     1.00
Baseline Correction Changed: 7/1/2015 11:30:31 AM, Old:0, New:1
Saved as C:\Users\heatherweltner\Documents\Au Standard.MSWOpened C:\Users\heatherweltner\Documents\Au Standard.MSW
X Stop nm Changed: 7/3/2015 11:24:45 AM, Old:  300.0, New:  400.0
Saved as C:\Users\heatherweltner\Documents\Au Standard.MSW
Opened C:\Users\heatherweltner\Documents\Au Standard.MSW
End Method Modifications
<Current Wavelength> , 401.0

H2 0x 24hr,
H2 0x 24hr
Collection Time: 9/27/2015 1:50:15 PM
Operator Name  :
Scan Version 5.0.0.999
Parameter List :
Instrument  Cary 50
Instrument Version  3.00
Start (nm)  700.0
Stop (nm)  400.0
X Mode  Nanometers
Y Mode  Abs
UV-Vis Scan Rate (nm/min)  600.000
UV-Vis Data Interval (nm)  1.00
UV-Vis Ave. Time (sec)  0.1000
Beam Mode  Dual Beam
Baseline Correction  On
Baseline Type  Baseline correction
Baseline File Name
Baseline Std Ref File Name
Cycle Mode  Off
Method Log     :
Method Name    : C:\Users\heatherweltner\Documents\Au Standard.MSW
Date/Time stamp: 7/3/2015 11:24:50 AM
Method Modifications:
UVVIS SAT Changed: 7/1/2015 11:30:22 AM, Old:0.0125, New:0.1000
Common SAT Changed: 7/1/2015 11:30:22 AM, Old:0.0125, New:0.1000
X Start nm Changed: 7/1/2015 11:30:31 AM, Old:  800.0, New:  700.0
X Stop nm Changed: 7/1/2015 11:30:31 AM, Old:  200.0, New:  300.0
Common Interval nm Changed: 7/1/2015 11:30:31 AM, Old:     5.00, New:     1.00
Baseline Correction Changed: 7/1/2015 11:30:31 AM, Old:0, New:1
Saved as C:\Users\heatherweltner\Documents\Au Standard.MSWOpened C:\Users\heatherweltner\Documents\Au Standard.MSW
X Stop nm Changed: 7/3/2015 11:24:45 AM, Old:  300.0, New:  400.0
Saved as C:\Users\heatherweltner\Documents\Au Standard.MSW
Opened C:\Users\heatherweltner\Documents\Au Standard.MSW
End Method Modifications
<Current Wavelength> , 401.0

